[Info]
Version 1
Dimension 3
NumNodes 1331
Num3DElements 1000
Num2DElements 0
Num1DElements 0
NumNodeBC 866
NumSaveNodes 0
NumSaveElements 0
Num 2d-line      : 0
Num 2d-line,quad : 0
Num 3d-line      : 0
Num 3d-line,quad : 0
Num triangle     : 0
Num triangle,quad: 0
Num quadr        : 0
Num quadr,quad   : 0
Num tetra        : 0
Num tetra,quad   : 0
Num brick        : 1000
Num brick,quad   : 0
Num pyramid      : 0
Num pyramid,quad : 0
Num wedge        : 0
Num wedge,quad   : 0

[Nodes]
#NodeNr x-coord y-coord z-coord
1  0.0  0.0  0.0
2  0.1  0.0  0.0
3  0.2  0.0  0.0
4  0.30000000000000004  0.0  0.0
5  0.4  0.0  0.0
6  0.5  0.0  0.0
7  0.6000000000000001  0.0  0.0
8  0.7000000000000001  0.0  0.0
9  0.8  0.0  0.0
10  0.9  0.0  0.0
11  1.0  0.0  0.0
12  0.0  0.1  0.0
13  0.1  0.1  0.0
14  0.2  0.1  0.0
15  0.30000000000000004  0.1  0.0
16  0.4  0.1  0.0
17  0.5  0.1  0.0
18  0.6000000000000001  0.1  0.0
19  0.7000000000000001  0.1  0.0
20  0.8  0.1  0.0
21  0.9  0.1  0.0
22  1.0  0.1  0.0
23  0.0  0.2  0.0
24  0.1  0.2  0.0
25  0.2  0.2  0.0
26  0.30000000000000004  0.2  0.0
27  0.4  0.2  0.0
28  0.5  0.2  0.0
29  0.6000000000000001  0.2  0.0
30  0.7000000000000001  0.2  0.0
31  0.8  0.2  0.0
32  0.9  0.2  0.0
33  1.0  0.2  0.0
34  0.0  0.30000000000000004  0.0
35  0.1  0.30000000000000004  0.0
36  0.2  0.30000000000000004  0.0
37  0.30000000000000004  0.30000000000000004  0.0
38  0.4  0.30000000000000004  0.0
39  0.5  0.30000000000000004  0.0
40  0.6000000000000001  0.30000000000000004  0.0
41  0.7000000000000001  0.30000000000000004  0.0
42  0.8  0.30000000000000004  0.0
43  0.9  0.30000000000000004  0.0
44  1.0  0.30000000000000004  0.0
45  0.0  0.4  0.0
46  0.1  0.4  0.0
47  0.2  0.4  0.0
48  0.30000000000000004  0.4  0.0
49  0.4  0.4  0.0
50  0.5  0.4  0.0
51  0.6000000000000001  0.4  0.0
52  0.7000000000000001  0.4  0.0
53  0.8  0.4  0.0
54  0.9  0.4  0.0
55  1.0  0.4  0.0
56  0.0  0.5  0.0
57  0.1  0.5  0.0
58  0.2  0.5  0.0
59  0.30000000000000004  0.5  0.0
60  0.4  0.5  0.0
61  0.5  0.5  0.0
62  0.6000000000000001  0.5  0.0
63  0.7000000000000001  0.5  0.0
64  0.8  0.5  0.0
65  0.9  0.5  0.0
66  1.0  0.5  0.0
67  0.0  0.6000000000000001  0.0
68  0.1  0.6000000000000001  0.0
69  0.2  0.6000000000000001  0.0
70  0.30000000000000004  0.6000000000000001  0.0
71  0.4  0.6000000000000001  0.0
72  0.5  0.6000000000000001  0.0
73  0.6000000000000001  0.6000000000000001  0.0
74  0.7000000000000001  0.6000000000000001  0.0
75  0.8  0.6000000000000001  0.0
76  0.9  0.6000000000000001  0.0
77  1.0  0.6000000000000001  0.0
78  0.0  0.7000000000000001  0.0
79  0.1  0.7000000000000001  0.0
80  0.2  0.7000000000000001  0.0
81  0.30000000000000004  0.7000000000000001  0.0
82  0.4  0.7000000000000001  0.0
83  0.5  0.7000000000000001  0.0
84  0.6000000000000001  0.7000000000000001  0.0
85  0.7000000000000001  0.7000000000000001  0.0
86  0.8  0.7000000000000001  0.0
87  0.9  0.7000000000000001  0.0
88  1.0  0.7000000000000001  0.0
89  0.0  0.8  0.0
90  0.1  0.8  0.0
91  0.2  0.8  0.0
92  0.30000000000000004  0.8  0.0
93  0.4  0.8  0.0
94  0.5  0.8  0.0
95  0.6000000000000001  0.8  0.0
96  0.7000000000000001  0.8  0.0
97  0.8  0.8  0.0
98  0.9  0.8  0.0
99  1.0  0.8  0.0
100  0.0  0.9  0.0
101  0.1  0.9  0.0
102  0.2  0.9  0.0
103  0.30000000000000004  0.9  0.0
104  0.4  0.9  0.0
105  0.5  0.9  0.0
106  0.6000000000000001  0.9  0.0
107  0.7000000000000001  0.9  0.0
108  0.8  0.9  0.0
109  0.9  0.9  0.0
110  1.0  0.9  0.0
111  0.0  1.0  0.0
112  0.1  1.0  0.0
113  0.2  1.0  0.0
114  0.30000000000000004  1.0  0.0
115  0.4  1.0  0.0
116  0.5  1.0  0.0
117  0.6000000000000001  1.0  0.0
118  0.7000000000000001  1.0  0.0
119  0.8  1.0  0.0
120  0.9  1.0  0.0
121  1.0  1.0  0.0
122  0.0  0.0  0.1
123  0.1  0.0  0.1
124  0.2  0.0  0.1
125  0.30000000000000004  0.0  0.1
126  0.4  0.0  0.1
127  0.5  0.0  0.1
128  0.6000000000000001  0.0  0.1
129  0.7000000000000001  0.0  0.1
130  0.8  0.0  0.1
131  0.9  0.0  0.1
132  1.0  0.0  0.1
133  0.0  0.1  0.1
134  0.1  0.1  0.1
135  0.2  0.1  0.1
136  0.30000000000000004  0.1  0.1
137  0.4  0.1  0.1
138  0.5  0.1  0.1
139  0.6000000000000001  0.1  0.1
140  0.7000000000000001  0.1  0.1
141  0.8  0.1  0.1
142  0.9  0.1  0.1
143  1.0  0.1  0.1
144  0.0  0.2  0.1
145  0.1  0.2  0.1
146  0.2  0.2  0.1
147  0.30000000000000004  0.2  0.1
148  0.4  0.2  0.1
149  0.5  0.2  0.1
150  0.6000000000000001  0.2  0.1
151  0.7000000000000001  0.2  0.1
152  0.8  0.2  0.1
153  0.9  0.2  0.1
154  1.0  0.2  0.1
155  0.0  0.30000000000000004  0.1
156  0.1  0.30000000000000004  0.1
157  0.2  0.30000000000000004  0.1
158  0.30000000000000004  0.30000000000000004  0.1
159  0.4  0.30000000000000004  0.1
160  0.5  0.30000000000000004  0.1
161  0.6000000000000001  0.30000000000000004  0.1
162  0.7000000000000001  0.30000000000000004  0.1
163  0.8  0.30000000000000004  0.1
164  0.9  0.30000000000000004  0.1
165  1.0  0.30000000000000004  0.1
166  0.0  0.4  0.1
167  0.1  0.4  0.1
168  0.2  0.4  0.1
169  0.30000000000000004  0.4  0.1
170  0.4  0.4  0.1
171  0.5  0.4  0.1
172  0.6000000000000001  0.4  0.1
173  0.7000000000000001  0.4  0.1
174  0.8  0.4  0.1
175  0.9  0.4  0.1
176  1.0  0.4  0.1
177  0.0  0.5  0.1
178  0.1  0.5  0.1
179  0.2  0.5  0.1
180  0.30000000000000004  0.5  0.1
181  0.4  0.5  0.1
182  0.5  0.5  0.1
183  0.6000000000000001  0.5  0.1
184  0.7000000000000001  0.5  0.1
185  0.8  0.5  0.1
186  0.9  0.5  0.1
187  1.0  0.5  0.1
188  0.0  0.6000000000000001  0.1
189  0.1  0.6000000000000001  0.1
190  0.2  0.6000000000000001  0.1
191  0.30000000000000004  0.6000000000000001  0.1
192  0.4  0.6000000000000001  0.1
193  0.5  0.6000000000000001  0.1
194  0.6000000000000001  0.6000000000000001  0.1
195  0.7000000000000001  0.6000000000000001  0.1
196  0.8  0.6000000000000001  0.1
197  0.9  0.6000000000000001  0.1
198  1.0  0.6000000000000001  0.1
199  0.0  0.7000000000000001  0.1
200  0.1  0.7000000000000001  0.1
201  0.2  0.7000000000000001  0.1
202  0.30000000000000004  0.7000000000000001  0.1
203  0.4  0.7000000000000001  0.1
204  0.5  0.7000000000000001  0.1
205  0.6000000000000001  0.7000000000000001  0.1
206  0.7000000000000001  0.7000000000000001  0.1
207  0.8  0.7000000000000001  0.1
208  0.9  0.7000000000000001  0.1
209  1.0  0.7000000000000001  0.1
210  0.0  0.8  0.1
211  0.1  0.8  0.1
212  0.2  0.8  0.1
213  0.30000000000000004  0.8  0.1
214  0.4  0.8  0.1
215  0.5  0.8  0.1
216  0.6000000000000001  0.8  0.1
217  0.7000000000000001  0.8  0.1
218  0.8  0.8  0.1
219  0.9  0.8  0.1
220  1.0  0.8  0.1
221  0.0  0.9  0.1
222  0.1  0.9  0.1
223  0.2  0.9  0.1
224  0.30000000000000004  0.9  0.1
225  0.4  0.9  0.1
226  0.5  0.9  0.1
227  0.6000000000000001  0.9  0.1
228  0.7000000000000001  0.9  0.1
229  0.8  0.9  0.1
230  0.9  0.9  0.1
231  1.0  0.9  0.1
232  0.0  1.0  0.1
233  0.1  1.0  0.1
234  0.2  1.0  0.1
235  0.30000000000000004  1.0  0.1
236  0.4  1.0  0.1
237  0.5  1.0  0.1
238  0.6000000000000001  1.0  0.1
239  0.7000000000000001  1.0  0.1
240  0.8  1.0  0.1
241  0.9  1.0  0.1
242  1.0  1.0  0.1
243  0.0  0.0  0.2
244  0.1  0.0  0.2
245  0.2  0.0  0.2
246  0.30000000000000004  0.0  0.2
247  0.4  0.0  0.2
248  0.5  0.0  0.2
249  0.6000000000000001  0.0  0.2
250  0.7000000000000001  0.0  0.2
251  0.8  0.0  0.2
252  0.9  0.0  0.2
253  1.0  0.0  0.2
254  0.0  0.1  0.2
255  0.1  0.1  0.2
256  0.2  0.1  0.2
257  0.30000000000000004  0.1  0.2
258  0.4  0.1  0.2
259  0.5  0.1  0.2
260  0.6000000000000001  0.1  0.2
261  0.7000000000000001  0.1  0.2
262  0.8  0.1  0.2
263  0.9  0.1  0.2
264  1.0  0.1  0.2
265  0.0  0.2  0.2
266  0.1  0.2  0.2
267  0.2  0.2  0.2
268  0.30000000000000004  0.2  0.2
269  0.4  0.2  0.2
270  0.5  0.2  0.2
271  0.6000000000000001  0.2  0.2
272  0.7000000000000001  0.2  0.2
273  0.8  0.2  0.2
274  0.9  0.2  0.2
275  1.0  0.2  0.2
276  0.0  0.30000000000000004  0.2
277  0.1  0.30000000000000004  0.2
278  0.2  0.30000000000000004  0.2
279  0.30000000000000004  0.30000000000000004  0.2
280  0.4  0.30000000000000004  0.2
281  0.5  0.30000000000000004  0.2
282  0.6000000000000001  0.30000000000000004  0.2
283  0.7000000000000001  0.30000000000000004  0.2
284  0.8  0.30000000000000004  0.2
285  0.9  0.30000000000000004  0.2
286  1.0  0.30000000000000004  0.2
287  0.0  0.4  0.2
288  0.1  0.4  0.2
289  0.2  0.4  0.2
290  0.30000000000000004  0.4  0.2
291  0.4  0.4  0.2
292  0.5  0.4  0.2
293  0.6000000000000001  0.4  0.2
294  0.7000000000000001  0.4  0.2
295  0.8  0.4  0.2
296  0.9  0.4  0.2
297  1.0  0.4  0.2
298  0.0  0.5  0.2
299  0.1  0.5  0.2
300  0.2  0.5  0.2
301  0.30000000000000004  0.5  0.2
302  0.4  0.5  0.2
303  0.5  0.5  0.2
304  0.6000000000000001  0.5  0.2
305  0.7000000000000001  0.5  0.2
306  0.8  0.5  0.2
307  0.9  0.5  0.2
308  1.0  0.5  0.2
309  0.0  0.6000000000000001  0.2
310  0.1  0.6000000000000001  0.2
311  0.2  0.6000000000000001  0.2
312  0.30000000000000004  0.6000000000000001  0.2
313  0.4  0.6000000000000001  0.2
314  0.5  0.6000000000000001  0.2
315  0.6000000000000001  0.6000000000000001  0.2
316  0.7000000000000001  0.6000000000000001  0.2
317  0.8  0.6000000000000001  0.2
318  0.9  0.6000000000000001  0.2
319  1.0  0.6000000000000001  0.2
320  0.0  0.7000000000000001  0.2
321  0.1  0.7000000000000001  0.2
322  0.2  0.7000000000000001  0.2
323  0.30000000000000004  0.7000000000000001  0.2
324  0.4  0.7000000000000001  0.2
325  0.5  0.7000000000000001  0.2
326  0.6000000000000001  0.7000000000000001  0.2
327  0.7000000000000001  0.7000000000000001  0.2
328  0.8  0.7000000000000001  0.2
329  0.9  0.7000000000000001  0.2
330  1.0  0.7000000000000001  0.2
331  0.0  0.8  0.2
332  0.1  0.8  0.2
333  0.2  0.8  0.2
334  0.30000000000000004  0.8  0.2
335  0.4  0.8  0.2
336  0.5  0.8  0.2
337  0.6000000000000001  0.8  0.2
338  0.7000000000000001  0.8  0.2
339  0.8  0.8  0.2
340  0.9  0.8  0.2
341  1.0  0.8  0.2
342  0.0  0.9  0.2
343  0.1  0.9  0.2
344  0.2  0.9  0.2
345  0.30000000000000004  0.9  0.2
346  0.4  0.9  0.2
347  0.5  0.9  0.2
348  0.6000000000000001  0.9  0.2
349  0.7000000000000001  0.9  0.2
350  0.8  0.9  0.2
351  0.9  0.9  0.2
352  1.0  0.9  0.2
353  0.0  1.0  0.2
354  0.1  1.0  0.2
355  0.2  1.0  0.2
356  0.30000000000000004  1.0  0.2
357  0.4  1.0  0.2
358  0.5  1.0  0.2
359  0.6000000000000001  1.0  0.2
360  0.7000000000000001  1.0  0.2
361  0.8  1.0  0.2
362  0.9  1.0  0.2
363  1.0  1.0  0.2
364  0.0  0.0  0.30000000000000004
365  0.1  0.0  0.30000000000000004
366  0.2  0.0  0.30000000000000004
367  0.30000000000000004  0.0  0.30000000000000004
368  0.4  0.0  0.30000000000000004
369  0.5  0.0  0.30000000000000004
370  0.6000000000000001  0.0  0.30000000000000004
371  0.7000000000000001  0.0  0.30000000000000004
372  0.8  0.0  0.30000000000000004
373  0.9  0.0  0.30000000000000004
374  1.0  0.0  0.30000000000000004
375  0.0  0.1  0.30000000000000004
376  0.1  0.1  0.30000000000000004
377  0.2  0.1  0.30000000000000004
378  0.30000000000000004  0.1  0.30000000000000004
379  0.4  0.1  0.30000000000000004
380  0.5  0.1  0.30000000000000004
381  0.6000000000000001  0.1  0.30000000000000004
382  0.7000000000000001  0.1  0.30000000000000004
383  0.8  0.1  0.30000000000000004
384  0.9  0.1  0.30000000000000004
385  1.0  0.1  0.30000000000000004
386  0.0  0.2  0.30000000000000004
387  0.1  0.2  0.30000000000000004
388  0.2  0.2  0.30000000000000004
389  0.30000000000000004  0.2  0.30000000000000004
390  0.4  0.2  0.30000000000000004
391  0.5  0.2  0.30000000000000004
392  0.6000000000000001  0.2  0.30000000000000004
393  0.7000000000000001  0.2  0.30000000000000004
394  0.8  0.2  0.30000000000000004
395  0.9  0.2  0.30000000000000004
396  1.0  0.2  0.30000000000000004
397  0.0  0.30000000000000004  0.30000000000000004
398  0.1  0.30000000000000004  0.30000000000000004
399  0.2  0.30000000000000004  0.30000000000000004
400  0.30000000000000004  0.30000000000000004  0.30000000000000004
401  0.4  0.30000000000000004  0.30000000000000004
402  0.5  0.30000000000000004  0.30000000000000004
403  0.6000000000000001  0.30000000000000004  0.30000000000000004
404  0.7000000000000001  0.30000000000000004  0.30000000000000004
405  0.8  0.30000000000000004  0.30000000000000004
406  0.9  0.30000000000000004  0.30000000000000004
407  1.0  0.30000000000000004  0.30000000000000004
408  0.0  0.4  0.30000000000000004
409  0.1  0.4  0.30000000000000004
410  0.2  0.4  0.30000000000000004
411  0.30000000000000004  0.4  0.30000000000000004
412  0.4  0.4  0.30000000000000004
413  0.5  0.4  0.30000000000000004
414  0.6000000000000001  0.4  0.30000000000000004
415  0.7000000000000001  0.4  0.30000000000000004
416  0.8  0.4  0.30000000000000004
417  0.9  0.4  0.30000000000000004
418  1.0  0.4  0.30000000000000004
419  0.0  0.5  0.30000000000000004
420  0.1  0.5  0.30000000000000004
421  0.2  0.5  0.30000000000000004
422  0.30000000000000004  0.5  0.30000000000000004
423  0.4  0.5  0.30000000000000004
424  0.5  0.5  0.30000000000000004
425  0.6000000000000001  0.5  0.30000000000000004
426  0.7000000000000001  0.5  0.30000000000000004
427  0.8  0.5  0.30000000000000004
428  0.9  0.5  0.30000000000000004
429  1.0  0.5  0.30000000000000004
430  0.0  0.6000000000000001  0.30000000000000004
431  0.1  0.6000000000000001  0.30000000000000004
432  0.2  0.6000000000000001  0.30000000000000004
433  0.30000000000000004  0.6000000000000001  0.30000000000000004
434  0.4  0.6000000000000001  0.30000000000000004
435  0.5  0.6000000000000001  0.30000000000000004
436  0.6000000000000001  0.6000000000000001  0.30000000000000004
437  0.7000000000000001  0.6000000000000001  0.30000000000000004
438  0.8  0.6000000000000001  0.30000000000000004
439  0.9  0.6000000000000001  0.30000000000000004
440  1.0  0.6000000000000001  0.30000000000000004
441  0.0  0.7000000000000001  0.30000000000000004
442  0.1  0.7000000000000001  0.30000000000000004
443  0.2  0.7000000000000001  0.30000000000000004
444  0.30000000000000004  0.7000000000000001  0.30000000000000004
445  0.4  0.7000000000000001  0.30000000000000004
446  0.5  0.7000000000000001  0.30000000000000004
447  0.6000000000000001  0.7000000000000001  0.30000000000000004
448  0.7000000000000001  0.7000000000000001  0.30000000000000004
449  0.8  0.7000000000000001  0.30000000000000004
450  0.9  0.7000000000000001  0.30000000000000004
451  1.0  0.7000000000000001  0.30000000000000004
452  0.0  0.8  0.30000000000000004
453  0.1  0.8  0.30000000000000004
454  0.2  0.8  0.30000000000000004
455  0.30000000000000004  0.8  0.30000000000000004
456  0.4  0.8  0.30000000000000004
457  0.5  0.8  0.30000000000000004
458  0.6000000000000001  0.8  0.30000000000000004
459  0.7000000000000001  0.8  0.30000000000000004
460  0.8  0.8  0.30000000000000004
461  0.9  0.8  0.30000000000000004
462  1.0  0.8  0.30000000000000004
463  0.0  0.9  0.30000000000000004
464  0.1  0.9  0.30000000000000004
465  0.2  0.9  0.30000000000000004
466  0.30000000000000004  0.9  0.30000000000000004
467  0.4  0.9  0.30000000000000004
468  0.5  0.9  0.30000000000000004
469  0.6000000000000001  0.9  0.30000000000000004
470  0.7000000000000001  0.9  0.30000000000000004
471  0.8  0.9  0.30000000000000004
472  0.9  0.9  0.30000000000000004
473  1.0  0.9  0.30000000000000004
474  0.0  1.0  0.30000000000000004
475  0.1  1.0  0.30000000000000004
476  0.2  1.0  0.30000000000000004
477  0.30000000000000004  1.0  0.30000000000000004
478  0.4  1.0  0.30000000000000004
479  0.5  1.0  0.30000000000000004
480  0.6000000000000001  1.0  0.30000000000000004
481  0.7000000000000001  1.0  0.30000000000000004
482  0.8  1.0  0.30000000000000004
483  0.9  1.0  0.30000000000000004
484  1.0  1.0  0.30000000000000004
485  0.0  0.0  0.4
486  0.1  0.0  0.4
487  0.2  0.0  0.4
488  0.30000000000000004  0.0  0.4
489  0.4  0.0  0.4
490  0.5  0.0  0.4
491  0.6000000000000001  0.0  0.4
492  0.7000000000000001  0.0  0.4
493  0.8  0.0  0.4
494  0.9  0.0  0.4
495  1.0  0.0  0.4
496  0.0  0.1  0.4
497  0.1  0.1  0.4
498  0.2  0.1  0.4
499  0.30000000000000004  0.1  0.4
500  0.4  0.1  0.4
501  0.5  0.1  0.4
502  0.6000000000000001  0.1  0.4
503  0.7000000000000001  0.1  0.4
504  0.8  0.1  0.4
505  0.9  0.1  0.4
506  1.0  0.1  0.4
507  0.0  0.2  0.4
508  0.1  0.2  0.4
509  0.2  0.2  0.4
510  0.30000000000000004  0.2  0.4
511  0.4  0.2  0.4
512  0.5  0.2  0.4
513  0.6000000000000001  0.2  0.4
514  0.7000000000000001  0.2  0.4
515  0.8  0.2  0.4
516  0.9  0.2  0.4
517  1.0  0.2  0.4
518  0.0  0.30000000000000004  0.4
519  0.1  0.30000000000000004  0.4
520  0.2  0.30000000000000004  0.4
521  0.30000000000000004  0.30000000000000004  0.4
522  0.4  0.30000000000000004  0.4
523  0.5  0.30000000000000004  0.4
524  0.6000000000000001  0.30000000000000004  0.4
525  0.7000000000000001  0.30000000000000004  0.4
526  0.8  0.30000000000000004  0.4
527  0.9  0.30000000000000004  0.4
528  1.0  0.30000000000000004  0.4
529  0.0  0.4  0.4
530  0.1  0.4  0.4
531  0.2  0.4  0.4
532  0.30000000000000004  0.4  0.4
533  0.4  0.4  0.4
534  0.5  0.4  0.4
535  0.6000000000000001  0.4  0.4
536  0.7000000000000001  0.4  0.4
537  0.8  0.4  0.4
538  0.9  0.4  0.4
539  1.0  0.4  0.4
540  0.0  0.5  0.4
541  0.1  0.5  0.4
542  0.2  0.5  0.4
543  0.30000000000000004  0.5  0.4
544  0.4  0.5  0.4
545  0.5  0.5  0.4
546  0.6000000000000001  0.5  0.4
547  0.7000000000000001  0.5  0.4
548  0.8  0.5  0.4
549  0.9  0.5  0.4
550  1.0  0.5  0.4
551  0.0  0.6000000000000001  0.4
552  0.1  0.6000000000000001  0.4
553  0.2  0.6000000000000001  0.4
554  0.30000000000000004  0.6000000000000001  0.4
555  0.4  0.6000000000000001  0.4
556  0.5  0.6000000000000001  0.4
557  0.6000000000000001  0.6000000000000001  0.4
558  0.7000000000000001  0.6000000000000001  0.4
559  0.8  0.6000000000000001  0.4
560  0.9  0.6000000000000001  0.4
561  1.0  0.6000000000000001  0.4
562  0.0  0.7000000000000001  0.4
563  0.1  0.7000000000000001  0.4
564  0.2  0.7000000000000001  0.4
565  0.30000000000000004  0.7000000000000001  0.4
566  0.4  0.7000000000000001  0.4
567  0.5  0.7000000000000001  0.4
568  0.6000000000000001  0.7000000000000001  0.4
569  0.7000000000000001  0.7000000000000001  0.4
570  0.8  0.7000000000000001  0.4
571  0.9  0.7000000000000001  0.4
572  1.0  0.7000000000000001  0.4
573  0.0  0.8  0.4
574  0.1  0.8  0.4
575  0.2  0.8  0.4
576  0.30000000000000004  0.8  0.4
577  0.4  0.8  0.4
578  0.5  0.8  0.4
579  0.6000000000000001  0.8  0.4
580  0.7000000000000001  0.8  0.4
581  0.8  0.8  0.4
582  0.9  0.8  0.4
583  1.0  0.8  0.4
584  0.0  0.9  0.4
585  0.1  0.9  0.4
586  0.2  0.9  0.4
587  0.30000000000000004  0.9  0.4
588  0.4  0.9  0.4
589  0.5  0.9  0.4
590  0.6000000000000001  0.9  0.4
591  0.7000000000000001  0.9  0.4
592  0.8  0.9  0.4
593  0.9  0.9  0.4
594  1.0  0.9  0.4
595  0.0  1.0  0.4
596  0.1  1.0  0.4
597  0.2  1.0  0.4
598  0.30000000000000004  1.0  0.4
599  0.4  1.0  0.4
600  0.5  1.0  0.4
601  0.6000000000000001  1.0  0.4
602  0.7000000000000001  1.0  0.4
603  0.8  1.0  0.4
604  0.9  1.0  0.4
605  1.0  1.0  0.4
606  0.0  0.0  0.5
607  0.1  0.0  0.5
608  0.2  0.0  0.5
609  0.30000000000000004  0.0  0.5
610  0.4  0.0  0.5
611  0.5  0.0  0.5
612  0.6000000000000001  0.0  0.5
613  0.7000000000000001  0.0  0.5
614  0.8  0.0  0.5
615  0.9  0.0  0.5
616  1.0  0.0  0.5
617  0.0  0.1  0.5
618  0.1  0.1  0.5
619  0.2  0.1  0.5
620  0.30000000000000004  0.1  0.5
621  0.4  0.1  0.5
622  0.5  0.1  0.5
623  0.6000000000000001  0.1  0.5
624  0.7000000000000001  0.1  0.5
625  0.8  0.1  0.5
626  0.9  0.1  0.5
627  1.0  0.1  0.5
628  0.0  0.2  0.5
629  0.1  0.2  0.5
630  0.2  0.2  0.5
631  0.30000000000000004  0.2  0.5
632  0.4  0.2  0.5
633  0.5  0.2  0.5
634  0.6000000000000001  0.2  0.5
635  0.7000000000000001  0.2  0.5
636  0.8  0.2  0.5
637  0.9  0.2  0.5
638  1.0  0.2  0.5
639  0.0  0.30000000000000004  0.5
640  0.1  0.30000000000000004  0.5
641  0.2  0.30000000000000004  0.5
642  0.30000000000000004  0.30000000000000004  0.5
643  0.4  0.30000000000000004  0.5
644  0.5  0.30000000000000004  0.5
645  0.6000000000000001  0.30000000000000004  0.5
646  0.7000000000000001  0.30000000000000004  0.5
647  0.8  0.30000000000000004  0.5
648  0.9  0.30000000000000004  0.5
649  1.0  0.30000000000000004  0.5
650  0.0  0.4  0.5
651  0.1  0.4  0.5
652  0.2  0.4  0.5
653  0.30000000000000004  0.4  0.5
654  0.4  0.4  0.5
655  0.5  0.4  0.5
656  0.6000000000000001  0.4  0.5
657  0.7000000000000001  0.4  0.5
658  0.8  0.4  0.5
659  0.9  0.4  0.5
660  1.0  0.4  0.5
661  0.0  0.5  0.5
662  0.1  0.5  0.5
663  0.2  0.5  0.5
664  0.30000000000000004  0.5  0.5
665  0.4  0.5  0.5
666  0.5  0.5  0.5
667  0.6000000000000001  0.5  0.5
668  0.7000000000000001  0.5  0.5
669  0.8  0.5  0.5
670  0.9  0.5  0.5
671  1.0  0.5  0.5
672  0.0  0.6000000000000001  0.5
673  0.1  0.6000000000000001  0.5
674  0.2  0.6000000000000001  0.5
675  0.30000000000000004  0.6000000000000001  0.5
676  0.4  0.6000000000000001  0.5
677  0.5  0.6000000000000001  0.5
678  0.6000000000000001  0.6000000000000001  0.5
679  0.7000000000000001  0.6000000000000001  0.5
680  0.8  0.6000000000000001  0.5
681  0.9  0.6000000000000001  0.5
682  1.0  0.6000000000000001  0.5
683  0.0  0.7000000000000001  0.5
684  0.1  0.7000000000000001  0.5
685  0.2  0.7000000000000001  0.5
686  0.30000000000000004  0.7000000000000001  0.5
687  0.4  0.7000000000000001  0.5
688  0.5  0.7000000000000001  0.5
689  0.6000000000000001  0.7000000000000001  0.5
690  0.7000000000000001  0.7000000000000001  0.5
691  0.8  0.7000000000000001  0.5
692  0.9  0.7000000000000001  0.5
693  1.0  0.7000000000000001  0.5
694  0.0  0.8  0.5
695  0.1  0.8  0.5
696  0.2  0.8  0.5
697  0.30000000000000004  0.8  0.5
698  0.4  0.8  0.5
699  0.5  0.8  0.5
700  0.6000000000000001  0.8  0.5
701  0.7000000000000001  0.8  0.5
702  0.8  0.8  0.5
703  0.9  0.8  0.5
704  1.0  0.8  0.5
705  0.0  0.9  0.5
706  0.1  0.9  0.5
707  0.2  0.9  0.5
708  0.30000000000000004  0.9  0.5
709  0.4  0.9  0.5
710  0.5  0.9  0.5
711  0.6000000000000001  0.9  0.5
712  0.7000000000000001  0.9  0.5
713  0.8  0.9  0.5
714  0.9  0.9  0.5
715  1.0  0.9  0.5
716  0.0  1.0  0.5
717  0.1  1.0  0.5
718  0.2  1.0  0.5
719  0.30000000000000004  1.0  0.5
720  0.4  1.0  0.5
721  0.5  1.0  0.5
722  0.6000000000000001  1.0  0.5
723  0.7000000000000001  1.0  0.5
724  0.8  1.0  0.5
725  0.9  1.0  0.5
726  1.0  1.0  0.5
727  0.0  0.0  0.6000000000000001
728  0.1  0.0  0.6000000000000001
729  0.2  0.0  0.6000000000000001
730  0.30000000000000004  0.0  0.6000000000000001
731  0.4  0.0  0.6000000000000001
732  0.5  0.0  0.6000000000000001
733  0.6000000000000001  0.0  0.6000000000000001
734  0.7000000000000001  0.0  0.6000000000000001
735  0.8  0.0  0.6000000000000001
736  0.9  0.0  0.6000000000000001
737  1.0  0.0  0.6000000000000001
738  0.0  0.1  0.6000000000000001
739  0.1  0.1  0.6000000000000001
740  0.2  0.1  0.6000000000000001
741  0.30000000000000004  0.1  0.6000000000000001
742  0.4  0.1  0.6000000000000001
743  0.5  0.1  0.6000000000000001
744  0.6000000000000001  0.1  0.6000000000000001
745  0.7000000000000001  0.1  0.6000000000000001
746  0.8  0.1  0.6000000000000001
747  0.9  0.1  0.6000000000000001
748  1.0  0.1  0.6000000000000001
749  0.0  0.2  0.6000000000000001
750  0.1  0.2  0.6000000000000001
751  0.2  0.2  0.6000000000000001
752  0.30000000000000004  0.2  0.6000000000000001
753  0.4  0.2  0.6000000000000001
754  0.5  0.2  0.6000000000000001
755  0.6000000000000001  0.2  0.6000000000000001
756  0.7000000000000001  0.2  0.6000000000000001
757  0.8  0.2  0.6000000000000001
758  0.9  0.2  0.6000000000000001
759  1.0  0.2  0.6000000000000001
760  0.0  0.30000000000000004  0.6000000000000001
761  0.1  0.30000000000000004  0.6000000000000001
762  0.2  0.30000000000000004  0.6000000000000001
763  0.30000000000000004  0.30000000000000004  0.6000000000000001
764  0.4  0.30000000000000004  0.6000000000000001
765  0.5  0.30000000000000004  0.6000000000000001
766  0.6000000000000001  0.30000000000000004  0.6000000000000001
767  0.7000000000000001  0.30000000000000004  0.6000000000000001
768  0.8  0.30000000000000004  0.6000000000000001
769  0.9  0.30000000000000004  0.6000000000000001
770  1.0  0.30000000000000004  0.6000000000000001
771  0.0  0.4  0.6000000000000001
772  0.1  0.4  0.6000000000000001
773  0.2  0.4  0.6000000000000001
774  0.30000000000000004  0.4  0.6000000000000001
775  0.4  0.4  0.6000000000000001
776  0.5  0.4  0.6000000000000001
777  0.6000000000000001  0.4  0.6000000000000001
778  0.7000000000000001  0.4  0.6000000000000001
779  0.8  0.4  0.6000000000000001
780  0.9  0.4  0.6000000000000001
781  1.0  0.4  0.6000000000000001
782  0.0  0.5  0.6000000000000001
783  0.1  0.5  0.6000000000000001
784  0.2  0.5  0.6000000000000001
785  0.30000000000000004  0.5  0.6000000000000001
786  0.4  0.5  0.6000000000000001
787  0.5  0.5  0.6000000000000001
788  0.6000000000000001  0.5  0.6000000000000001
789  0.7000000000000001  0.5  0.6000000000000001
790  0.8  0.5  0.6000000000000001
791  0.9  0.5  0.6000000000000001
792  1.0  0.5  0.6000000000000001
793  0.0  0.6000000000000001  0.6000000000000001
794  0.1  0.6000000000000001  0.6000000000000001
795  0.2  0.6000000000000001  0.6000000000000001
796  0.30000000000000004  0.6000000000000001  0.6000000000000001
797  0.4  0.6000000000000001  0.6000000000000001
798  0.5  0.6000000000000001  0.6000000000000001
799  0.6000000000000001  0.6000000000000001  0.6000000000000001
800  0.7000000000000001  0.6000000000000001  0.6000000000000001
801  0.8  0.6000000000000001  0.6000000000000001
802  0.9  0.6000000000000001  0.6000000000000001
803  1.0  0.6000000000000001  0.6000000000000001
804  0.0  0.7000000000000001  0.6000000000000001
805  0.1  0.7000000000000001  0.6000000000000001
806  0.2  0.7000000000000001  0.6000000000000001
807  0.30000000000000004  0.7000000000000001  0.6000000000000001
808  0.4  0.7000000000000001  0.6000000000000001
809  0.5  0.7000000000000001  0.6000000000000001
810  0.6000000000000001  0.7000000000000001  0.6000000000000001
811  0.7000000000000001  0.7000000000000001  0.6000000000000001
812  0.8  0.7000000000000001  0.6000000000000001
813  0.9  0.7000000000000001  0.6000000000000001
814  1.0  0.7000000000000001  0.6000000000000001
815  0.0  0.8  0.6000000000000001
816  0.1  0.8  0.6000000000000001
817  0.2  0.8  0.6000000000000001
818  0.30000000000000004  0.8  0.6000000000000001
819  0.4  0.8  0.6000000000000001
820  0.5  0.8  0.6000000000000001
821  0.6000000000000001  0.8  0.6000000000000001
822  0.7000000000000001  0.8  0.6000000000000001
823  0.8  0.8  0.6000000000000001
824  0.9  0.8  0.6000000000000001
825  1.0  0.8  0.6000000000000001
826  0.0  0.9  0.6000000000000001
827  0.1  0.9  0.6000000000000001
828  0.2  0.9  0.6000000000000001
829  0.30000000000000004  0.9  0.6000000000000001
830  0.4  0.9  0.6000000000000001
831  0.5  0.9  0.6000000000000001
832  0.6000000000000001  0.9  0.6000000000000001
833  0.7000000000000001  0.9  0.6000000000000001
834  0.8  0.9  0.6000000000000001
835  0.9  0.9  0.6000000000000001
836  1.0  0.9  0.6000000000000001
837  0.0  1.0  0.6000000000000001
838  0.1  1.0  0.6000000000000001
839  0.2  1.0  0.6000000000000001
840  0.30000000000000004  1.0  0.6000000000000001
841  0.4  1.0  0.6000000000000001
842  0.5  1.0  0.6000000000000001
843  0.6000000000000001  1.0  0.6000000000000001
844  0.7000000000000001  1.0  0.6000000000000001
845  0.8  1.0  0.6000000000000001
846  0.9  1.0  0.6000000000000001
847  1.0  1.0  0.6000000000000001
848  0.0  0.0  0.7000000000000001
849  0.1  0.0  0.7000000000000001
850  0.2  0.0  0.7000000000000001
851  0.30000000000000004  0.0  0.7000000000000001
852  0.4  0.0  0.7000000000000001
853  0.5  0.0  0.7000000000000001
854  0.6000000000000001  0.0  0.7000000000000001
855  0.7000000000000001  0.0  0.7000000000000001
856  0.8  0.0  0.7000000000000001
857  0.9  0.0  0.7000000000000001
858  1.0  0.0  0.7000000000000001
859  0.0  0.1  0.7000000000000001
860  0.1  0.1  0.7000000000000001
861  0.2  0.1  0.7000000000000001
862  0.30000000000000004  0.1  0.7000000000000001
863  0.4  0.1  0.7000000000000001
864  0.5  0.1  0.7000000000000001
865  0.6000000000000001  0.1  0.7000000000000001
866  0.7000000000000001  0.1  0.7000000000000001
867  0.8  0.1  0.7000000000000001
868  0.9  0.1  0.7000000000000001
869  1.0  0.1  0.7000000000000001
870  0.0  0.2  0.7000000000000001
871  0.1  0.2  0.7000000000000001
872  0.2  0.2  0.7000000000000001
873  0.30000000000000004  0.2  0.7000000000000001
874  0.4  0.2  0.7000000000000001
875  0.5  0.2  0.7000000000000001
876  0.6000000000000001  0.2  0.7000000000000001
877  0.7000000000000001  0.2  0.7000000000000001
878  0.8  0.2  0.7000000000000001
879  0.9  0.2  0.7000000000000001
880  1.0  0.2  0.7000000000000001
881  0.0  0.30000000000000004  0.7000000000000001
882  0.1  0.30000000000000004  0.7000000000000001
883  0.2  0.30000000000000004  0.7000000000000001
884  0.30000000000000004  0.30000000000000004  0.7000000000000001
885  0.4  0.30000000000000004  0.7000000000000001
886  0.5  0.30000000000000004  0.7000000000000001
887  0.6000000000000001  0.30000000000000004  0.7000000000000001
888  0.7000000000000001  0.30000000000000004  0.7000000000000001
889  0.8  0.30000000000000004  0.7000000000000001
890  0.9  0.30000000000000004  0.7000000000000001
891  1.0  0.30000000000000004  0.7000000000000001
892  0.0  0.4  0.7000000000000001
893  0.1  0.4  0.7000000000000001
894  0.2  0.4  0.7000000000000001
895  0.30000000000000004  0.4  0.7000000000000001
896  0.4  0.4  0.7000000000000001
897  0.5  0.4  0.7000000000000001
898  0.6000000000000001  0.4  0.7000000000000001
899  0.7000000000000001  0.4  0.7000000000000001
900  0.8  0.4  0.7000000000000001
901  0.9  0.4  0.7000000000000001
902  1.0  0.4  0.7000000000000001
903  0.0  0.5  0.7000000000000001
904  0.1  0.5  0.7000000000000001
905  0.2  0.5  0.7000000000000001
906  0.30000000000000004  0.5  0.7000000000000001
907  0.4  0.5  0.7000000000000001
908  0.5  0.5  0.7000000000000001
909  0.6000000000000001  0.5  0.7000000000000001
910  0.7000000000000001  0.5  0.7000000000000001
911  0.8  0.5  0.7000000000000001
912  0.9  0.5  0.7000000000000001
913  1.0  0.5  0.7000000000000001
914  0.0  0.6000000000000001  0.7000000000000001
915  0.1  0.6000000000000001  0.7000000000000001
916  0.2  0.6000000000000001  0.7000000000000001
917  0.30000000000000004  0.6000000000000001  0.7000000000000001
918  0.4  0.6000000000000001  0.7000000000000001
919  0.5  0.6000000000000001  0.7000000000000001
920  0.6000000000000001  0.6000000000000001  0.7000000000000001
921  0.7000000000000001  0.6000000000000001  0.7000000000000001
922  0.8  0.6000000000000001  0.7000000000000001
923  0.9  0.6000000000000001  0.7000000000000001
924  1.0  0.6000000000000001  0.7000000000000001
925  0.0  0.7000000000000001  0.7000000000000001
926  0.1  0.7000000000000001  0.7000000000000001
927  0.2  0.7000000000000001  0.7000000000000001
928  0.30000000000000004  0.7000000000000001  0.7000000000000001
929  0.4  0.7000000000000001  0.7000000000000001
930  0.5  0.7000000000000001  0.7000000000000001
931  0.6000000000000001  0.7000000000000001  0.7000000000000001
932  0.7000000000000001  0.7000000000000001  0.7000000000000001
933  0.8  0.7000000000000001  0.7000000000000001
934  0.9  0.7000000000000001  0.7000000000000001
935  1.0  0.7000000000000001  0.7000000000000001
936  0.0  0.8  0.7000000000000001
937  0.1  0.8  0.7000000000000001
938  0.2  0.8  0.7000000000000001
939  0.30000000000000004  0.8  0.7000000000000001
940  0.4  0.8  0.7000000000000001
941  0.5  0.8  0.7000000000000001
942  0.6000000000000001  0.8  0.7000000000000001
943  0.7000000000000001  0.8  0.7000000000000001
944  0.8  0.8  0.7000000000000001
945  0.9  0.8  0.7000000000000001
946  1.0  0.8  0.7000000000000001
947  0.0  0.9  0.7000000000000001
948  0.1  0.9  0.7000000000000001
949  0.2  0.9  0.7000000000000001
950  0.30000000000000004  0.9  0.7000000000000001
951  0.4  0.9  0.7000000000000001
952  0.5  0.9  0.7000000000000001
953  0.6000000000000001  0.9  0.7000000000000001
954  0.7000000000000001  0.9  0.7000000000000001
955  0.8  0.9  0.7000000000000001
956  0.9  0.9  0.7000000000000001
957  1.0  0.9  0.7000000000000001
958  0.0  1.0  0.7000000000000001
959  0.1  1.0  0.7000000000000001
960  0.2  1.0  0.7000000000000001
961  0.30000000000000004  1.0  0.7000000000000001
962  0.4  1.0  0.7000000000000001
963  0.5  1.0  0.7000000000000001
964  0.6000000000000001  1.0  0.7000000000000001
965  0.7000000000000001  1.0  0.7000000000000001
966  0.8  1.0  0.7000000000000001
967  0.9  1.0  0.7000000000000001
968  1.0  1.0  0.7000000000000001
969  0.0  0.0  0.8
970  0.1  0.0  0.8
971  0.2  0.0  0.8
972  0.30000000000000004  0.0  0.8
973  0.4  0.0  0.8
974  0.5  0.0  0.8
975  0.6000000000000001  0.0  0.8
976  0.7000000000000001  0.0  0.8
977  0.8  0.0  0.8
978  0.9  0.0  0.8
979  1.0  0.0  0.8
980  0.0  0.1  0.8
981  0.1  0.1  0.8
982  0.2  0.1  0.8
983  0.30000000000000004  0.1  0.8
984  0.4  0.1  0.8
985  0.5  0.1  0.8
986  0.6000000000000001  0.1  0.8
987  0.7000000000000001  0.1  0.8
988  0.8  0.1  0.8
989  0.9  0.1  0.8
990  1.0  0.1  0.8
991  0.0  0.2  0.8
992  0.1  0.2  0.8
993  0.2  0.2  0.8
994  0.30000000000000004  0.2  0.8
995  0.4  0.2  0.8
996  0.5  0.2  0.8
997  0.6000000000000001  0.2  0.8
998  0.7000000000000001  0.2  0.8
999  0.8  0.2  0.8
1000  0.9  0.2  0.8
1001  1.0  0.2  0.8
1002  0.0  0.30000000000000004  0.8
1003  0.1  0.30000000000000004  0.8
1004  0.2  0.30000000000000004  0.8
1005  0.30000000000000004  0.30000000000000004  0.8
1006  0.4  0.30000000000000004  0.8
1007  0.5  0.30000000000000004  0.8
1008  0.6000000000000001  0.30000000000000004  0.8
1009  0.7000000000000001  0.30000000000000004  0.8
1010  0.8  0.30000000000000004  0.8
1011  0.9  0.30000000000000004  0.8
1012  1.0  0.30000000000000004  0.8
1013  0.0  0.4  0.8
1014  0.1  0.4  0.8
1015  0.2  0.4  0.8
1016  0.30000000000000004  0.4  0.8
1017  0.4  0.4  0.8
1018  0.5  0.4  0.8
1019  0.6000000000000001  0.4  0.8
1020  0.7000000000000001  0.4  0.8
1021  0.8  0.4  0.8
1022  0.9  0.4  0.8
1023  1.0  0.4  0.8
1024  0.0  0.5  0.8
1025  0.1  0.5  0.8
1026  0.2  0.5  0.8
1027  0.30000000000000004  0.5  0.8
1028  0.4  0.5  0.8
1029  0.5  0.5  0.8
1030  0.6000000000000001  0.5  0.8
1031  0.7000000000000001  0.5  0.8
1032  0.8  0.5  0.8
1033  0.9  0.5  0.8
1034  1.0  0.5  0.8
1035  0.0  0.6000000000000001  0.8
1036  0.1  0.6000000000000001  0.8
1037  0.2  0.6000000000000001  0.8
1038  0.30000000000000004  0.6000000000000001  0.8
1039  0.4  0.6000000000000001  0.8
1040  0.5  0.6000000000000001  0.8
1041  0.6000000000000001  0.6000000000000001  0.8
1042  0.7000000000000001  0.6000000000000001  0.8
1043  0.8  0.6000000000000001  0.8
1044  0.9  0.6000000000000001  0.8
1045  1.0  0.6000000000000001  0.8
1046  0.0  0.7000000000000001  0.8
1047  0.1  0.7000000000000001  0.8
1048  0.2  0.7000000000000001  0.8
1049  0.30000000000000004  0.7000000000000001  0.8
1050  0.4  0.7000000000000001  0.8
1051  0.5  0.7000000000000001  0.8
1052  0.6000000000000001  0.7000000000000001  0.8
1053  0.7000000000000001  0.7000000000000001  0.8
1054  0.8  0.7000000000000001  0.8
1055  0.9  0.7000000000000001  0.8
1056  1.0  0.7000000000000001  0.8
1057  0.0  0.8  0.8
1058  0.1  0.8  0.8
1059  0.2  0.8  0.8
1060  0.30000000000000004  0.8  0.8
1061  0.4  0.8  0.8
1062  0.5  0.8  0.8
1063  0.6000000000000001  0.8  0.8
1064  0.7000000000000001  0.8  0.8
1065  0.8  0.8  0.8
1066  0.9  0.8  0.8
1067  1.0  0.8  0.8
1068  0.0  0.9  0.8
1069  0.1  0.9  0.8
1070  0.2  0.9  0.8
1071  0.30000000000000004  0.9  0.8
1072  0.4  0.9  0.8
1073  0.5  0.9  0.8
1074  0.6000000000000001  0.9  0.8
1075  0.7000000000000001  0.9  0.8
1076  0.8  0.9  0.8
1077  0.9  0.9  0.8
1078  1.0  0.9  0.8
1079  0.0  1.0  0.8
1080  0.1  1.0  0.8
1081  0.2  1.0  0.8
1082  0.30000000000000004  1.0  0.8
1083  0.4  1.0  0.8
1084  0.5  1.0  0.8
1085  0.6000000000000001  1.0  0.8
1086  0.7000000000000001  1.0  0.8
1087  0.8  1.0  0.8
1088  0.9  1.0  0.8
1089  1.0  1.0  0.8
1090  0.0  0.0  0.9
1091  0.1  0.0  0.9
1092  0.2  0.0  0.9
1093  0.30000000000000004  0.0  0.9
1094  0.4  0.0  0.9
1095  0.5  0.0  0.9
1096  0.6000000000000001  0.0  0.9
1097  0.7000000000000001  0.0  0.9
1098  0.8  0.0  0.9
1099  0.9  0.0  0.9
1100  1.0  0.0  0.9
1101  0.0  0.1  0.9
1102  0.1  0.1  0.9
1103  0.2  0.1  0.9
1104  0.30000000000000004  0.1  0.9
1105  0.4  0.1  0.9
1106  0.5  0.1  0.9
1107  0.6000000000000001  0.1  0.9
1108  0.7000000000000001  0.1  0.9
1109  0.8  0.1  0.9
1110  0.9  0.1  0.9
1111  1.0  0.1  0.9
1112  0.0  0.2  0.9
1113  0.1  0.2  0.9
1114  0.2  0.2  0.9
1115  0.30000000000000004  0.2  0.9
1116  0.4  0.2  0.9
1117  0.5  0.2  0.9
1118  0.6000000000000001  0.2  0.9
1119  0.7000000000000001  0.2  0.9
1120  0.8  0.2  0.9
1121  0.9  0.2  0.9
1122  1.0  0.2  0.9
1123  0.0  0.30000000000000004  0.9
1124  0.1  0.30000000000000004  0.9
1125  0.2  0.30000000000000004  0.9
1126  0.30000000000000004  0.30000000000000004  0.9
1127  0.4  0.30000000000000004  0.9
1128  0.5  0.30000000000000004  0.9
1129  0.6000000000000001  0.30000000000000004  0.9
1130  0.7000000000000001  0.30000000000000004  0.9
1131  0.8  0.30000000000000004  0.9
1132  0.9  0.30000000000000004  0.9
1133  1.0  0.30000000000000004  0.9
1134  0.0  0.4  0.9
1135  0.1  0.4  0.9
1136  0.2  0.4  0.9
1137  0.30000000000000004  0.4  0.9
1138  0.4  0.4  0.9
1139  0.5  0.4  0.9
1140  0.6000000000000001  0.4  0.9
1141  0.7000000000000001  0.4  0.9
1142  0.8  0.4  0.9
1143  0.9  0.4  0.9
1144  1.0  0.4  0.9
1145  0.0  0.5  0.9
1146  0.1  0.5  0.9
1147  0.2  0.5  0.9
1148  0.30000000000000004  0.5  0.9
1149  0.4  0.5  0.9
1150  0.5  0.5  0.9
1151  0.6000000000000001  0.5  0.9
1152  0.7000000000000001  0.5  0.9
1153  0.8  0.5  0.9
1154  0.9  0.5  0.9
1155  1.0  0.5  0.9
1156  0.0  0.6000000000000001  0.9
1157  0.1  0.6000000000000001  0.9
1158  0.2  0.6000000000000001  0.9
1159  0.30000000000000004  0.6000000000000001  0.9
1160  0.4  0.6000000000000001  0.9
1161  0.5  0.6000000000000001  0.9
1162  0.6000000000000001  0.6000000000000001  0.9
1163  0.7000000000000001  0.6000000000000001  0.9
1164  0.8  0.6000000000000001  0.9
1165  0.9  0.6000000000000001  0.9
1166  1.0  0.6000000000000001  0.9
1167  0.0  0.7000000000000001  0.9
1168  0.1  0.7000000000000001  0.9
1169  0.2  0.7000000000000001  0.9
1170  0.30000000000000004  0.7000000000000001  0.9
1171  0.4  0.7000000000000001  0.9
1172  0.5  0.7000000000000001  0.9
1173  0.6000000000000001  0.7000000000000001  0.9
1174  0.7000000000000001  0.7000000000000001  0.9
1175  0.8  0.7000000000000001  0.9
1176  0.9  0.7000000000000001  0.9
1177  1.0  0.7000000000000001  0.9
1178  0.0  0.8  0.9
1179  0.1  0.8  0.9
1180  0.2  0.8  0.9
1181  0.30000000000000004  0.8  0.9
1182  0.4  0.8  0.9
1183  0.5  0.8  0.9
1184  0.6000000000000001  0.8  0.9
1185  0.7000000000000001  0.8  0.9
1186  0.8  0.8  0.9
1187  0.9  0.8  0.9
1188  1.0  0.8  0.9
1189  0.0  0.9  0.9
1190  0.1  0.9  0.9
1191  0.2  0.9  0.9
1192  0.30000000000000004  0.9  0.9
1193  0.4  0.9  0.9
1194  0.5  0.9  0.9
1195  0.6000000000000001  0.9  0.9
1196  0.7000000000000001  0.9  0.9
1197  0.8  0.9  0.9
1198  0.9  0.9  0.9
1199  1.0  0.9  0.9
1200  0.0  1.0  0.9
1201  0.1  1.0  0.9
1202  0.2  1.0  0.9
1203  0.30000000000000004  1.0  0.9
1204  0.4  1.0  0.9
1205  0.5  1.0  0.9
1206  0.6000000000000001  1.0  0.9
1207  0.7000000000000001  1.0  0.9
1208  0.8  1.0  0.9
1209  0.9  1.0  0.9
1210  1.0  1.0  0.9
1211  0.0  0.0  1.0
1212  0.1  0.0  1.0
1213  0.2  0.0  1.0
1214  0.30000000000000004  0.0  1.0
1215  0.4  0.0  1.0
1216  0.5  0.0  1.0
1217  0.6000000000000001  0.0  1.0
1218  0.7000000000000001  0.0  1.0
1219  0.8  0.0  1.0
1220  0.9  0.0  1.0
1221  1.0  0.0  1.0
1222  0.0  0.1  1.0
1223  0.1  0.1  1.0
1224  0.2  0.1  1.0
1225  0.30000000000000004  0.1  1.0
1226  0.4  0.1  1.0
1227  0.5  0.1  1.0
1228  0.6000000000000001  0.1  1.0
1229  0.7000000000000001  0.1  1.0
1230  0.8  0.1  1.0
1231  0.9  0.1  1.0
1232  1.0  0.1  1.0
1233  0.0  0.2  1.0
1234  0.1  0.2  1.0
1235  0.2  0.2  1.0
1236  0.30000000000000004  0.2  1.0
1237  0.4  0.2  1.0
1238  0.5  0.2  1.0
1239  0.6000000000000001  0.2  1.0
1240  0.7000000000000001  0.2  1.0
1241  0.8  0.2  1.0
1242  0.9  0.2  1.0
1243  1.0  0.2  1.0
1244  0.0  0.30000000000000004  1.0
1245  0.1  0.30000000000000004  1.0
1246  0.2  0.30000000000000004  1.0
1247  0.30000000000000004  0.30000000000000004  1.0
1248  0.4  0.30000000000000004  1.0
1249  0.5  0.30000000000000004  1.0
1250  0.6000000000000001  0.30000000000000004  1.0
1251  0.7000000000000001  0.30000000000000004  1.0
1252  0.8  0.30000000000000004  1.0
1253  0.9  0.30000000000000004  1.0
1254  1.0  0.30000000000000004  1.0
1255  0.0  0.4  1.0
1256  0.1  0.4  1.0
1257  0.2  0.4  1.0
1258  0.30000000000000004  0.4  1.0
1259  0.4  0.4  1.0
1260  0.5  0.4  1.0
1261  0.6000000000000001  0.4  1.0
1262  0.7000000000000001  0.4  1.0
1263  0.8  0.4  1.0
1264  0.9  0.4  1.0
1265  1.0  0.4  1.0
1266  0.0  0.5  1.0
1267  0.1  0.5  1.0
1268  0.2  0.5  1.0
1269  0.30000000000000004  0.5  1.0
1270  0.4  0.5  1.0
1271  0.5  0.5  1.0
1272  0.6000000000000001  0.5  1.0
1273  0.7000000000000001  0.5  1.0
1274  0.8  0.5  1.0
1275  0.9  0.5  1.0
1276  1.0  0.5  1.0
1277  0.0  0.6000000000000001  1.0
1278  0.1  0.6000000000000001  1.0
1279  0.2  0.6000000000000001  1.0
1280  0.30000000000000004  0.6000000000000001  1.0
1281  0.4  0.6000000000000001  1.0
1282  0.5  0.6000000000000001  1.0
1283  0.6000000000000001  0.6000000000000001  1.0
1284  0.7000000000000001  0.6000000000000001  1.0
1285  0.8  0.6000000000000001  1.0
1286  0.9  0.6000000000000001  1.0
1287  1.0  0.6000000000000001  1.0
1288  0.0  0.7000000000000001  1.0
1289  0.1  0.7000000000000001  1.0
1290  0.2  0.7000000000000001  1.0
1291  0.30000000000000004  0.7000000000000001  1.0
1292  0.4  0.7000000000000001  1.0
1293  0.5  0.7000000000000001  1.0
1294  0.6000000000000001  0.7000000000000001  1.0
1295  0.7000000000000001  0.7000000000000001  1.0
1296  0.8  0.7000000000000001  1.0
1297  0.9  0.7000000000000001  1.0
1298  1.0  0.7000000000000001  1.0
1299  0.0  0.8  1.0
1300  0.1  0.8  1.0
1301  0.2  0.8  1.0
1302  0.30000000000000004  0.8  1.0
1303  0.4  0.8  1.0
1304  0.5  0.8  1.0
1305  0.6000000000000001  0.8  1.0
1306  0.7000000000000001  0.8  1.0
1307  0.8  0.8  1.0
1308  0.9  0.8  1.0
1309  1.0  0.8  1.0
1310  0.0  0.9  1.0
1311  0.1  0.9  1.0
1312  0.2  0.9  1.0
1313  0.30000000000000004  0.9  1.0
1314  0.4  0.9  1.0
1315  0.5  0.9  1.0
1316  0.6000000000000001  0.9  1.0
1317  0.7000000000000001  0.9  1.0
1318  0.8  0.9  1.0
1319  0.9  0.9  1.0
1320  1.0  0.9  1.0
1321  0.0  1.0  1.0
1322  0.1  1.0  1.0
1323  0.2  1.0  1.0
1324  0.30000000000000004  1.0  1.0
1325  0.4  1.0  1.0
1326  0.5  1.0  1.0
1327  0.6000000000000001  1.0  1.0
1328  0.7000000000000001  1.0  1.0
1329  0.8  1.0  1.0
1330  0.9  1.0  1.0
1331  1.0  1.0  1.0

[1D Elements]
#ElemNr  ElemType  NrOfNodes  Level
#Node1 Node2 ... NodeNrOfNodes

[2D Elements]
#ElemNr  ElemType  NrOfNodes  Level
#Node1 Node2 ... NodeNrOfNodes

[3D Elements]
#ElemNr  ElemType  NrOfNodes  Level
#Node1 Node2 ... NodeNrOfNodes
1 10 8 mech
1 2 13 12 122 123 134 133
2 10 8 mech
2 3 14 13 123 124 135 134
3 10 8 mech
3 4 15 14 124 125 136 135
4 10 8 mech
4 5 16 15 125 126 137 136
5 10 8 mech
5 6 17 16 126 127 138 137
6 10 8 mech
6 7 18 17 127 128 139 138
7 10 8 mech
7 8 19 18 128 129 140 139
8 10 8 mech
8 9 20 19 129 130 141 140
9 10 8 mech
9 10 21 20 130 131 142 141
10 10 8 mech
10 11 22 21 131 132 143 142
11 10 8 mech
12 13 24 23 133 134 145 144
12 10 8 mech
13 14 25 24 134 135 146 145
13 10 8 mech
14 15 26 25 135 136 147 146
14 10 8 mech
15 16 27 26 136 137 148 147
15 10 8 mech
16 17 28 27 137 138 149 148
16 10 8 mech
17 18 29 28 138 139 150 149
17 10 8 mech
18 19 30 29 139 140 151 150
18 10 8 mech
19 20 31 30 140 141 152 151
19 10 8 mech
20 21 32 31 141 142 153 152
20 10 8 mech
21 22 33 32 142 143 154 153
21 10 8 mech
23 24 35 34 144 145 156 155
22 10 8 mech
24 25 36 35 145 146 157 156
23 10 8 mech
25 26 37 36 146 147 158 157
24 10 8 mech
26 27 38 37 147 148 159 158
25 10 8 mech
27 28 39 38 148 149 160 159
26 10 8 mech
28 29 40 39 149 150 161 160
27 10 8 mech
29 30 41 40 150 151 162 161
28 10 8 mech
30 31 42 41 151 152 163 162
29 10 8 mech
31 32 43 42 152 153 164 163
30 10 8 mech
32 33 44 43 153 154 165 164
31 10 8 mech
34 35 46 45 155 156 167 166
32 10 8 mech
35 36 47 46 156 157 168 167
33 10 8 mech
36 37 48 47 157 158 169 168
34 10 8 mech
37 38 49 48 158 159 170 169
35 10 8 mech
38 39 50 49 159 160 171 170
36 10 8 mech
39 40 51 50 160 161 172 171
37 10 8 mech
40 41 52 51 161 162 173 172
38 10 8 mech
41 42 53 52 162 163 174 173
39 10 8 mech
42 43 54 53 163 164 175 174
40 10 8 mech
43 44 55 54 164 165 176 175
41 10 8 mech
45 46 57 56 166 167 178 177
42 10 8 mech
46 47 58 57 167 168 179 178
43 10 8 mech
47 48 59 58 168 169 180 179
44 10 8 mech
48 49 60 59 169 170 181 180
45 10 8 mech
49 50 61 60 170 171 182 181
46 10 8 mech
50 51 62 61 171 172 183 182
47 10 8 mech
51 52 63 62 172 173 184 183
48 10 8 mech
52 53 64 63 173 174 185 184
49 10 8 mech
53 54 65 64 174 175 186 185
50 10 8 mech
54 55 66 65 175 176 187 186
51 10 8 mech
56 57 68 67 177 178 189 188
52 10 8 mech
57 58 69 68 178 179 190 189
53 10 8 mech
58 59 70 69 179 180 191 190
54 10 8 mech
59 60 71 70 180 181 192 191
55 10 8 mech
60 61 72 71 181 182 193 192
56 10 8 mech
61 62 73 72 182 183 194 193
57 10 8 mech
62 63 74 73 183 184 195 194
58 10 8 mech
63 64 75 74 184 185 196 195
59 10 8 mech
64 65 76 75 185 186 197 196
60 10 8 mech
65 66 77 76 186 187 198 197
61 10 8 mech
67 68 79 78 188 189 200 199
62 10 8 mech
68 69 80 79 189 190 201 200
63 10 8 mech
69 70 81 80 190 191 202 201
64 10 8 mech
70 71 82 81 191 192 203 202
65 10 8 mech
71 72 83 82 192 193 204 203
66 10 8 mech
72 73 84 83 193 194 205 204
67 10 8 mech
73 74 85 84 194 195 206 205
68 10 8 mech
74 75 86 85 195 196 207 206
69 10 8 mech
75 76 87 86 196 197 208 207
70 10 8 mech
76 77 88 87 197 198 209 208
71 10 8 mech
78 79 90 89 199 200 211 210
72 10 8 mech
79 80 91 90 200 201 212 211
73 10 8 mech
80 81 92 91 201 202 213 212
74 10 8 mech
81 82 93 92 202 203 214 213
75 10 8 mech
82 83 94 93 203 204 215 214
76 10 8 mech
83 84 95 94 204 205 216 215
77 10 8 mech
84 85 96 95 205 206 217 216
78 10 8 mech
85 86 97 96 206 207 218 217
79 10 8 mech
86 87 98 97 207 208 219 218
80 10 8 mech
87 88 99 98 208 209 220 219
81 10 8 mech
89 90 101 100 210 211 222 221
82 10 8 mech
90 91 102 101 211 212 223 222
83 10 8 mech
91 92 103 102 212 213 224 223
84 10 8 mech
92 93 104 103 213 214 225 224
85 10 8 mech
93 94 105 104 214 215 226 225
86 10 8 mech
94 95 106 105 215 216 227 226
87 10 8 mech
95 96 107 106 216 217 228 227
88 10 8 mech
96 97 108 107 217 218 229 228
89 10 8 mech
97 98 109 108 218 219 230 229
90 10 8 mech
98 99 110 109 219 220 231 230
91 10 8 mech
100 101 112 111 221 222 233 232
92 10 8 mech
101 102 113 112 222 223 234 233
93 10 8 mech
102 103 114 113 223 224 235 234
94 10 8 mech
103 104 115 114 224 225 236 235
95 10 8 mech
104 105 116 115 225 226 237 236
96 10 8 mech
105 106 117 116 226 227 238 237
97 10 8 mech
106 107 118 117 227 228 239 238
98 10 8 mech
107 108 119 118 228 229 240 239
99 10 8 mech
108 109 120 119 229 230 241 240
100 10 8 mech
109 110 121 120 230 231 242 241
101 10 8 mech
122 123 134 133 243 244 255 254
102 10 8 mech
123 124 135 134 244 245 256 255
103 10 8 mech
124 125 136 135 245 246 257 256
104 10 8 mech
125 126 137 136 246 247 258 257
105 10 8 mech
126 127 138 137 247 248 259 258
106 10 8 mech
127 128 139 138 248 249 260 259
107 10 8 mech
128 129 140 139 249 250 261 260
108 10 8 mech
129 130 141 140 250 251 262 261
109 10 8 mech
130 131 142 141 251 252 263 262
110 10 8 mech
131 132 143 142 252 253 264 263
111 10 8 mech
133 134 145 144 254 255 266 265
112 10 8 mech
134 135 146 145 255 256 267 266
113 10 8 mech
135 136 147 146 256 257 268 267
114 10 8 mech
136 137 148 147 257 258 269 268
115 10 8 mech
137 138 149 148 258 259 270 269
116 10 8 mech
138 139 150 149 259 260 271 270
117 10 8 mech
139 140 151 150 260 261 272 271
118 10 8 mech
140 141 152 151 261 262 273 272
119 10 8 mech
141 142 153 152 262 263 274 273
120 10 8 mech
142 143 154 153 263 264 275 274
121 10 8 mech
144 145 156 155 265 266 277 276
122 10 8 mech
145 146 157 156 266 267 278 277
123 10 8 mech
146 147 158 157 267 268 279 278
124 10 8 mech
147 148 159 158 268 269 280 279
125 10 8 mech
148 149 160 159 269 270 281 280
126 10 8 mech
149 150 161 160 270 271 282 281
127 10 8 mech
150 151 162 161 271 272 283 282
128 10 8 mech
151 152 163 162 272 273 284 283
129 10 8 mech
152 153 164 163 273 274 285 284
130 10 8 mech
153 154 165 164 274 275 286 285
131 10 8 mech
155 156 167 166 276 277 288 287
132 10 8 mech
156 157 168 167 277 278 289 288
133 10 8 mech
157 158 169 168 278 279 290 289
134 10 8 mech
158 159 170 169 279 280 291 290
135 10 8 mech
159 160 171 170 280 281 292 291
136 10 8 mech
160 161 172 171 281 282 293 292
137 10 8 mech
161 162 173 172 282 283 294 293
138 10 8 mech
162 163 174 173 283 284 295 294
139 10 8 mech
163 164 175 174 284 285 296 295
140 10 8 mech
164 165 176 175 285 286 297 296
141 10 8 mech
166 167 178 177 287 288 299 298
142 10 8 mech
167 168 179 178 288 289 300 299
143 10 8 mech
168 169 180 179 289 290 301 300
144 10 8 mech
169 170 181 180 290 291 302 301
145 10 8 mech
170 171 182 181 291 292 303 302
146 10 8 mech
171 172 183 182 292 293 304 303
147 10 8 mech
172 173 184 183 293 294 305 304
148 10 8 mech
173 174 185 184 294 295 306 305
149 10 8 mech
174 175 186 185 295 296 307 306
150 10 8 mech
175 176 187 186 296 297 308 307
151 10 8 mech
177 178 189 188 298 299 310 309
152 10 8 mech
178 179 190 189 299 300 311 310
153 10 8 mech
179 180 191 190 300 301 312 311
154 10 8 mech
180 181 192 191 301 302 313 312
155 10 8 mech
181 182 193 192 302 303 314 313
156 10 8 mech
182 183 194 193 303 304 315 314
157 10 8 mech
183 184 195 194 304 305 316 315
158 10 8 mech
184 185 196 195 305 306 317 316
159 10 8 mech
185 186 197 196 306 307 318 317
160 10 8 mech
186 187 198 197 307 308 319 318
161 10 8 mech
188 189 200 199 309 310 321 320
162 10 8 mech
189 190 201 200 310 311 322 321
163 10 8 mech
190 191 202 201 311 312 323 322
164 10 8 mech
191 192 203 202 312 313 324 323
165 10 8 mech
192 193 204 203 313 314 325 324
166 10 8 mech
193 194 205 204 314 315 326 325
167 10 8 mech
194 195 206 205 315 316 327 326
168 10 8 mech
195 196 207 206 316 317 328 327
169 10 8 mech
196 197 208 207 317 318 329 328
170 10 8 mech
197 198 209 208 318 319 330 329
171 10 8 mech
199 200 211 210 320 321 332 331
172 10 8 mech
200 201 212 211 321 322 333 332
173 10 8 mech
201 202 213 212 322 323 334 333
174 10 8 mech
202 203 214 213 323 324 335 334
175 10 8 mech
203 204 215 214 324 325 336 335
176 10 8 mech
204 205 216 215 325 326 337 336
177 10 8 mech
205 206 217 216 326 327 338 337
178 10 8 mech
206 207 218 217 327 328 339 338
179 10 8 mech
207 208 219 218 328 329 340 339
180 10 8 mech
208 209 220 219 329 330 341 340
181 10 8 mech
210 211 222 221 331 332 343 342
182 10 8 mech
211 212 223 222 332 333 344 343
183 10 8 mech
212 213 224 223 333 334 345 344
184 10 8 mech
213 214 225 224 334 335 346 345
185 10 8 mech
214 215 226 225 335 336 347 346
186 10 8 mech
215 216 227 226 336 337 348 347
187 10 8 mech
216 217 228 227 337 338 349 348
188 10 8 mech
217 218 229 228 338 339 350 349
189 10 8 mech
218 219 230 229 339 340 351 350
190 10 8 mech
219 220 231 230 340 341 352 351
191 10 8 mech
221 222 233 232 342 343 354 353
192 10 8 mech
222 223 234 233 343 344 355 354
193 10 8 mech
223 224 235 234 344 345 356 355
194 10 8 mech
224 225 236 235 345 346 357 356
195 10 8 mech
225 226 237 236 346 347 358 357
196 10 8 mech
226 227 238 237 347 348 359 358
197 10 8 mech
227 228 239 238 348 349 360 359
198 10 8 mech
228 229 240 239 349 350 361 360
199 10 8 mech
229 230 241 240 350 351 362 361
200 10 8 mech
230 231 242 241 351 352 363 362
201 10 8 mech
243 244 255 254 364 365 376 375
202 10 8 mech
244 245 256 255 365 366 377 376
203 10 8 mech
245 246 257 256 366 367 378 377
204 10 8 mech
246 247 258 257 367 368 379 378
205 10 8 mech
247 248 259 258 368 369 380 379
206 10 8 mech
248 249 260 259 369 370 381 380
207 10 8 mech
249 250 261 260 370 371 382 381
208 10 8 mech
250 251 262 261 371 372 383 382
209 10 8 mech
251 252 263 262 372 373 384 383
210 10 8 mech
252 253 264 263 373 374 385 384
211 10 8 mech
254 255 266 265 375 376 387 386
212 10 8 mech
255 256 267 266 376 377 388 387
213 10 8 mech
256 257 268 267 377 378 389 388
214 10 8 mech
257 258 269 268 378 379 390 389
215 10 8 mech
258 259 270 269 379 380 391 390
216 10 8 mech
259 260 271 270 380 381 392 391
217 10 8 mech
260 261 272 271 381 382 393 392
218 10 8 mech
261 262 273 272 382 383 394 393
219 10 8 mech
262 263 274 273 383 384 395 394
220 10 8 mech
263 264 275 274 384 385 396 395
221 10 8 mech
265 266 277 276 386 387 398 397
222 10 8 mech
266 267 278 277 387 388 399 398
223 10 8 mech
267 268 279 278 388 389 400 399
224 10 8 mech
268 269 280 279 389 390 401 400
225 10 8 mech
269 270 281 280 390 391 402 401
226 10 8 mech
270 271 282 281 391 392 403 402
227 10 8 mech
271 272 283 282 392 393 404 403
228 10 8 mech
272 273 284 283 393 394 405 404
229 10 8 mech
273 274 285 284 394 395 406 405
230 10 8 mech
274 275 286 285 395 396 407 406
231 10 8 mech
276 277 288 287 397 398 409 408
232 10 8 mech
277 278 289 288 398 399 410 409
233 10 8 mech
278 279 290 289 399 400 411 410
234 10 8 mech
279 280 291 290 400 401 412 411
235 10 8 mech
280 281 292 291 401 402 413 412
236 10 8 mech
281 282 293 292 402 403 414 413
237 10 8 mech
282 283 294 293 403 404 415 414
238 10 8 mech
283 284 295 294 404 405 416 415
239 10 8 mech
284 285 296 295 405 406 417 416
240 10 8 mech
285 286 297 296 406 407 418 417
241 10 8 mech
287 288 299 298 408 409 420 419
242 10 8 mech
288 289 300 299 409 410 421 420
243 10 8 mech
289 290 301 300 410 411 422 421
244 10 8 mech
290 291 302 301 411 412 423 422
245 10 8 mech
291 292 303 302 412 413 424 423
246 10 8 mech
292 293 304 303 413 414 425 424
247 10 8 mech
293 294 305 304 414 415 426 425
248 10 8 mech
294 295 306 305 415 416 427 426
249 10 8 mech
295 296 307 306 416 417 428 427
250 10 8 mech
296 297 308 307 417 418 429 428
251 10 8 mech
298 299 310 309 419 420 431 430
252 10 8 mech
299 300 311 310 420 421 432 431
253 10 8 mech
300 301 312 311 421 422 433 432
254 10 8 mech
301 302 313 312 422 423 434 433
255 10 8 mech
302 303 314 313 423 424 435 434
256 10 8 mech
303 304 315 314 424 425 436 435
257 10 8 mech
304 305 316 315 425 426 437 436
258 10 8 mech
305 306 317 316 426 427 438 437
259 10 8 mech
306 307 318 317 427 428 439 438
260 10 8 mech
307 308 319 318 428 429 440 439
261 10 8 mech
309 310 321 320 430 431 442 441
262 10 8 mech
310 311 322 321 431 432 443 442
263 10 8 mech
311 312 323 322 432 433 444 443
264 10 8 mech
312 313 324 323 433 434 445 444
265 10 8 mech
313 314 325 324 434 435 446 445
266 10 8 mech
314 315 326 325 435 436 447 446
267 10 8 mech
315 316 327 326 436 437 448 447
268 10 8 mech
316 317 328 327 437 438 449 448
269 10 8 mech
317 318 329 328 438 439 450 449
270 10 8 mech
318 319 330 329 439 440 451 450
271 10 8 mech
320 321 332 331 441 442 453 452
272 10 8 mech
321 322 333 332 442 443 454 453
273 10 8 mech
322 323 334 333 443 444 455 454
274 10 8 mech
323 324 335 334 444 445 456 455
275 10 8 mech
324 325 336 335 445 446 457 456
276 10 8 mech
325 326 337 336 446 447 458 457
277 10 8 mech
326 327 338 337 447 448 459 458
278 10 8 mech
327 328 339 338 448 449 460 459
279 10 8 mech
328 329 340 339 449 450 461 460
280 10 8 mech
329 330 341 340 450 451 462 461
281 10 8 mech
331 332 343 342 452 453 464 463
282 10 8 mech
332 333 344 343 453 454 465 464
283 10 8 mech
333 334 345 344 454 455 466 465
284 10 8 mech
334 335 346 345 455 456 467 466
285 10 8 mech
335 336 347 346 456 457 468 467
286 10 8 mech
336 337 348 347 457 458 469 468
287 10 8 mech
337 338 349 348 458 459 470 469
288 10 8 mech
338 339 350 349 459 460 471 470
289 10 8 mech
339 340 351 350 460 461 472 471
290 10 8 mech
340 341 352 351 461 462 473 472
291 10 8 mech
342 343 354 353 463 464 475 474
292 10 8 mech
343 344 355 354 464 465 476 475
293 10 8 mech
344 345 356 355 465 466 477 476
294 10 8 mech
345 346 357 356 466 467 478 477
295 10 8 mech
346 347 358 357 467 468 479 478
296 10 8 mech
347 348 359 358 468 469 480 479
297 10 8 mech
348 349 360 359 469 470 481 480
298 10 8 mech
349 350 361 360 470 471 482 481
299 10 8 mech
350 351 362 361 471 472 483 482
300 10 8 mech
351 352 363 362 472 473 484 483
301 10 8 mech
364 365 376 375 485 486 497 496
302 10 8 mech
365 366 377 376 486 487 498 497
303 10 8 mech
366 367 378 377 487 488 499 498
304 10 8 mech
367 368 379 378 488 489 500 499
305 10 8 mech
368 369 380 379 489 490 501 500
306 10 8 mech
369 370 381 380 490 491 502 501
307 10 8 mech
370 371 382 381 491 492 503 502
308 10 8 mech
371 372 383 382 492 493 504 503
309 10 8 mech
372 373 384 383 493 494 505 504
310 10 8 mech
373 374 385 384 494 495 506 505
311 10 8 mech
375 376 387 386 496 497 508 507
312 10 8 mech
376 377 388 387 497 498 509 508
313 10 8 mech
377 378 389 388 498 499 510 509
314 10 8 mech
378 379 390 389 499 500 511 510
315 10 8 mech
379 380 391 390 500 501 512 511
316 10 8 mech
380 381 392 391 501 502 513 512
317 10 8 mech
381 382 393 392 502 503 514 513
318 10 8 mech
382 383 394 393 503 504 515 514
319 10 8 mech
383 384 395 394 504 505 516 515
320 10 8 mech
384 385 396 395 505 506 517 516
321 10 8 mech
386 387 398 397 507 508 519 518
322 10 8 mech
387 388 399 398 508 509 520 519
323 10 8 mech
388 389 400 399 509 510 521 520
324 10 8 mech
389 390 401 400 510 511 522 521
325 10 8 mech
390 391 402 401 511 512 523 522
326 10 8 mech
391 392 403 402 512 513 524 523
327 10 8 mech
392 393 404 403 513 514 525 524
328 10 8 mech
393 394 405 404 514 515 526 525
329 10 8 mech
394 395 406 405 515 516 527 526
330 10 8 mech
395 396 407 406 516 517 528 527
331 10 8 mech
397 398 409 408 518 519 530 529
332 10 8 mech
398 399 410 409 519 520 531 530
333 10 8 mech
399 400 411 410 520 521 532 531
334 10 8 mech
400 401 412 411 521 522 533 532
335 10 8 mech
401 402 413 412 522 523 534 533
336 10 8 mech
402 403 414 413 523 524 535 534
337 10 8 mech
403 404 415 414 524 525 536 535
338 10 8 mech
404 405 416 415 525 526 537 536
339 10 8 mech
405 406 417 416 526 527 538 537
340 10 8 mech
406 407 418 417 527 528 539 538
341 10 8 mech
408 409 420 419 529 530 541 540
342 10 8 mech
409 410 421 420 530 531 542 541
343 10 8 mech
410 411 422 421 531 532 543 542
344 10 8 mech
411 412 423 422 532 533 544 543
345 10 8 mech
412 413 424 423 533 534 545 544
346 10 8 mech
413 414 425 424 534 535 546 545
347 10 8 mech
414 415 426 425 535 536 547 546
348 10 8 mech
415 416 427 426 536 537 548 547
349 10 8 mech
416 417 428 427 537 538 549 548
350 10 8 mech
417 418 429 428 538 539 550 549
351 10 8 mech
419 420 431 430 540 541 552 551
352 10 8 mech
420 421 432 431 541 542 553 552
353 10 8 mech
421 422 433 432 542 543 554 553
354 10 8 mech
422 423 434 433 543 544 555 554
355 10 8 mech
423 424 435 434 544 545 556 555
356 10 8 mech
424 425 436 435 545 546 557 556
357 10 8 mech
425 426 437 436 546 547 558 557
358 10 8 mech
426 427 438 437 547 548 559 558
359 10 8 mech
427 428 439 438 548 549 560 559
360 10 8 mech
428 429 440 439 549 550 561 560
361 10 8 mech
430 431 442 441 551 552 563 562
362 10 8 mech
431 432 443 442 552 553 564 563
363 10 8 mech
432 433 444 443 553 554 565 564
364 10 8 mech
433 434 445 444 554 555 566 565
365 10 8 mech
434 435 446 445 555 556 567 566
366 10 8 mech
435 436 447 446 556 557 568 567
367 10 8 mech
436 437 448 447 557 558 569 568
368 10 8 mech
437 438 449 448 558 559 570 569
369 10 8 mech
438 439 450 449 559 560 571 570
370 10 8 mech
439 440 451 450 560 561 572 571
371 10 8 mech
441 442 453 452 562 563 574 573
372 10 8 mech
442 443 454 453 563 564 575 574
373 10 8 mech
443 444 455 454 564 565 576 575
374 10 8 mech
444 445 456 455 565 566 577 576
375 10 8 mech
445 446 457 456 566 567 578 577
376 10 8 mech
446 447 458 457 567 568 579 578
377 10 8 mech
447 448 459 458 568 569 580 579
378 10 8 mech
448 449 460 459 569 570 581 580
379 10 8 mech
449 450 461 460 570 571 582 581
380 10 8 mech
450 451 462 461 571 572 583 582
381 10 8 mech
452 453 464 463 573 574 585 584
382 10 8 mech
453 454 465 464 574 575 586 585
383 10 8 mech
454 455 466 465 575 576 587 586
384 10 8 mech
455 456 467 466 576 577 588 587
385 10 8 mech
456 457 468 467 577 578 589 588
386 10 8 mech
457 458 469 468 578 579 590 589
387 10 8 mech
458 459 470 469 579 580 591 590
388 10 8 mech
459 460 471 470 580 581 592 591
389 10 8 mech
460 461 472 471 581 582 593 592
390 10 8 mech
461 462 473 472 582 583 594 593
391 10 8 mech
463 464 475 474 584 585 596 595
392 10 8 mech
464 465 476 475 585 586 597 596
393 10 8 mech
465 466 477 476 586 587 598 597
394 10 8 mech
466 467 478 477 587 588 599 598
395 10 8 mech
467 468 479 478 588 589 600 599
396 10 8 mech
468 469 480 479 589 590 601 600
397 10 8 mech
469 470 481 480 590 591 602 601
398 10 8 mech
470 471 482 481 591 592 603 602
399 10 8 mech
471 472 483 482 592 593 604 603
400 10 8 mech
472 473 484 483 593 594 605 604
401 10 8 mech
485 486 497 496 606 607 618 617
402 10 8 mech
486 487 498 497 607 608 619 618
403 10 8 mech
487 488 499 498 608 609 620 619
404 10 8 mech
488 489 500 499 609 610 621 620
405 10 8 mech
489 490 501 500 610 611 622 621
406 10 8 mech
490 491 502 501 611 612 623 622
407 10 8 mech
491 492 503 502 612 613 624 623
408 10 8 mech
492 493 504 503 613 614 625 624
409 10 8 mech
493 494 505 504 614 615 626 625
410 10 8 mech
494 495 506 505 615 616 627 626
411 10 8 mech
496 497 508 507 617 618 629 628
412 10 8 mech
497 498 509 508 618 619 630 629
413 10 8 mech
498 499 510 509 619 620 631 630
414 10 8 mech
499 500 511 510 620 621 632 631
415 10 8 mech
500 501 512 511 621 622 633 632
416 10 8 mech
501 502 513 512 622 623 634 633
417 10 8 mech
502 503 514 513 623 624 635 634
418 10 8 mech
503 504 515 514 624 625 636 635
419 10 8 mech
504 505 516 515 625 626 637 636
420 10 8 mech
505 506 517 516 626 627 638 637
421 10 8 mech
507 508 519 518 628 629 640 639
422 10 8 mech
508 509 520 519 629 630 641 640
423 10 8 mech
509 510 521 520 630 631 642 641
424 10 8 mech
510 511 522 521 631 632 643 642
425 10 8 mech
511 512 523 522 632 633 644 643
426 10 8 mech
512 513 524 523 633 634 645 644
427 10 8 mech
513 514 525 524 634 635 646 645
428 10 8 mech
514 515 526 525 635 636 647 646
429 10 8 mech
515 516 527 526 636 637 648 647
430 10 8 mech
516 517 528 527 637 638 649 648
431 10 8 mech
518 519 530 529 639 640 651 650
432 10 8 mech
519 520 531 530 640 641 652 651
433 10 8 mech
520 521 532 531 641 642 653 652
434 10 8 mech
521 522 533 532 642 643 654 653
435 10 8 mech
522 523 534 533 643 644 655 654
436 10 8 mech
523 524 535 534 644 645 656 655
437 10 8 mech
524 525 536 535 645 646 657 656
438 10 8 mech
525 526 537 536 646 647 658 657
439 10 8 mech
526 527 538 537 647 648 659 658
440 10 8 mech
527 528 539 538 648 649 660 659
441 10 8 mech
529 530 541 540 650 651 662 661
442 10 8 mech
530 531 542 541 651 652 663 662
443 10 8 mech
531 532 543 542 652 653 664 663
444 10 8 mech
532 533 544 543 653 654 665 664
445 10 8 mech
533 534 545 544 654 655 666 665
446 10 8 mech
534 535 546 545 655 656 667 666
447 10 8 mech
535 536 547 546 656 657 668 667
448 10 8 mech
536 537 548 547 657 658 669 668
449 10 8 mech
537 538 549 548 658 659 670 669
450 10 8 mech
538 539 550 549 659 660 671 670
451 10 8 mech
540 541 552 551 661 662 673 672
452 10 8 mech
541 542 553 552 662 663 674 673
453 10 8 mech
542 543 554 553 663 664 675 674
454 10 8 mech
543 544 555 554 664 665 676 675
455 10 8 mech
544 545 556 555 665 666 677 676
456 10 8 mech
545 546 557 556 666 667 678 677
457 10 8 mech
546 547 558 557 667 668 679 678
458 10 8 mech
547 548 559 558 668 669 680 679
459 10 8 mech
548 549 560 559 669 670 681 680
460 10 8 mech
549 550 561 560 670 671 682 681
461 10 8 mech
551 552 563 562 672 673 684 683
462 10 8 mech
552 553 564 563 673 674 685 684
463 10 8 mech
553 554 565 564 674 675 686 685
464 10 8 mech
554 555 566 565 675 676 687 686
465 10 8 mech
555 556 567 566 676 677 688 687
466 10 8 mech
556 557 568 567 677 678 689 688
467 10 8 mech
557 558 569 568 678 679 690 689
468 10 8 mech
558 559 570 569 679 680 691 690
469 10 8 mech
559 560 571 570 680 681 692 691
470 10 8 mech
560 561 572 571 681 682 693 692
471 10 8 mech
562 563 574 573 683 684 695 694
472 10 8 mech
563 564 575 574 684 685 696 695
473 10 8 mech
564 565 576 575 685 686 697 696
474 10 8 mech
565 566 577 576 686 687 698 697
475 10 8 mech
566 567 578 577 687 688 699 698
476 10 8 mech
567 568 579 578 688 689 700 699
477 10 8 mech
568 569 580 579 689 690 701 700
478 10 8 mech
569 570 581 580 690 691 702 701
479 10 8 mech
570 571 582 581 691 692 703 702
480 10 8 mech
571 572 583 582 692 693 704 703
481 10 8 mech
573 574 585 584 694 695 706 705
482 10 8 mech
574 575 586 585 695 696 707 706
483 10 8 mech
575 576 587 586 696 697 708 707
484 10 8 mech
576 577 588 587 697 698 709 708
485 10 8 mech
577 578 589 588 698 699 710 709
486 10 8 mech
578 579 590 589 699 700 711 710
487 10 8 mech
579 580 591 590 700 701 712 711
488 10 8 mech
580 581 592 591 701 702 713 712
489 10 8 mech
581 582 593 592 702 703 714 713
490 10 8 mech
582 583 594 593 703 704 715 714
491 10 8 mech
584 585 596 595 705 706 717 716
492 10 8 mech
585 586 597 596 706 707 718 717
493 10 8 mech
586 587 598 597 707 708 719 718
494 10 8 mech
587 588 599 598 708 709 720 719
495 10 8 mech
588 589 600 599 709 710 721 720
496 10 8 mech
589 590 601 600 710 711 722 721
497 10 8 mech
590 591 602 601 711 712 723 722
498 10 8 mech
591 592 603 602 712 713 724 723
499 10 8 mech
592 593 604 603 713 714 725 724
500 10 8 mech
593 594 605 604 714 715 726 725
501 10 8 mech
606 607 618 617 727 728 739 738
502 10 8 mech
607 608 619 618 728 729 740 739
503 10 8 mech
608 609 620 619 729 730 741 740
504 10 8 mech
609 610 621 620 730 731 742 741
505 10 8 mech
610 611 622 621 731 732 743 742
506 10 8 mech
611 612 623 622 732 733 744 743
507 10 8 mech
612 613 624 623 733 734 745 744
508 10 8 mech
613 614 625 624 734 735 746 745
509 10 8 mech
614 615 626 625 735 736 747 746
510 10 8 mech
615 616 627 626 736 737 748 747
511 10 8 mech
617 618 629 628 738 739 750 749
512 10 8 mech
618 619 630 629 739 740 751 750
513 10 8 mech
619 620 631 630 740 741 752 751
514 10 8 mech
620 621 632 631 741 742 753 752
515 10 8 mech
621 622 633 632 742 743 754 753
516 10 8 mech
622 623 634 633 743 744 755 754
517 10 8 mech
623 624 635 634 744 745 756 755
518 10 8 mech
624 625 636 635 745 746 757 756
519 10 8 mech
625 626 637 636 746 747 758 757
520 10 8 mech
626 627 638 637 747 748 759 758
521 10 8 mech
628 629 640 639 749 750 761 760
522 10 8 mech
629 630 641 640 750 751 762 761
523 10 8 mech
630 631 642 641 751 752 763 762
524 10 8 mech
631 632 643 642 752 753 764 763
525 10 8 mech
632 633 644 643 753 754 765 764
526 10 8 mech
633 634 645 644 754 755 766 765
527 10 8 mech
634 635 646 645 755 756 767 766
528 10 8 mech
635 636 647 646 756 757 768 767
529 10 8 mech
636 637 648 647 757 758 769 768
530 10 8 mech
637 638 649 648 758 759 770 769
531 10 8 mech
639 640 651 650 760 761 772 771
532 10 8 mech
640 641 652 651 761 762 773 772
533 10 8 mech
641 642 653 652 762 763 774 773
534 10 8 mech
642 643 654 653 763 764 775 774
535 10 8 mech
643 644 655 654 764 765 776 775
536 10 8 mech
644 645 656 655 765 766 777 776
537 10 8 mech
645 646 657 656 766 767 778 777
538 10 8 mech
646 647 658 657 767 768 779 778
539 10 8 mech
647 648 659 658 768 769 780 779
540 10 8 mech
648 649 660 659 769 770 781 780
541 10 8 mech
650 651 662 661 771 772 783 782
542 10 8 mech
651 652 663 662 772 773 784 783
543 10 8 mech
652 653 664 663 773 774 785 784
544 10 8 mech
653 654 665 664 774 775 786 785
545 10 8 mech
654 655 666 665 775 776 787 786
546 10 8 mech
655 656 667 666 776 777 788 787
547 10 8 mech
656 657 668 667 777 778 789 788
548 10 8 mech
657 658 669 668 778 779 790 789
549 10 8 mech
658 659 670 669 779 780 791 790
550 10 8 mech
659 660 671 670 780 781 792 791
551 10 8 mech
661 662 673 672 782 783 794 793
552 10 8 mech
662 663 674 673 783 784 795 794
553 10 8 mech
663 664 675 674 784 785 796 795
554 10 8 mech
664 665 676 675 785 786 797 796
555 10 8 mech
665 666 677 676 786 787 798 797
556 10 8 mech
666 667 678 677 787 788 799 798
557 10 8 mech
667 668 679 678 788 789 800 799
558 10 8 mech
668 669 680 679 789 790 801 800
559 10 8 mech
669 670 681 680 790 791 802 801
560 10 8 mech
670 671 682 681 791 792 803 802
561 10 8 mech
672 673 684 683 793 794 805 804
562 10 8 mech
673 674 685 684 794 795 806 805
563 10 8 mech
674 675 686 685 795 796 807 806
564 10 8 mech
675 676 687 686 796 797 808 807
565 10 8 mech
676 677 688 687 797 798 809 808
566 10 8 mech
677 678 689 688 798 799 810 809
567 10 8 mech
678 679 690 689 799 800 811 810
568 10 8 mech
679 680 691 690 800 801 812 811
569 10 8 mech
680 681 692 691 801 802 813 812
570 10 8 mech
681 682 693 692 802 803 814 813
571 10 8 mech
683 684 695 694 804 805 816 815
572 10 8 mech
684 685 696 695 805 806 817 816
573 10 8 mech
685 686 697 696 806 807 818 817
574 10 8 mech
686 687 698 697 807 808 819 818
575 10 8 mech
687 688 699 698 808 809 820 819
576 10 8 mech
688 689 700 699 809 810 821 820
577 10 8 mech
689 690 701 700 810 811 822 821
578 10 8 mech
690 691 702 701 811 812 823 822
579 10 8 mech
691 692 703 702 812 813 824 823
580 10 8 mech
692 693 704 703 813 814 825 824
581 10 8 mech
694 695 706 705 815 816 827 826
582 10 8 mech
695 696 707 706 816 817 828 827
583 10 8 mech
696 697 708 707 817 818 829 828
584 10 8 mech
697 698 709 708 818 819 830 829
585 10 8 mech
698 699 710 709 819 820 831 830
586 10 8 mech
699 700 711 710 820 821 832 831
587 10 8 mech
700 701 712 711 821 822 833 832
588 10 8 mech
701 702 713 712 822 823 834 833
589 10 8 mech
702 703 714 713 823 824 835 834
590 10 8 mech
703 704 715 714 824 825 836 835
591 10 8 mech
705 706 717 716 826 827 838 837
592 10 8 mech
706 707 718 717 827 828 839 838
593 10 8 mech
707 708 719 718 828 829 840 839
594 10 8 mech
708 709 720 719 829 830 841 840
595 10 8 mech
709 710 721 720 830 831 842 841
596 10 8 mech
710 711 722 721 831 832 843 842
597 10 8 mech
711 712 723 722 832 833 844 843
598 10 8 mech
712 713 724 723 833 834 845 844
599 10 8 mech
713 714 725 724 834 835 846 845
600 10 8 mech
714 715 726 725 835 836 847 846
601 10 8 mech
727 728 739 738 848 849 860 859
602 10 8 mech
728 729 740 739 849 850 861 860
603 10 8 mech
729 730 741 740 850 851 862 861
604 10 8 mech
730 731 742 741 851 852 863 862
605 10 8 mech
731 732 743 742 852 853 864 863
606 10 8 mech
732 733 744 743 853 854 865 864
607 10 8 mech
733 734 745 744 854 855 866 865
608 10 8 mech
734 735 746 745 855 856 867 866
609 10 8 mech
735 736 747 746 856 857 868 867
610 10 8 mech
736 737 748 747 857 858 869 868
611 10 8 mech
738 739 750 749 859 860 871 870
612 10 8 mech
739 740 751 750 860 861 872 871
613 10 8 mech
740 741 752 751 861 862 873 872
614 10 8 mech
741 742 753 752 862 863 874 873
615 10 8 mech
742 743 754 753 863 864 875 874
616 10 8 mech
743 744 755 754 864 865 876 875
617 10 8 mech
744 745 756 755 865 866 877 876
618 10 8 mech
745 746 757 756 866 867 878 877
619 10 8 mech
746 747 758 757 867 868 879 878
620 10 8 mech
747 748 759 758 868 869 880 879
621 10 8 mech
749 750 761 760 870 871 882 881
622 10 8 mech
750 751 762 761 871 872 883 882
623 10 8 mech
751 752 763 762 872 873 884 883
624 10 8 mech
752 753 764 763 873 874 885 884
625 10 8 mech
753 754 765 764 874 875 886 885
626 10 8 mech
754 755 766 765 875 876 887 886
627 10 8 mech
755 756 767 766 876 877 888 887
628 10 8 mech
756 757 768 767 877 878 889 888
629 10 8 mech
757 758 769 768 878 879 890 889
630 10 8 mech
758 759 770 769 879 880 891 890
631 10 8 mech
760 761 772 771 881 882 893 892
632 10 8 mech
761 762 773 772 882 883 894 893
633 10 8 mech
762 763 774 773 883 884 895 894
634 10 8 mech
763 764 775 774 884 885 896 895
635 10 8 mech
764 765 776 775 885 886 897 896
636 10 8 mech
765 766 777 776 886 887 898 897
637 10 8 mech
766 767 778 777 887 888 899 898
638 10 8 mech
767 768 779 778 888 889 900 899
639 10 8 mech
768 769 780 779 889 890 901 900
640 10 8 mech
769 770 781 780 890 891 902 901
641 10 8 mech
771 772 783 782 892 893 904 903
642 10 8 mech
772 773 784 783 893 894 905 904
643 10 8 mech
773 774 785 784 894 895 906 905
644 10 8 mech
774 775 786 785 895 896 907 906
645 10 8 mech
775 776 787 786 896 897 908 907
646 10 8 mech
776 777 788 787 897 898 909 908
647 10 8 mech
777 778 789 788 898 899 910 909
648 10 8 mech
778 779 790 789 899 900 911 910
649 10 8 mech
779 780 791 790 900 901 912 911
650 10 8 mech
780 781 792 791 901 902 913 912
651 10 8 mech
782 783 794 793 903 904 915 914
652 10 8 mech
783 784 795 794 904 905 916 915
653 10 8 mech
784 785 796 795 905 906 917 916
654 10 8 mech
785 786 797 796 906 907 918 917
655 10 8 mech
786 787 798 797 907 908 919 918
656 10 8 mech
787 788 799 798 908 909 920 919
657 10 8 mech
788 789 800 799 909 910 921 920
658 10 8 mech
789 790 801 800 910 911 922 921
659 10 8 mech
790 791 802 801 911 912 923 922
660 10 8 mech
791 792 803 802 912 913 924 923
661 10 8 mech
793 794 805 804 914 915 926 925
662 10 8 mech
794 795 806 805 915 916 927 926
663 10 8 mech
795 796 807 806 916 917 928 927
664 10 8 mech
796 797 808 807 917 918 929 928
665 10 8 mech
797 798 809 808 918 919 930 929
666 10 8 mech
798 799 810 809 919 920 931 930
667 10 8 mech
799 800 811 810 920 921 932 931
668 10 8 mech
800 801 812 811 921 922 933 932
669 10 8 mech
801 802 813 812 922 923 934 933
670 10 8 mech
802 803 814 813 923 924 935 934
671 10 8 mech
804 805 816 815 925 926 937 936
672 10 8 mech
805 806 817 816 926 927 938 937
673 10 8 mech
806 807 818 817 927 928 939 938
674 10 8 mech
807 808 819 818 928 929 940 939
675 10 8 mech
808 809 820 819 929 930 941 940
676 10 8 mech
809 810 821 820 930 931 942 941
677 10 8 mech
810 811 822 821 931 932 943 942
678 10 8 mech
811 812 823 822 932 933 944 943
679 10 8 mech
812 813 824 823 933 934 945 944
680 10 8 mech
813 814 825 824 934 935 946 945
681 10 8 mech
815 816 827 826 936 937 948 947
682 10 8 mech
816 817 828 827 937 938 949 948
683 10 8 mech
817 818 829 828 938 939 950 949
684 10 8 mech
818 819 830 829 939 940 951 950
685 10 8 mech
819 820 831 830 940 941 952 951
686 10 8 mech
820 821 832 831 941 942 953 952
687 10 8 mech
821 822 833 832 942 943 954 953
688 10 8 mech
822 823 834 833 943 944 955 954
689 10 8 mech
823 824 835 834 944 945 956 955
690 10 8 mech
824 825 836 835 945 946 957 956
691 10 8 mech
826 827 838 837 947 948 959 958
692 10 8 mech
827 828 839 838 948 949 960 959
693 10 8 mech
828 829 840 839 949 950 961 960
694 10 8 mech
829 830 841 840 950 951 962 961
695 10 8 mech
830 831 842 841 951 952 963 962
696 10 8 mech
831 832 843 842 952 953 964 963
697 10 8 mech
832 833 844 843 953 954 965 964
698 10 8 mech
833 834 845 844 954 955 966 965
699 10 8 mech
834 835 846 845 955 956 967 966
700 10 8 mech
835 836 847 846 956 957 968 967
701 10 8 mech
848 849 860 859 969 970 981 980
702 10 8 mech
849 850 861 860 970 971 982 981
703 10 8 mech
850 851 862 861 971 972 983 982
704 10 8 mech
851 852 863 862 972 973 984 983
705 10 8 mech
852 853 864 863 973 974 985 984
706 10 8 mech
853 854 865 864 974 975 986 985
707 10 8 mech
854 855 866 865 975 976 987 986
708 10 8 mech
855 856 867 866 976 977 988 987
709 10 8 mech
856 857 868 867 977 978 989 988
710 10 8 mech
857 858 869 868 978 979 990 989
711 10 8 mech
859 860 871 870 980 981 992 991
712 10 8 mech
860 861 872 871 981 982 993 992
713 10 8 mech
861 862 873 872 982 983 994 993
714 10 8 mech
862 863 874 873 983 984 995 994
715 10 8 mech
863 864 875 874 984 985 996 995
716 10 8 mech
864 865 876 875 985 986 997 996
717 10 8 mech
865 866 877 876 986 987 998 997
718 10 8 mech
866 867 878 877 987 988 999 998
719 10 8 mech
867 868 879 878 988 989 1000 999
720 10 8 mech
868 869 880 879 989 990 1001 1000
721 10 8 mech
870 871 882 881 991 992 1003 1002
722 10 8 mech
871 872 883 882 992 993 1004 1003
723 10 8 mech
872 873 884 883 993 994 1005 1004
724 10 8 mech
873 874 885 884 994 995 1006 1005
725 10 8 mech
874 875 886 885 995 996 1007 1006
726 10 8 mech
875 876 887 886 996 997 1008 1007
727 10 8 mech
876 877 888 887 997 998 1009 1008
728 10 8 mech
877 878 889 888 998 999 1010 1009
729 10 8 mech
878 879 890 889 999 1000 1011 1010
730 10 8 mech
879 880 891 890 1000 1001 1012 1011
731 10 8 mech
881 882 893 892 1002 1003 1014 1013
732 10 8 mech
882 883 894 893 1003 1004 1015 1014
733 10 8 mech
883 884 895 894 1004 1005 1016 1015
734 10 8 mech
884 885 896 895 1005 1006 1017 1016
735 10 8 mech
885 886 897 896 1006 1007 1018 1017
736 10 8 mech
886 887 898 897 1007 1008 1019 1018
737 10 8 mech
887 888 899 898 1008 1009 1020 1019
738 10 8 mech
888 889 900 899 1009 1010 1021 1020
739 10 8 mech
889 890 901 900 1010 1011 1022 1021
740 10 8 mech
890 891 902 901 1011 1012 1023 1022
741 10 8 mech
892 893 904 903 1013 1014 1025 1024
742 10 8 mech
893 894 905 904 1014 1015 1026 1025
743 10 8 mech
894 895 906 905 1015 1016 1027 1026
744 10 8 mech
895 896 907 906 1016 1017 1028 1027
745 10 8 mech
896 897 908 907 1017 1018 1029 1028
746 10 8 mech
897 898 909 908 1018 1019 1030 1029
747 10 8 mech
898 899 910 909 1019 1020 1031 1030
748 10 8 mech
899 900 911 910 1020 1021 1032 1031
749 10 8 mech
900 901 912 911 1021 1022 1033 1032
750 10 8 mech
901 902 913 912 1022 1023 1034 1033
751 10 8 mech
903 904 915 914 1024 1025 1036 1035
752 10 8 mech
904 905 916 915 1025 1026 1037 1036
753 10 8 mech
905 906 917 916 1026 1027 1038 1037
754 10 8 mech
906 907 918 917 1027 1028 1039 1038
755 10 8 mech
907 908 919 918 1028 1029 1040 1039
756 10 8 mech
908 909 920 919 1029 1030 1041 1040
757 10 8 mech
909 910 921 920 1030 1031 1042 1041
758 10 8 mech
910 911 922 921 1031 1032 1043 1042
759 10 8 mech
911 912 923 922 1032 1033 1044 1043
760 10 8 mech
912 913 924 923 1033 1034 1045 1044
761 10 8 mech
914 915 926 925 1035 1036 1047 1046
762 10 8 mech
915 916 927 926 1036 1037 1048 1047
763 10 8 mech
916 917 928 927 1037 1038 1049 1048
764 10 8 mech
917 918 929 928 1038 1039 1050 1049
765 10 8 mech
918 919 930 929 1039 1040 1051 1050
766 10 8 mech
919 920 931 930 1040 1041 1052 1051
767 10 8 mech
920 921 932 931 1041 1042 1053 1052
768 10 8 mech
921 922 933 932 1042 1043 1054 1053
769 10 8 mech
922 923 934 933 1043 1044 1055 1054
770 10 8 mech
923 924 935 934 1044 1045 1056 1055
771 10 8 mech
925 926 937 936 1046 1047 1058 1057
772 10 8 mech
926 927 938 937 1047 1048 1059 1058
773 10 8 mech
927 928 939 938 1048 1049 1060 1059
774 10 8 mech
928 929 940 939 1049 1050 1061 1060
775 10 8 mech
929 930 941 940 1050 1051 1062 1061
776 10 8 mech
930 931 942 941 1051 1052 1063 1062
777 10 8 mech
931 932 943 942 1052 1053 1064 1063
778 10 8 mech
932 933 944 943 1053 1054 1065 1064
779 10 8 mech
933 934 945 944 1054 1055 1066 1065
780 10 8 mech
934 935 946 945 1055 1056 1067 1066
781 10 8 mech
936 937 948 947 1057 1058 1069 1068
782 10 8 mech
937 938 949 948 1058 1059 1070 1069
783 10 8 mech
938 939 950 949 1059 1060 1071 1070
784 10 8 mech
939 940 951 950 1060 1061 1072 1071
785 10 8 mech
940 941 952 951 1061 1062 1073 1072
786 10 8 mech
941 942 953 952 1062 1063 1074 1073
787 10 8 mech
942 943 954 953 1063 1064 1075 1074
788 10 8 mech
943 944 955 954 1064 1065 1076 1075
789 10 8 mech
944 945 956 955 1065 1066 1077 1076
790 10 8 mech
945 946 957 956 1066 1067 1078 1077
791 10 8 mech
947 948 959 958 1068 1069 1080 1079
792 10 8 mech
948 949 960 959 1069 1070 1081 1080
793 10 8 mech
949 950 961 960 1070 1071 1082 1081
794 10 8 mech
950 951 962 961 1071 1072 1083 1082
795 10 8 mech
951 952 963 962 1072 1073 1084 1083
796 10 8 mech
952 953 964 963 1073 1074 1085 1084
797 10 8 mech
953 954 965 964 1074 1075 1086 1085
798 10 8 mech
954 955 966 965 1075 1076 1087 1086
799 10 8 mech
955 956 967 966 1076 1077 1088 1087
800 10 8 mech
956 957 968 967 1077 1078 1089 1088
801 10 8 mech
969 970 981 980 1090 1091 1102 1101
802 10 8 mech
970 971 982 981 1091 1092 1103 1102
803 10 8 mech
971 972 983 982 1092 1093 1104 1103
804 10 8 mech
972 973 984 983 1093 1094 1105 1104
805 10 8 mech
973 974 985 984 1094 1095 1106 1105
806 10 8 mech
974 975 986 985 1095 1096 1107 1106
807 10 8 mech
975 976 987 986 1096 1097 1108 1107
808 10 8 mech
976 977 988 987 1097 1098 1109 1108
809 10 8 mech
977 978 989 988 1098 1099 1110 1109
810 10 8 mech
978 979 990 989 1099 1100 1111 1110
811 10 8 mech
980 981 992 991 1101 1102 1113 1112
812 10 8 mech
981 982 993 992 1102 1103 1114 1113
813 10 8 mech
982 983 994 993 1103 1104 1115 1114
814 10 8 mech
983 984 995 994 1104 1105 1116 1115
815 10 8 mech
984 985 996 995 1105 1106 1117 1116
816 10 8 mech
985 986 997 996 1106 1107 1118 1117
817 10 8 mech
986 987 998 997 1107 1108 1119 1118
818 10 8 mech
987 988 999 998 1108 1109 1120 1119
819 10 8 mech
988 989 1000 999 1109 1110 1121 1120
820 10 8 mech
989 990 1001 1000 1110 1111 1122 1121
821 10 8 mech
991 992 1003 1002 1112 1113 1124 1123
822 10 8 mech
992 993 1004 1003 1113 1114 1125 1124
823 10 8 mech
993 994 1005 1004 1114 1115 1126 1125
824 10 8 mech
994 995 1006 1005 1115 1116 1127 1126
825 10 8 mech
995 996 1007 1006 1116 1117 1128 1127
826 10 8 mech
996 997 1008 1007 1117 1118 1129 1128
827 10 8 mech
997 998 1009 1008 1118 1119 1130 1129
828 10 8 mech
998 999 1010 1009 1119 1120 1131 1130
829 10 8 mech
999 1000 1011 1010 1120 1121 1132 1131
830 10 8 mech
1000 1001 1012 1011 1121 1122 1133 1132
831 10 8 mech
1002 1003 1014 1013 1123 1124 1135 1134
832 10 8 mech
1003 1004 1015 1014 1124 1125 1136 1135
833 10 8 mech
1004 1005 1016 1015 1125 1126 1137 1136
834 10 8 mech
1005 1006 1017 1016 1126 1127 1138 1137
835 10 8 mech
1006 1007 1018 1017 1127 1128 1139 1138
836 10 8 mech
1007 1008 1019 1018 1128 1129 1140 1139
837 10 8 mech
1008 1009 1020 1019 1129 1130 1141 1140
838 10 8 mech
1009 1010 1021 1020 1130 1131 1142 1141
839 10 8 mech
1010 1011 1022 1021 1131 1132 1143 1142
840 10 8 mech
1011 1012 1023 1022 1132 1133 1144 1143
841 10 8 mech
1013 1014 1025 1024 1134 1135 1146 1145
842 10 8 mech
1014 1015 1026 1025 1135 1136 1147 1146
843 10 8 mech
1015 1016 1027 1026 1136 1137 1148 1147
844 10 8 mech
1016 1017 1028 1027 1137 1138 1149 1148
845 10 8 mech
1017 1018 1029 1028 1138 1139 1150 1149
846 10 8 mech
1018 1019 1030 1029 1139 1140 1151 1150
847 10 8 mech
1019 1020 1031 1030 1140 1141 1152 1151
848 10 8 mech
1020 1021 1032 1031 1141 1142 1153 1152
849 10 8 mech
1021 1022 1033 1032 1142 1143 1154 1153
850 10 8 mech
1022 1023 1034 1033 1143 1144 1155 1154
851 10 8 mech
1024 1025 1036 1035 1145 1146 1157 1156
852 10 8 mech
1025 1026 1037 1036 1146 1147 1158 1157
853 10 8 mech
1026 1027 1038 1037 1147 1148 1159 1158
854 10 8 mech
1027 1028 1039 1038 1148 1149 1160 1159
855 10 8 mech
1028 1029 1040 1039 1149 1150 1161 1160
856 10 8 mech
1029 1030 1041 1040 1150 1151 1162 1161
857 10 8 mech
1030 1031 1042 1041 1151 1152 1163 1162
858 10 8 mech
1031 1032 1043 1042 1152 1153 1164 1163
859 10 8 mech
1032 1033 1044 1043 1153 1154 1165 1164
860 10 8 mech
1033 1034 1045 1044 1154 1155 1166 1165
861 10 8 mech
1035 1036 1047 1046 1156 1157 1168 1167
862 10 8 mech
1036 1037 1048 1047 1157 1158 1169 1168
863 10 8 mech
1037 1038 1049 1048 1158 1159 1170 1169
864 10 8 mech
1038 1039 1050 1049 1159 1160 1171 1170
865 10 8 mech
1039 1040 1051 1050 1160 1161 1172 1171
866 10 8 mech
1040 1041 1052 1051 1161 1162 1173 1172
867 10 8 mech
1041 1042 1053 1052 1162 1163 1174 1173
868 10 8 mech
1042 1043 1054 1053 1163 1164 1175 1174
869 10 8 mech
1043 1044 1055 1054 1164 1165 1176 1175
870 10 8 mech
1044 1045 1056 1055 1165 1166 1177 1176
871 10 8 mech
1046 1047 1058 1057 1167 1168 1179 1178
872 10 8 mech
1047 1048 1059 1058 1168 1169 1180 1179
873 10 8 mech
1048 1049 1060 1059 1169 1170 1181 1180
874 10 8 mech
1049 1050 1061 1060 1170 1171 1182 1181
875 10 8 mech
1050 1051 1062 1061 1171 1172 1183 1182
876 10 8 mech
1051 1052 1063 1062 1172 1173 1184 1183
877 10 8 mech
1052 1053 1064 1063 1173 1174 1185 1184
878 10 8 mech
1053 1054 1065 1064 1174 1175 1186 1185
879 10 8 mech
1054 1055 1066 1065 1175 1176 1187 1186
880 10 8 mech
1055 1056 1067 1066 1176 1177 1188 1187
881 10 8 mech
1057 1058 1069 1068 1178 1179 1190 1189
882 10 8 mech
1058 1059 1070 1069 1179 1180 1191 1190
883 10 8 mech
1059 1060 1071 1070 1180 1181 1192 1191
884 10 8 mech
1060 1061 1072 1071 1181 1182 1193 1192
885 10 8 mech
1061 1062 1073 1072 1182 1183 1194 1193
886 10 8 mech
1062 1063 1074 1073 1183 1184 1195 1194
887 10 8 mech
1063 1064 1075 1074 1184 1185 1196 1195
888 10 8 mech
1064 1065 1076 1075 1185 1186 1197 1196
889 10 8 mech
1065 1066 1077 1076 1186 1187 1198 1197
890 10 8 mech
1066 1067 1078 1077 1187 1188 1199 1198
891 10 8 mech
1068 1069 1080 1079 1189 1190 1201 1200
892 10 8 mech
1069 1070 1081 1080 1190 1191 1202 1201
893 10 8 mech
1070 1071 1082 1081 1191 1192 1203 1202
894 10 8 mech
1071 1072 1083 1082 1192 1193 1204 1203
895 10 8 mech
1072 1073 1084 1083 1193 1194 1205 1204
896 10 8 mech
1073 1074 1085 1084 1194 1195 1206 1205
897 10 8 mech
1074 1075 1086 1085 1195 1196 1207 1206
898 10 8 mech
1075 1076 1087 1086 1196 1197 1208 1207
899 10 8 mech
1076 1077 1088 1087 1197 1198 1209 1208
900 10 8 mech
1077 1078 1089 1088 1198 1199 1210 1209
901 10 8 mech
1090 1091 1102 1101 1211 1212 1223 1222
902 10 8 mech
1091 1092 1103 1102 1212 1213 1224 1223
903 10 8 mech
1092 1093 1104 1103 1213 1214 1225 1224
904 10 8 mech
1093 1094 1105 1104 1214 1215 1226 1225
905 10 8 mech
1094 1095 1106 1105 1215 1216 1227 1226
906 10 8 mech
1095 1096 1107 1106 1216 1217 1228 1227
907 10 8 mech
1096 1097 1108 1107 1217 1218 1229 1228
908 10 8 mech
1097 1098 1109 1108 1218 1219 1230 1229
909 10 8 mech
1098 1099 1110 1109 1219 1220 1231 1230
910 10 8 mech
1099 1100 1111 1110 1220 1221 1232 1231
911 10 8 mech
1101 1102 1113 1112 1222 1223 1234 1233
912 10 8 mech
1102 1103 1114 1113 1223 1224 1235 1234
913 10 8 mech
1103 1104 1115 1114 1224 1225 1236 1235
914 10 8 mech
1104 1105 1116 1115 1225 1226 1237 1236
915 10 8 mech
1105 1106 1117 1116 1226 1227 1238 1237
916 10 8 mech
1106 1107 1118 1117 1227 1228 1239 1238
917 10 8 mech
1107 1108 1119 1118 1228 1229 1240 1239
918 10 8 mech
1108 1109 1120 1119 1229 1230 1241 1240
919 10 8 mech
1109 1110 1121 1120 1230 1231 1242 1241
920 10 8 mech
1110 1111 1122 1121 1231 1232 1243 1242
921 10 8 mech
1112 1113 1124 1123 1233 1234 1245 1244
922 10 8 mech
1113 1114 1125 1124 1234 1235 1246 1245
923 10 8 mech
1114 1115 1126 1125 1235 1236 1247 1246
924 10 8 mech
1115 1116 1127 1126 1236 1237 1248 1247
925 10 8 mech
1116 1117 1128 1127 1237 1238 1249 1248
926 10 8 mech
1117 1118 1129 1128 1238 1239 1250 1249
927 10 8 mech
1118 1119 1130 1129 1239 1240 1251 1250
928 10 8 mech
1119 1120 1131 1130 1240 1241 1252 1251
929 10 8 mech
1120 1121 1132 1131 1241 1242 1253 1252
930 10 8 mech
1121 1122 1133 1132 1242 1243 1254 1253
931 10 8 mech
1123 1124 1135 1134 1244 1245 1256 1255
932 10 8 mech
1124 1125 1136 1135 1245 1246 1257 1256
933 10 8 mech
1125 1126 1137 1136 1246 1247 1258 1257
934 10 8 mech
1126 1127 1138 1137 1247 1248 1259 1258
935 10 8 mech
1127 1128 1139 1138 1248 1249 1260 1259
936 10 8 mech
1128 1129 1140 1139 1249 1250 1261 1260
937 10 8 mech
1129 1130 1141 1140 1250 1251 1262 1261
938 10 8 mech
1130 1131 1142 1141 1251 1252 1263 1262
939 10 8 mech
1131 1132 1143 1142 1252 1253 1264 1263
940 10 8 mech
1132 1133 1144 1143 1253 1254 1265 1264
941 10 8 mech
1134 1135 1146 1145 1255 1256 1267 1266
942 10 8 mech
1135 1136 1147 1146 1256 1257 1268 1267
943 10 8 mech
1136 1137 1148 1147 1257 1258 1269 1268
944 10 8 mech
1137 1138 1149 1148 1258 1259 1270 1269
945 10 8 mech
1138 1139 1150 1149 1259 1260 1271 1270
946 10 8 mech
1139 1140 1151 1150 1260 1261 1272 1271
947 10 8 mech
1140 1141 1152 1151 1261 1262 1273 1272
948 10 8 mech
1141 1142 1153 1152 1262 1263 1274 1273
949 10 8 mech
1142 1143 1154 1153 1263 1264 1275 1274
950 10 8 mech
1143 1144 1155 1154 1264 1265 1276 1275
951 10 8 mech
1145 1146 1157 1156 1266 1267 1278 1277
952 10 8 mech
1146 1147 1158 1157 1267 1268 1279 1278
953 10 8 mech
1147 1148 1159 1158 1268 1269 1280 1279
954 10 8 mech
1148 1149 1160 1159 1269 1270 1281 1280
955 10 8 mech
1149 1150 1161 1160 1270 1271 1282 1281
956 10 8 mech
1150 1151 1162 1161 1271 1272 1283 1282
957 10 8 mech
1151 1152 1163 1162 1272 1273 1284 1283
958 10 8 mech
1152 1153 1164 1163 1273 1274 1285 1284
959 10 8 mech
1153 1154 1165 1164 1274 1275 1286 1285
960 10 8 mech
1154 1155 1166 1165 1275 1276 1287 1286
961 10 8 mech
1156 1157 1168 1167 1277 1278 1289 1288
962 10 8 mech
1157 1158 1169 1168 1278 1279 1290 1289
963 10 8 mech
1158 1159 1170 1169 1279 1280 1291 1290
964 10 8 mech
1159 1160 1171 1170 1280 1281 1292 1291
965 10 8 mech
1160 1161 1172 1171 1281 1282 1293 1292
966 10 8 mech
1161 1162 1173 1172 1282 1283 1294 1293
967 10 8 mech
1162 1163 1174 1173 1283 1284 1295 1294
968 10 8 mech
1163 1164 1175 1174 1284 1285 1296 1295
969 10 8 mech
1164 1165 1176 1175 1285 1286 1297 1296
970 10 8 mech
1165 1166 1177 1176 1286 1287 1298 1297
971 10 8 mech
1167 1168 1179 1178 1288 1289 1300 1299
972 10 8 mech
1168 1169 1180 1179 1289 1290 1301 1300
973 10 8 mech
1169 1170 1181 1180 1290 1291 1302 1301
974 10 8 mech
1170 1171 1182 1181 1291 1292 1303 1302
975 10 8 mech
1171 1172 1183 1182 1292 1293 1304 1303
976 10 8 mech
1172 1173 1184 1183 1293 1294 1305 1304
977 10 8 mech
1173 1174 1185 1184 1294 1295 1306 1305
978 10 8 mech
1174 1175 1186 1185 1295 1296 1307 1306
979 10 8 mech
1175 1176 1187 1186 1296 1297 1308 1307
980 10 8 mech
1176 1177 1188 1187 1297 1298 1309 1308
981 10 8 mech
1178 1179 1190 1189 1299 1300 1311 1310
982 10 8 mech
1179 1180 1191 1190 1300 1301 1312 1311
983 10 8 mech
1180 1181 1192 1191 1301 1302 1313 1312
984 10 8 mech
1181 1182 1193 1192 1302 1303 1314 1313
985 10 8 mech
1182 1183 1194 1193 1303 1304 1315 1314
986 10 8 mech
1183 1184 1195 1194 1304 1305 1316 1315
987 10 8 mech
1184 1185 1196 1195 1305 1306 1317 1316
988 10 8 mech
1185 1186 1197 1196 1306 1307 1318 1317
989 10 8 mech
1186 1187 1198 1197 1307 1308 1319 1318
990 10 8 mech
1187 1188 1199 1198 1308 1309 1320 1319
991 10 8 mech
1189 1190 1201 1200 1310 1311 1322 1321
992 10 8 mech
1190 1191 1202 1201 1311 1312 1323 1322
993 10 8 mech
1191 1192 1203 1202 1312 1313 1324 1323
994 10 8 mech
1192 1193 1204 1203 1313 1314 1325 1324
995 10 8 mech
1193 1194 1205 1204 1314 1315 1326 1325
996 10 8 mech
1194 1195 1206 1205 1315 1316 1327 1326
997 10 8 mech
1195 1196 1207 1206 1316 1317 1328 1327
998 10 8 mech
1196 1197 1208 1207 1317 1318 1329 1328
999 10 8 mech
1197 1198 1209 1208 1318 1319 1330 1329
1000 10 8 mech
1198 1199 1210 1209 1319 1320 1331 1330

[Node BC]
#NodeNr Level
1 left
12 left
23 left
34 left
45 left
56 left
67 left
78 left
89 left
100 left
111 left
122 left
133 left
144 left
155 left
166 left
177 left
188 left
199 left
210 left
221 left
232 left
243 left
254 left
265 left
276 left
287 left
298 left
309 left
320 left
331 left
342 left
353 left
364 left
375 left
386 left
397 left
408 left
419 left
430 left
441 left
452 left
463 left
474 left
485 left
496 left
507 left
518 left
529 left
540 left
551 left
562 left
573 left
584 left
595 left
606 left
617 left
628 left
639 left
650 left
661 left
672 left
683 left
694 left
705 left
716 left
727 left
738 left
749 left
760 left
771 left
782 left
793 left
804 left
815 left
826 left
837 left
848 left
859 left
870 left
881 left
892 left
903 left
914 left
925 left
936 left
947 left
958 left
969 left
980 left
991 left
1002 left
1013 left
1024 left
1035 left
1046 left
1057 left
1068 left
1079 left
1090 left
1101 left
1112 left
1123 left
1134 left
1145 left
1156 left
1167 left
1178 left
1189 left
1200 left
1211 left
1222 left
1233 left
1244 left
1255 left
1266 left
1277 left
1288 left
1299 left
1310 left
1321 left
11 right
22 right
33 right
44 right
55 right
66 right
77 right
88 right
99 right
110 right
121 right
132 right
143 right
154 right
165 right
176 right
187 right
198 right
209 right
220 right
231 right
242 right
253 right
264 right
275 right
286 right
297 right
308 right
319 right
330 right
341 right
352 right
363 right
374 right
385 right
396 right
407 right
418 right
429 right
440 right
451 right
462 right
473 right
484 right
495 right
506 right
517 right
528 right
539 right
550 right
561 right
572 right
583 right
594 right
605 right
616 right
627 right
638 right
649 right
660 right
671 right
682 right
693 right
704 right
715 right
726 right
737 right
748 right
759 right
770 right
781 right
792 right
803 right
814 right
825 right
836 right
847 right
858 right
869 right
880 right
891 right
902 right
913 right
924 right
935 right
946 right
957 right
968 right
979 right
990 right
1001 right
1012 right
1023 right
1034 right
1045 right
1056 right
1067 right
1078 right
1089 right
1100 right
1111 right
1122 right
1133 right
1144 right
1155 right
1166 right
1177 right
1188 right
1199 right
1210 right
1221 right
1232 right
1243 right
1254 right
1265 right
1276 right
1287 right
1298 right
1309 right
1320 right
1331 right
1 bottom
2 bottom
3 bottom
4 bottom
5 bottom
6 bottom
7 bottom
8 bottom
9 bottom
10 bottom
11 bottom
122 bottom
123 bottom
124 bottom
125 bottom
126 bottom
127 bottom
128 bottom
129 bottom
130 bottom
131 bottom
132 bottom
243 bottom
244 bottom
245 bottom
246 bottom
247 bottom
248 bottom
249 bottom
250 bottom
251 bottom
252 bottom
253 bottom
364 bottom
365 bottom
366 bottom
367 bottom
368 bottom
369 bottom
370 bottom
371 bottom
372 bottom
373 bottom
374 bottom
485 bottom
486 bottom
487 bottom
488 bottom
489 bottom
490 bottom
491 bottom
492 bottom
493 bottom
494 bottom
495 bottom
606 bottom
607 bottom
608 bottom
609 bottom
610 bottom
611 bottom
612 bottom
613 bottom
614 bottom
615 bottom
616 bottom
727 bottom
728 bottom
729 bottom
730 bottom
731 bottom
732 bottom
733 bottom
734 bottom
735 bottom
736 bottom
737 bottom
848 bottom
849 bottom
850 bottom
851 bottom
852 bottom
853 bottom
854 bottom
855 bottom
856 bottom
857 bottom
858 bottom
969 bottom
970 bottom
971 bottom
972 bottom
973 bottom
974 bottom
975 bottom
976 bottom
977 bottom
978 bottom
979 bottom
1090 bottom
1091 bottom
1092 bottom
1093 bottom
1094 bottom
1095 bottom
1096 bottom
1097 bottom
1098 bottom
1099 bottom
1100 bottom
1211 bottom
1212 bottom
1213 bottom
1214 bottom
1215 bottom
1216 bottom
1217 bottom
1218 bottom
1219 bottom
1220 bottom
1221 bottom
111 top
112 top
113 top
114 top
115 top
116 top
117 top
118 top
119 top
120 top
121 top
232 top
233 top
234 top
235 top
236 top
237 top
238 top
239 top
240 top
241 top
242 top
353 top
354 top
355 top
356 top
357 top
358 top
359 top
360 top
361 top
362 top
363 top
474 top
475 top
476 top
477 top
478 top
479 top
480 top
481 top
482 top
483 top
484 top
595 top
596 top
597 top
598 top
599 top
600 top
601 top
602 top
603 top
604 top
605 top
716 top
717 top
718 top
719 top
720 top
721 top
722 top
723 top
724 top
725 top
726 top
837 top
838 top
839 top
840 top
841 top
842 top
843 top
844 top
845 top
846 top
847 top
958 top
959 top
960 top
961 top
962 top
963 top
964 top
965 top
966 top
967 top
968 top
1079 top
1080 top
1081 top
1082 top
1083 top
1084 top
1085 top
1086 top
1087 top
1088 top
1089 top
1200 top
1201 top
1202 top
1203 top
1204 top
1205 top
1206 top
1207 top
1208 top
1209 top
1210 top
1321 top
1322 top
1323 top
1324 top
1325 top
1326 top
1327 top
1328 top
1329 top
1330 top
1331 top
1 back
2 back
3 back
4 back
5 back
6 back
7 back
8 back
9 back
10 back
11 back
12 back
13 back
14 back
15 back
16 back
17 back
18 back
19 back
20 back
21 back
22 back
23 back
24 back
25 back
26 back
27 back
28 back
29 back
30 back
31 back
32 back
33 back
34 back
35 back
36 back
37 back
38 back
39 back
40 back
41 back
42 back
43 back
44 back
45 back
46 back
47 back
48 back
49 back
50 back
51 back
52 back
53 back
54 back
55 back
56 back
57 back
58 back
59 back
60 back
61 back
62 back
63 back
64 back
65 back
66 back
67 back
68 back
69 back
70 back
71 back
72 back
73 back
74 back
75 back
76 back
77 back
78 back
79 back
80 back
81 back
82 back
83 back
84 back
85 back
86 back
87 back
88 back
89 back
90 back
91 back
92 back
93 back
94 back
95 back
96 back
97 back
98 back
99 back
100 back
101 back
102 back
103 back
104 back
105 back
106 back
107 back
108 back
109 back
110 back
111 back
112 back
113 back
114 back
115 back
116 back
117 back
118 back
119 back
120 back
121 back
1211 front
1212 front
1213 front
1214 front
1215 front
1216 front
1217 front
1218 front
1219 front
1220 front
1221 front
1222 front
1223 front
1224 front
1225 front
1226 front
1227 front
1228 front
1229 front
1230 front
1231 front
1232 front
1233 front
1234 front
1235 front
1236 front
1237 front
1238 front
1239 front
1240 front
1241 front
1242 front
1243 front
1244 front
1245 front
1246 front
1247 front
1248 front
1249 front
1250 front
1251 front
1252 front
1253 front
1254 front
1255 front
1256 front
1257 front
1258 front
1259 front
1260 front
1261 front
1262 front
1263 front
1264 front
1265 front
1266 front
1267 front
1268 front
1269 front
1270 front
1271 front
1272 front
1273 front
1274 front
1275 front
1276 front
1277 front
1278 front
1279 front
1280 front
1281 front
1282 front
1283 front
1284 front
1285 front
1286 front
1287 front
1288 front
1289 front
1290 front
1291 front
1292 front
1293 front
1294 front
1295 front
1296 front
1297 front
1298 front
1299 front
1300 front
1301 front
1302 front
1303 front
1304 front
1305 front
1306 front
1307 front
1308 front
1309 front
1310 front
1311 front
1312 front
1313 front
1314 front
1315 front
1316 front
1317 front
1318 front
1319 front
1320 front
1321 front
1322 front
1323 front
1324 front
1325 front
1326 front
1327 front
1328 front
1329 front
1330 front
1331 front
1 left_bottom_back
11 right_bottom_back
111 left_top_back
121 right_top_back
1211 left_bottom_front
1221 right_bottom_front
1321 left_top_front
1331 right_top_front
1 bottom_back
2 bottom_back
3 bottom_back
4 bottom_back
5 bottom_back
6 bottom_back
7 bottom_back
8 bottom_back
9 bottom_back
10 bottom_back
11 bottom_back
1211 bottom_front
1212 bottom_front
1213 bottom_front
1214 bottom_front
1215 bottom_front
1216 bottom_front
1217 bottom_front
1218 bottom_front
1219 bottom_front
1220 bottom_front
1221 bottom_front
1 bottom_left
122 bottom_left
243 bottom_left
364 bottom_left
485 bottom_left
606 bottom_left
727 bottom_left
848 bottom_left
969 bottom_left
1090 bottom_left
1211 bottom_left
11 bottom_right
132 bottom_right
253 bottom_right
374 bottom_right
495 bottom_right
616 bottom_right
737 bottom_right
858 bottom_right
979 bottom_right
1100 bottom_right
1221 bottom_right
111 top_back
112 top_back
113 top_back
114 top_back
115 top_back
116 top_back
117 top_back
118 top_back
119 top_back
120 top_back
121 top_back
1321 top_front
1322 top_front
1323 top_front
1324 top_front
1325 top_front
1326 top_front
1327 top_front
1328 top_front
1329 top_front
1330 top_front
1331 top_front
111 top_left
232 top_left
353 top_left
474 top_left
595 top_left
716 top_left
837 top_left
958 top_left
1079 top_left
1200 top_left
1321 top_left
121 top_right
242 top_right
363 top_right
484 top_right
605 top_right
726 top_right
847 top_right
968 top_right
1089 top_right
1210 top_right
1331 top_right
1 back_left
12 back_left
23 back_left
34 back_left
45 back_left
56 back_left
67 back_left
78 back_left
89 back_left
100 back_left
111 back_left
11 back_right
22 back_right
33 back_right
44 back_right
55 back_right
66 back_right
77 back_right
88 back_right
99 back_right
110 back_right
121 back_right
1211 front_left
1222 front_left
1233 front_left
1244 front_left
1255 front_left
1266 front_left
1277 front_left
1288 front_left
1299 front_left
1310 front_left
1321 front_left
1221 front_right
1232 front_right
1243 front_right
1254 front_right
1265 front_right
1276 front_right
1287 front_right
1298 front_right
1309 front_right
1320 front_right
1331 front_right

[Save Nodes]
#NodeNr Level

[Save Elements]
#ElemNr Level

 
