
0                         9.229637229489973E-5
8.33E-4                   9.198976478775946E-5
0.001667                  9.167147485246078E-5
0.0025                    9.135203155627794E-5
0.003333                  9.103247124183182E-5
0.004167                  9.071248145106618E-5
0.005                     9.039287274397993E-5
0.005833                  9.007326634192888E-5
0.006667                  8.975328835366616E-5
0.0075                    8.943371387103848E-5
0.008333                  8.91141673522391E-5
0.009167                  8.879427324489065E-5
0.01                      8.847480664229696E-5
0.010833                  8.815539182508411E-5
0.011667                  8.783565332209281E-5
0.0125                    8.751636569364845E-5
0.013333                  8.719715323747346E-5
0.014167                  8.687764062092077E-5
0.015                     8.655860171172863E-5
0.015833                  8.623966090839576E-5
0.016667                  8.592044310067545E-5
0.0175                    8.560172129946591E-5
0.018333                  8.528312008827493E-5
0.019167                  8.496426466109447E-5
0.02                      8.464592701132079E-5
0.020833                  8.432773198995E-5
0.021667                  8.40093051755327E-5
0.0225                    8.369141738598779E-5
0.023333                  8.337369382116694E-5
0.024167                  8.305576052279372E-5
0.025                     8.273838697889484E-5
0.025833                  8.242119881717957E-5
0.026667                  8.210382261966024E-5
0.0275                    8.178702639364459E-5
0.028333                  8.147043627241396E-5
0.029167                  8.115367945392832E-5
0.03                      8.083752231594132E-5
0.030833                  8.052159157425368E-5
0.031667                  8.020551511637021E-5
0.0325                    7.989005754585164E-5
0.033333                  7.957484623534633E-5
0.034167                  7.9259509834551E-5
0.035                     7.894481103107259E-5
0.035833                  7.863037792717748E-5
0.036667                  7.831584000584266E-5
0.0375                    7.800195789946587E-5
0.038333                  7.768836051231758E-5
0.039167                  7.737467822973048E-5
0.04                      7.70616694932743E-5
0.040833                  7.67489640789009E-5
0.041667                  7.643619334240582E-5
0.0425                    7.612411340159385E-5
0.043333                  7.581235497288957E-5
0.044167                  7.550055044911305E-5
0.045                     7.518945349437851E-5
0.045833                  7.487869583269083E-5
0.046667                  7.456791095856424E-5
0.0475                    7.425784995580873E-5
0.048333                  7.394814562167768E-5
0.049167                  7.363843261600834E-5
0.05                      7.332945931807698E-5
0.050833                  7.302085966263165E-5
0.051667                  7.271226953692432E-5
0.0525                    7.240443449490688E-5
0.053333                  7.209698967126251E-5
0.054167                  7.178957224136542E-5
0.055                     7.148292481551724E-5
0.055833                  7.117668378983305E-5
0.056667                  7.087048768717435E-5
0.0575                    7.056507605854053E-5
0.058333                  7.026008662146893E-5
0.059167                  6.995515930407543E-5
0.06                      6.965103048564824E-5
0.060833                  6.934733926364441E-5
0.061667                  6.904372702767122E-5
0.0625                    6.87409268757969E-5
0.063333                  6.84385793422267E-5
0.064167                  6.813632733332195E-5
0.065                     6.783490055876698E-5
0.065833                  6.75339410455839E-5
0.066667                  6.723309327035513E-5
0.0675                    6.693308344995202E-5
0.068333                  6.663355515864457E-5
0.069167                  6.633415449556058E-5
0.07                      6.603560408359153E-5
0.070833                  6.57375490966586E-5
0.071667                  6.54396373078291E-5
0.0725                    6.514258764694968E-5
0.073333                  6.484604693926928E-5
0.074167                  6.454966468162881E-5
0.075                     6.425415601430534E-5
0.075833                  6.395916946473252E-5
0.076667                  6.366435630146631E-5
0.0775                    6.3370427781672E-5
0.078333                  6.307703418382016E-5
0.079167                  6.278382859540716E-5
0.08                      6.249151829969305E-5
0.080833                  6.21997553736559E-5
0.081667                  6.190819476959595E-5
0.0825                    6.161753970830802E-5
0.083333                  6.132744411172432E-5
0.084167                  6.103756484151565E-5
0.085                     6.0748600970151446E-5
0.085833                  6.0460208309861E-5
0.086667                  6.017204567474611E-5
0.0875                    5.988480790539537E-5
0.088333                  5.959815274817544E-5
0.089167                  5.931174101178853E-5
0.09                      5.9026263224286586E-5
0.090833                  5.874137910859069E-5
0.091667                  5.845675150890061E-5
0.0925                    5.8173066562091444E-5
0.093333                  5.788998600901635E-5
0.094167                  5.760717476906975E-5
0.095                     5.7325314511963576E-5
0.095833                  5.7044069036782284E-5
0.096667                  5.676310537625393E-5
0.0975                    5.648310065928347E-5
0.098333                  5.6203720782258407E-5
0.099167                  5.592463492841395E-5
0.1                       5.564651561476357E-5
0.100833                  5.536903087255451E-5
0.101667                  5.509185207175197E-5
0.1025                    5.481564704830735E-5
0.103333                  5.4540086005062416E-5
0.104167                  5.4264842533472617E-5
0.105                     5.3990579722039514E-5
0.105833                  5.371696998050125E-5
0.106667                  5.344368915558254E-5
0.1075                    5.317139552401908E-5
0.108333                  5.289976373674311E-5
0.109167                  5.2628471928224925E-5
0.11                      5.2358173501419445E-5
0.110833                  5.208854538149167E-5
0.111667                  5.181926802233535E-5
0.1125                    5.155098989323707E-5
0.113333                  5.128339022571077E-5
0.114167                  5.101615182317449E-5
0.115                     5.0749918163848816E-5
0.115833                  5.048437081640116E-5
0.116667                  5.021919496315742E-5
0.1175                    4.9955029035864606E-5
0.118333                  4.969155696988742E-5
0.119167                  4.9428466354700654E-5
0.12                      4.91663905223897E-5
0.120833                  4.8905015803842935E-5
0.121667                  4.864403222271122E-5
0.1225                    4.838406796036423E-5
0.123333                  4.812481177075978E-5
0.124167                  4.786595613766665E-5
0.125                     4.760812404277772E-5
0.125833                  4.7351006689801824E-5
0.126667                  4.709429904750745E-5
0.1275                    4.6838618850971384E-5
0.128333                  4.658365977920863E-5
0.129167                  4.6329119310034864E-5
0.13                      4.607560988702366E-5
0.130833                  4.582282768877608E-5
0.131667                  4.5570472725123395E-5
0.1325                    4.53191521055891E-5
0.133333                  4.5068564531727886E-5
0.134167                  4.4818412567206184E-5
0.135                     4.456929794662991E-5
0.135833                  4.432092191678499E-5
0.136667                  4.4072989616350815E-5
0.1375                    4.3826097366222734E-5
0.138333                  4.3579948979901595E-5
0.139167                  4.333425219083446E-5
0.14                      4.308959786917414E-5
0.140833                  4.2845692415733054E-5
0.141667                  4.260224617769766E-5
0.1425                    4.235984453990975E-5
0.143333                  4.211819650921189E-5
0.144167                  4.187701506497968E-5
0.145                     4.1636880073576744E-5
0.145833                  4.139750316665881E-5
0.146667                  4.115859997259421E-5
0.1475                    4.092074480800723E-5
0.148333                  4.068365194715026E-5
0.149167                  4.04470396832578E-5
0.15                      4.021147675427438E-5
0.150833                  3.997668009322654E-5
0.151667                  3.974237067368679E-5
0.1525                    3.950911162723526E-5
0.153333                  3.927662256160785E-5
0.154167                  3.904462714481551E-5
0.155                     3.8813682876494015E-5
0.155833                  3.85835120538022E-5
0.156667                  3.835384105262598E-5
0.1575                    3.812522171678545E-5
0.158333                  3.789737904671287E-5
0.159167                  3.767004213855889E-5
0.16                      3.744375715839462E-5
0.160833                  3.7218251822572894E-5
0.161667                  3.69932579593807E-5
0.1625                    3.6769316036696894E-5
0.163333                  3.654615649890874E-5
0.164167                  3.632351391718899E-5
0.165                     3.6101923042453776E-5
0.165833                  3.588111705848976E-5
0.166667                  3.566083328915925E-5
0.1675                    3.544160075146462E-5
0.168333                  3.522315537892345E-5
0.169167                  3.500523725713278E-5
0.17                      3.478836965402747E-5
0.170833                  3.457229126206768E-5
0.171667                  3.43567449369576E-5
0.1725                    3.414224818387688E-5
0.173333                  3.392854246308846E-5
0.174167                  3.3715373407690326E-5
0.175                     3.350325274784958E-5
0.175833                  3.329192471951214E-5
0.176667                  3.308113773992998E-5
0.1775                    3.287139775398968E-5
0.178333                  3.2662451780103935E-5
0.179167                  3.2454051025593965E-5
0.18                      3.2246695640997005E-5
0.180833                  3.2040135433519026E-5
0.181667                  3.1834124405519E-5
0.1825                    3.162915690601577E-5
0.183333                  3.142498553633256E-5
0.184167                  3.122136709823502E-5
0.185                     3.101879013325996E-5
0.185833                  3.0817010041510016E-5
0.186667                  3.061578642766765E-5
0.1875                    3.0415602021566075E-5
0.188333                  3.021621502601212E-5
0.189167                  3.0017387851377626E-5
0.19                      2.981959741281825E-5
0.190833                  2.9622604718966767E-5
0.191667                  2.9426174987960722E-5
0.1925                    2.923077931889804E-5
0.193333                  2.9036181528681607E-5
0.194167                  2.884214964446335E-5
0.195                     2.8649148949406943E-5
0.195833                  2.845694607014056E-5
0.196667                  2.82653118435644E-5
0.1975                    2.8074705738372496E-5
0.198333                  2.7884897191934027E-5
0.199167                  2.7695659850730484E-5
0.2                       2.750744737174719E-5
0.200833                  2.7320032003307298E-5
0.201667                  2.71331902007109E-5
0.2025                    2.6947369813461292E-5
0.203333                  2.676234590038726E-5
0.204167                  2.6577897724156483E-5
0.205                     2.6394467332327186E-5
0.205833                  2.621183259289913E-5
0.206667                  2.6029775573790772E-5
0.2075                    2.5848732527606716E-5
0.208333                  2.5668484129775727E-5
0.209167                  2.548881525057392E-5
0.21                      2.5310156355711076E-5
0.210833                  2.5132290925630814E-5
0.211667                  2.4955006629458475E-5
0.2125                    2.4778728155542453E-5
0.213333                  2.4603241786069385E-5
0.214167                  2.4428337984961786E-5
0.215                     2.4254435673904073E-5
0.215833                  2.408132393309078E-5
0.216667                  2.390879601641244E-5
0.2175                    2.373726509096386E-5
0.218333                  2.3566523030357083E-5
0.219167                  2.339636587323385E-5
0.22                      2.3227201045142275E-5
0.220833                  2.3058823208224266E-5
0.221667                  2.2891031179693465E-5
0.2225                    2.2724226658115936E-5
0.223333                  2.2558207088299813E-5
0.224167                  2.239277405955367E-5
0.225                     2.2228323559021696E-5
0.225833                  2.206465580789505E-5
0.226667                  2.190157516038271E-5
0.2275                    2.1739471908958545E-5
0.228333                  2.1578149044322757E-5
0.229167                  2.1417413677831172E-5
0.23                      2.1257650425132034E-5
0.230833                  2.109866503897665E-5
0.231667                  2.0940267379462673E-5
0.2325                    2.078283640458181E-5
0.233333                  2.0626180620910293E-5
0.234167                  2.0470112628455884E-5
0.235                     2.0315005747633995E-5
0.235833                  2.0160671230374655E-5
0.236667                  2.000692440702614E-5
0.2375                    1.9854132981618833E-5
0.238333                  1.9702110942199196E-5
0.239167                  1.955067633950752E-5
0.24                      1.940019128356774E-5
0.240833                  1.9250472488671625E-5
0.241667                  1.9101340715489888E-5
0.2425                    1.8953152503335965E-5
0.243333                  1.8805727282479578E-5
0.244167                  1.865888851240891E-5
0.245                     1.8512987186133913E-5
0.245833                  1.83678454390938E-5
0.246667                  1.8223289417973065E-5
0.2475                    1.8079664594961394E-5
0.248333                  1.793679579912612E-5
0.249167                  1.77945118524151E-5
0.25                      1.7653152732558716E-5
0.250833                  1.7512545950426063E-5
0.251667                  1.7372522990634932E-5
0.2525                    1.7233418363680507E-5
0.253333                  1.709506225003454E-5
0.254167                  1.6957288783614013E-5
0.255                     1.682042703635883E-5
0.255833                  1.6684309845347728E-5
0.256667                  1.6548773980295715E-5
0.2575                    1.6414143103629457E-5
0.258333                  1.6280252695866883E-5
0.259167                  1.6146942148427096E-5
0.26                      1.601452974456999E-5
0.260833                  1.5882853594057425E-5
0.261667                  1.5751755695834233E-5
0.2625                    1.5621548984994242E-5
0.263333                  1.549207418645882E-5
0.264167                  1.5363175891268484E-5
0.265                     1.5235161718701655E-5
0.265833                  1.5107874993962132E-5
0.266667                  1.498116288483601E-5
0.2675                    1.4855327727502115E-5
0.268333                  1.4730215432365192E-5
0.269167                  1.4605675728134087E-5
0.27                      1.4482005701659295E-5
0.270833                  1.435905383259322E-5
0.271667                  1.4236672394510061E-5
0.2725                    1.4115153259525069E-5
0.273333                  1.3994347460580305E-5
0.274167                  1.3874109798971472E-5
0.275                     1.375472696780194E-5
0.275833                  1.3636052536692712E-5
0.276667                  1.3517943817618514E-5
0.2775                    1.3400682360714643E-5
0.278333                  1.3284124255456937E-5
0.279167                  1.3168129306915336E-5
0.28                      1.3052973959314127E-5
0.280833                  1.2938516804521804E-5
0.281667                  1.2824620122776845E-5
0.2825                    1.2711555290484781E-5
0.283333                  1.2599183383872011E-5
0.284167                  1.248736914002113E-5
0.285                     1.2376378906004232E-5
0.285833                  1.2266076224444832E-5
0.286667                  1.2156328270324164E-5
0.2875                    1.2047396400934018E-5
0.288333                  1.193914660648923E-5
0.289167                  1.1831448480952747E-5
0.29                      1.1724558431798479E-5
0.290833                  1.1618344878055885E-5
0.291667                  1.1512679812866032E-5
0.2925                    1.1407814734986295E-5
0.293333                  1.130362047274044E-5
0.294167                  1.1199971398761687E-5
0.295                     1.1097114144450355E-5
0.295833                  1.099492192783329E-5
0.296667                  1.089327148070168E-5
0.2975                    1.0792404609452014E-5
0.298333                  1.0692196901646028E-5
0.299167                  1.059252742767013E-5
0.3                       1.0493633211905067E-5
0.300833                  1.0395392191018488E-5
0.301667                  1.0297685752911141E-5
0.3025                    1.0200746183666453E-5
0.303333                  1.0104453748207819E-5
0.304167                  1.0008692130829149E-5
0.305                     9.913688923454603E-6
0.305833                  9.819326698188449E-6
0.306667                  9.725491413961699E-6
0.3075                    9.63240601364404E-6
0.308333                  9.539955354911916E-6
0.309167                  9.448027649525395E-6
0.31                      9.356841236749036E-6
0.310833                  9.266283238132046E-6
0.311667                  9.176244095823027E-6
0.3125                    9.086937591775198E-6
0.313333                  8.998253089292243E-6
0.314167                  8.910083238359103E-6
0.315                     8.82263731038857E-6
0.315833                  8.73580688787011E-6
0.316667                  8.64948680585498E-6
0.3175                    8.563881872585769E-6
0.318333                  8.47888586705374E-6
0.319167                  8.394395786034188E-6
0.32                      8.31061202263828E-6
0.320833                  8.22743052927639E-6
0.321667                  8.14475044102229E-6
0.3225                    8.062767784356458E-6
0.323333                  7.981380661751447E-6
0.324167                  7.900490322791076E-6
0.325                     7.820288476393692E-6
0.325833                  7.740675351491321E-6
0.326667                  7.661554288078315E-6
0.3275                    7.583112727280716E-6
0.328333                  7.505253000383286E-6
0.329167                  7.427880513580801E-6
0.33                      7.351178490220878E-6
0.330833                  7.275051339930354E-6
0.331667                  7.199406510342421E-6
0.3325                    7.124423057845328E-6
0.333333                  7.050007445773417E-6
0.334167                  6.976069138442923E-6
0.335                     6.902783076430017E-6
0.335833                  6.830057752095937E-6
0.336667                  6.757804621213724E-6
0.3375                    6.686194560321251E-6
0.338333                  6.615138065732951E-6
0.339167                  6.544548559344619E-6
0.34                      6.474592905811976E-6
0.340833                  6.405183580152166E-6
0.341667                  6.336235944748822E-6
0.3425                    6.267912905047941E-6
0.343333                  6.200128889241542E-6
0.344167                  6.13280117431168E-6
0.345                     6.066088759640879E-6
0.345833                  5.999908000813733E-6
0.346667                  5.934178063311585E-6
0.3475                    5.869054094057324E-6
0.348333                  5.804454350015451E-6
0.349167                  5.740299858840957E-6
0.35                      5.676741968976517E-6
0.350833                  5.613700812557229E-6
0.351667                  5.551099252822583E-6
0.3525                    5.489084894252232E-6
0.353333                  5.427579717662315E-6
0.354167                  5.36650839505607E-6
0.355                     5.306014841863036E-6
0.355833                  5.246022860844877E-6
0.356667                  5.1864589058568565E-6
0.3575                    5.127463258507476E-6
0.358333                  5.06896151666797E-6
0.359167                  5.010881888726998E-6
0.36                      4.953361078262308E-6
0.360833                  4.89632645105899E-6
0.361667                  4.839707942706219E-6
0.3625                    4.783638734787151E-6
0.363333                  4.728047933713943E-6
0.364167                  4.672867174580682E-6
0.365                     4.618226173538289E-6
0.365833                  4.564055750055526E-6
0.366667                  4.510289210960162E-6
0.3675                    4.457052863766758E-6
0.368333                  4.404279213307779E-6
0.369167                  4.3519032101154855E-6
0.37                      4.3000478103177796E-6
0.370833                  4.248647176158461E-6
0.371667                  4.197637873698343E-6
0.3725                    4.1471395652621956E-6
0.373333                  4.097088042399731E-6
0.374167                  4.047421458288718E-6
0.375                     3.998256239396942E-6
0.375833                  3.949529778301302E-6
0.376667                  3.901181786755665E-6
0.3775                    3.853325513602081E-6
0.378333                  3.8058999239458932E-6
0.379167                  3.7588462594191645E-6
0.38                      3.712274649893429E-6
0.380833                  3.6661256042907454E-6
0.381667                  3.6203418652450454E-6
0.3825                    3.575030502520748E-6
0.383333                  3.530133540120661E-6
0.384167                  3.4855951925728107E-6
0.385                     3.441519528803297E-6
0.385833                  3.3978500588563977E-6
0.386667                  3.3545324399755806E-6
0.3875                    3.3116677997600352E-6
0.388333                  3.269201105169136E-6
0.389167                  3.2270794267831837E-6
0.39                      3.1854010107130168E-6
0.390833                  3.1441122515251958E-6
0.391667                  3.1031616036014433E-6
0.3925                    3.0626444916813137E-6
0.393333                  3.0225087084868306E-6
0.394167                  2.9827040625423336E-6
0.395                     2.9433232176056545E-6
0.395833                  2.904315334948112E-6
0.396667                  2.8656315474273467E-6
0.3975                    2.8273618184797574E-6
0.398333                  2.7894566481808267E-6
0.399167                  2.751868463770688E-6
0.4                       2.714684589318353E-6
0.400833                  2.6778568337805483E-6
0.401667                  2.6413388887233844E-6
0.4025                    2.6052154999942897E-6
0.403333                  2.5694397554563685E-6
0.404167                  2.5339665807531217E-6
0.405                     2.4988782049717895E-6
0.405833                  2.4641289646883823E-6
0.406667                  2.4296749893154685E-6
0.4075                    2.3955960528376386E-6
0.408333                  2.361847710273552E-6
0.409167                  2.3283872643302306E-6
0.41                      2.295292095796792E-6
0.410833                  2.2625189477274706E-6
0.411667                  2.230026265541805E-6
0.4125                    2.197889098972555E-6
0.413333                  2.166065348566245E-6
0.414167                  2.1345145717801293E-6
0.415                     2.1033095496217112E-6
0.415833                  2.0724093094988398E-6
0.416667                  2.04177449008255E-6
0.4175                    2.0114756662276187E-6
0.418333                  1.9814729614393662E-6
0.419167                  1.9517280647009143E-6
0.42                      1.9223094074685974E-6
0.420833                  1.893178178480045E-6
0.421667                  1.8642970860182035E-6
0.4225                    1.8357324810928234E-6
0.423333                  1.8074465867057843E-6
0.424167                  1.779403099322888E-6
0.425                     1.7516663526616293E-6
0.425833                  1.724199572913331E-6
0.426667                  1.6969674135091793E-6
0.4275                    1.6700322542095632E-6
0.428333                  1.6433582932185582E-6
0.429167                  1.616911109642217E-6
0.43                      1.5907511927810913E-6
0.430833                  1.5648436815948793E-6
0.431667                  1.5391550494586219E-6
0.4325                    1.513743958899967E-6
0.433333                  1.4885764582681316E-6
0.434167                  1.4636198837386818E-6
0.435                     1.43893113489944E-6
0.435833                  1.4144771380531702E-6
0.436667                  1.3902260606025101E-6
0.4375                    1.3662331032006308E-6
0.438333                  1.3424660385732013E-6
0.439167                  1.3188938337144238E-6
0.44                      1.2955700544807936E-6
0.440833                  1.2724632884148949E-6
0.441667                  1.2495432703858209E-6
0.4425                    1.2268619957498331E-6
0.443333                  1.204388835176431E-6
0.444167                  1.18209425961997E-6
0.445                     1.160028758363219E-6
0.445833                  1.138162453445636E-6
0.446667                  1.116466520048274E-6
0.4475                    1.0949900059402468E-6
0.448333                  1.0737037527002875E-6
0.449167                  1.0525796078102742E-6
0.45                      1.031665242209402E-6
0.450833                  1.010932185120201E-6
0.451667                  9.903529243377804E-7
0.4525                    9.699738187808432E-7
0.453333                  9.497670533463515E-7
0.454167                  9.297057240992816E-7
0.455                     9.09834942849561E-7
0.455833                  8.901275181539855E-7
0.456667                  8.705571222395565E-7
0.4575                    8.511676848339262E-7
0.458333                  8.319326060697492E-7
0.459167                  8.128261021816463E-7
0.46                      7.938909859405099E-7
0.460833                  7.751012169198161E-7
0.461667                  7.564315231552699E-7
0.4625                    7.379236656813606E-7
0.463333                  7.195521313272671E-7
0.464167                  7.012921276737716E-7
0.465                     6.831844293293317E-7
0.465833                  6.652040181440898E-7
0.466667                  6.473265489476298E-7
0.4675                    6.295918753154634E-7
0.468333                  6.119754418384325E-7
0.469167                  5.944533182558292E-7
0.47                      5.770645025820606E-7
0.470833                  5.597848698263733E-7
0.471667                  5.425908722616748E-7
0.4725                    5.255207178847862E-7
0.473333                  5.085506797623795E-7
0.474167                  4.916575602894044E-7
0.475                     4.748788430548171E-7
0.475833                  4.5819116678550585E-7
0.476667                  4.4157165155533837E-7
0.4775                    4.2505712221671683E-7
0.478333                  4.086245507261372E-7
0.479167                  3.9225134236371624E-7
0.48                      3.7597372897150547E-7
0.480833                  3.597689832754758E-7
0.481667                  3.436147632646846E-7
0.4825                    3.2754677354588614E-7
0.483333                  3.115425551267035E-7
0.484167                  2.95579986184265E-7
0.485                     2.7969430991014574E-7
0.485833                  2.6386330308173466E-7
0.486667                  2.4806503152373693E-7
0.4875                    2.3233434287031507E-7
0.488333                  2.1664921713608155E-7
0.489167                  2.00987875235247E-7
0.49                      1.853848351357363E-7
0.490833                  1.698182475388498E-7
0.491667                  1.5426645587719732E-7
0.4925                    1.3876371438128418E-7
0.493333                  1.2328831192528204E-7
0.494167                  1.0781868231907169E-7
0.495                     9.238888471438921E-8
0.495833                  7.697733236489588E-8
0.496667                  6.156263090571595E-8
0.4975                    4.617940359257172E-8
0.498333                  3.080999270608774E-8
0.499167                  1.5451466551493467E-8
0.5                       6.335487045880766E-11
