
0                         0
2.0000000000000003E-6     3.139835288080301E-7
4.000000000000001E-6      6.882676388097334E-7
6.0E-6                    1.1100776884947322E-6
8.000000000000001E-6      1.5679426831782591E-6
1.0E-5                    2.0516355401750217E-6
1.2E-5                    2.5521081998385676E-6
1.4000000000000001E-5     3.061423038187181E-6
1.6000000000000003E-5     3.5726818692595727E-6
1.8000000000000004E-5     4.079953667490684E-6
2.0E-5                    4.578201992616524E-6
2.2E-5                    5.063212962091746E-6
2.4E-5                    5.531524488780978E-6
2.6000000000000002E-5     5.980357384687561E-6
2.8000000000000003E-5     6.407548824537498E-6
3.0000000000000008E-5     6.811488565874608E-6
3.2000000000000005E-5     7.19105823461576E-6
3.4000000000000007E-5     7.545573906369828E-6
3.600000000000001E-5      7.874732143807712E-6
3.8E-5                    8.178559588515793E-6
4.0E-5                    8.457366151582384E-6
4.2E-5                    8.711701800149429E-6
4.4E-5                    8.942316896803092E-6
4.6E-5                    9.150126014461546E-6
4.8E-5                    9.336175120847497E-6
5.0E-5                    9.501612003206787E-6
5.2000000000000004E-5     9.647659785180545E-6
5.4000000000000005E-5     9.77559337319083E-6
5.6000000000000006E-5     9.8867186589236E-6
5.800000000000001E-5      9.982354297068563E-6
6.0000000000000015E-5     1.0063815873013209E-5
6.200000000000002E-5      1.0132402273321408E-5
6.400000000000001E-5      1.0189384072214985E-5
6.600000000000002E-5      1.0235993749607562E-5
6.800000000000001E-5      1.0273417560225815E-5
7.0E-5                    1.0302788878734386E-5
7.200000000000002E-5      1.0325182852321985E-5
7.4E-5                    1.0341612199696785E-5
7.6E-5                    1.035302400369479E-5
7.800000000000001E-5      1.0360297353560212E-5
8.0E-5                    1.036424170227232E-5
8.200000000000001E-5      1.0365595813945776E-5
8.4E-5                    1.0365027186221724E-5
8.600000000000002E-5      1.0363131842608146E-5
8.8E-5                    1.0360434399854432E-5
9.000000000000002E-5      1.0357388325602618E-5
9.2E-5                    1.0354376311708053E-5
9.4E-5                    1.0351710698737097E-5
9.6E-5                    1.0349633897213082E-5
9.8E-5                    1.0348318761185606E-5
1.0E-4                    1.0347868879643562E-5
