
0                         0
2.0000000000000003E-6     1.5210313307296349E-6
4.000000000000001E-6      3.2504081225086326E-6
6.0E-6                    5.1266298314598445E-6
8.000000000000001E-6      7.096245563200529E-6
1.0E-5                    9.113325536298202E-6
1.2E-5                    1.1138905633514943E-5
1.4000000000000001E-5     1.3140418089882169E-5
1.6000000000000003E-5     1.5091119393422612E-5
1.8000000000000004E-5     1.696952466179999E-5
2.0E-5                    1.8758856107225244E-5
2.2E-5                    2.0446511710847903E-5
2.4E-5                    2.2023558892701205E-5
2.6000000000000002E-5     2.3484256778402666E-5
2.8000000000000003E-5     2.482560962223297E-5
3.0000000000000008E-5     2.6046953039864282E-5
3.2000000000000005E-5     2.714957392412773E-5
3.4000000000000007E-5     2.813636425453151E-5
3.600000000000001E-5      2.9011508456268087E-5
3.8E-5                    2.9780203507601487E-5
4.0E-5                    3.044841062633341E-5
4.2E-5                    3.102263707723267E-5
4.4E-5                    3.150974642396755E-5
4.6E-5                    3.1916795392656006E-5
4.8E-5                    3.225089541161749E-5
5.0E-5                    3.2519096835711804E-5
5.2000000000000004E-5     3.27282938468239E-5
5.4000000000000005E-5     3.2885148038133334E-5
5.6000000000000006E-5     3.2996028732976895E-5
5.800000000000001E-5      3.306696815403668E-5
6.0000000000000015E-5     3.310362964054041E-5
6.200000000000002E-5      3.311128720592576E-5
6.400000000000001E-5      3.309481483228765E-5
6.600000000000002E-5      3.305868400768894E-5
6.800000000000001E-5      3.3006968125291606E-5
7.0E-5                    3.294335247692464E-5
7.200000000000002E-5      3.2871148686190155E-5
7.4E-5                    3.2793312535931166E-5
7.6E-5                    3.271246425057542E-5
7.800000000000001E-5      3.263091039456643E-5
8.0E-5                    3.25506666430881E-5
8.200000000000001E-5      3.247348077012423E-5
8.4E-5                    3.240085528131363E-5
8.600000000000002E-5      3.23340691950005E-5
8.8E-5                    3.2274198544433034E-5
9.000000000000002E-5      3.222213523746979E-5
9.2E-5                    3.217860396777168E-5
9.4E-5                    3.2144176923746686E-5
9.6E-5                    3.211928608902917E-5
9.8E-5                    3.210423297163109E-5
1.0E-4                    3.209919563878555E-5 
