
0                         12.566370614359172
3.333333333333348E-4      12.775810124599113
6.66666666666673E-4       12.985249634839034
0.0010000000000000044     13.19468914507893
0.0013333333333333357     13.40412865531881
0.001666666666666674      13.613568165558675
0.0020000000000000052     13.823007675798518
0.00233333333333334       14.032447186038318
0.002666666666666675      14.241886696278103
0.003000000000000006      14.451326206517866
0.0033333333333333375     14.660765716757615
0.0036666666666666757     14.870205226997346
0.004000000000000007      15.079644737237064
0.004333333333333342      15.289084247476755
0.004666666666666677      15.498523757716427
0.005000000000000008      15.707963267956071
0.005333333333333339      15.9174027781957
0.0056666666666666775     16.126842288435313
0.006000000000000009      16.3362817986749
0.006333333333333344      16.545721308914484
0.006666666666666678      16.75516081915406
0.00700000000000001       16.964600329393633
0.007333333333333341      17.1740398396332
0.007666666666666676      17.38347934987277
0.00800000000000001       17.59291886011233
0.008333333333333342      17.802358370351847
0.008666666666666673      18.011797880591352
0.009000000000000005      18.221237390830833
0.009333333333333336      18.430676901070306
0.009666666666666667      18.64011641130976
0.009999999999999998      18.8495559215492
0.009999999999999998      NaN
0.01033333333333333       NaN
0.010666666666666668      NaN
0.010999999999999996      NaN
0.01133333333333333       NaN
0.011666666666666662      NaN
0.011999999999999993      NaN
0.012333333333333325      NaN
0.012666666666666656      NaN
0.012999999999999987      NaN
0.013333333333333319      NaN
0.01366666666666665       NaN
0.013999999999999988      NaN
0.01433333333333332       NaN
0.014666666666666658      NaN
0.014999999999999989      NaN
0.015333333333333313      NaN
0.01566666666666665       NaN
0.015999999999999983      NaN
0.016333333333333314      NaN
0.016666666666666646      NaN
0.016999999999999977      NaN
0.017333333333333308      NaN
0.01766666666666664       NaN
0.017999999999999978      NaN
0.018333333333333316      NaN
0.01866666666666664       NaN
0.01899999999999998       NaN
0.01933333333333331       NaN
0.01966666666666664       NaN
0.019999999999999973      NaN
0.020333333333333304      NaN
0.020666666666666635      NaN
0.020999999999999967      NaN
0.021333333333333298      NaN
0.02166666666666663       NaN
0.021999999999999967      NaN
0.0223333333333333        NaN
0.02266666666666663       NaN
0.02299999999999996       NaN
0.023333333333333293      NaN
0.023666666666666617      NaN
0.023999999999999955      NaN
0.024333333333333294      NaN
0.024666666666666625      NaN
0.024999999999999956      NaN
0.025333333333333288      NaN
0.025666666666666626      NaN
0.025999999999999957      NaN
0.026333333333333295      NaN
0.026666666666666634      NaN
0.026999999999999958      NaN
0.02733333333333329       NaN
0.02766666666666662       NaN
0.027999999999999952      NaN
0.028333333333333283      NaN
0.02866666666666662       NaN
0.028999999999999946      NaN
0.029333333333333284      NaN
0.029666666666666616      NaN
0.029999999999999947      NaN
0.030333333333333285      NaN
0.030666666666666616      NaN
0.030999999999999948      NaN
0.03133333333333328       NaN
0.031666666666666614      NaN
0.031999999999999945      NaN
0.032333333333333276      NaN
0.03266666666666661       NaN
0.03299999999999994       NaN
0.033333333333333263      NaN
0.0336666666666666        NaN
0.03399999999999994       NaN
0.03433333333333328       NaN
0.0346666666666666        NaN
0.034999999999999934      NaN
0.03533333333333326       NaN
0.0356666666666666        NaN
0.03599999999999993       NaN
0.036333333333333266      NaN
0.036666666666666604      NaN
0.03699999999999993       NaN
0.03733333333333325       NaN
0.03766666666666659       NaN
0.03799999999999992       NaN
0.03833333333333327       NaN
0.03866666666666659       NaN
0.03899999999999992       NaN
0.03933333333333324       NaN
0.03966666666666658       NaN
0.03999999999999992       NaN
0.04033333333333325       NaN
0.04066666666666659       NaN
0.04099999999999992       NaN
0.04133333333333324       NaN
0.04166666666666658       NaN
0.04199999999999991       NaN
0.04233333333333324       NaN
0.04266666666666658       NaN
0.042999999999999906      NaN
0.04333333333333323       NaN
0.04366666666666657       NaN
0.04399999999999991       NaN
0.044333333333333245      NaN
0.04466666666666657       NaN
0.044999999999999894      NaN
0.04533333333333322       NaN
0.04566666666666657       NaN
0.045999999999999895      NaN
0.04633333333333325       NaN
0.04666666666666657       NaN
0.046999999999999896      NaN
0.04733333333333322       NaN
0.04766666666666656       NaN
0.04799999999999988       NaN
0.04833333333333322       NaN
0.048666666666666546      NaN
0.048999999999999884      NaN
0.04933333333333322       NaN
0.04966666666666655       NaN
0.049999999999999885      NaN
0.05033333333333322       NaN
0.05066666666666655       NaN
0.05099999999999987       NaN
0.051333333333333196      NaN
0.05166666666666655       NaN
0.05199999999999987       NaN
0.0523333333333332        NaN
0.052666666666666535      NaN
0.052999999999999874      NaN
0.0533333333333332        NaN
0.05366666666666655       NaN
0.053999999999999874      NaN
0.05433333333333321       NaN
0.05466666666666654       NaN
0.054999999999999875      NaN
0.0553333333333332        NaN
0.055666666666666524      NaN
0.05599999999999986       NaN
0.05633333333333319       NaN
0.05666666666666651       NaN
0.05699999999999985       NaN
0.057333333333333174      NaN
0.05766666666666651       NaN
0.05799999999999985       NaN
0.05833333333333319       NaN
0.05866666666666651       NaN
0.05899999999999985       NaN
0.059333333333333176      NaN
0.059666666666666514      NaN
0.05999999999999985       NaN
0.06033333333333319       NaN
0.060666666666666515      NaN
0.06099999999999985       NaN
0.06133333333333318       NaN
0.0616666666666665        NaN
0.06199999999999984       NaN
0.062333333333333164      NaN
0.06266666666666648       NaN
0.06299999999999982       NaN
0.06333333333333314       NaN
0.06366666666666648       NaN
0.06399999999999982       NaN
0.06433333333333316       NaN
0.06466666666666648       NaN
0.06499999999999982       NaN
0.06533333333333315       NaN
0.06566666666666648       NaN
0.06599999999999982       NaN
0.06633333333333316       NaN
0.06666666666666649       NaN
0.06699999999999982       NaN
0.06733333333333315       NaN
0.06766666666666647       NaN
0.06799999999999981       NaN
0.06833333333333315       NaN
0.06866666666666647       NaN
0.0689999999999998        NaN
0.06933333333333312       NaN
0.06966666666666647       NaN
0.0699999999999998        NaN
0.07033333333333314       NaN
0.07066666666666646       NaN
0.0709999999999998        NaN
0.07133333333333312       NaN
0.07166666666666646       NaN
0.07199999999999979       NaN
0.07233333333333312       NaN
0.07266666666666645       NaN
0.07299999999999979       NaN
0.07333333333333311       NaN
0.07366666666666645       NaN
0.07399999999999979       NaN
0.07433333333333313       NaN
0.07466666666666646       NaN
0.07499999999999979       NaN
0.07533333333333313       NaN
0.07566666666666645       NaN
0.07599999999999979       NaN
0.07633333333333313       NaN
0.07666666666666645       NaN
0.07699999999999978       NaN
0.0773333333333331        NaN
0.07766666666666644       NaN
0.07799999999999978       NaN
0.07833333333333312       NaN
0.07866666666666645       NaN
0.07899999999999978       NaN
0.07933333333333312       NaN
0.07966666666666644       NaN
0.07999999999999978       NaN
0.08033333333333312       NaN
0.08066666666666646       NaN
0.08099999999999978       NaN
0.0813333333333331        NaN
0.08166666666666643       NaN
0.08199999999999977       NaN
0.08233333333333309       NaN
0.08266666666666643       NaN
0.08299999999999975       NaN
0.08333333333333308       NaN
0.08366666666666642       NaN
0.08399999999999976       NaN
0.0843333333333331        NaN
0.08466666666666643       NaN
0.08499999999999976       NaN
0.08533333333333308       NaN
0.08566666666666642       NaN
0.08599999999999976       NaN
0.0863333333333331        NaN
0.08666666666666642       NaN
0.08699999999999974       NaN
0.08733333333333307       NaN
0.0876666666666664        NaN
0.08799999999999973       NaN
0.08833333333333307       NaN
0.08866666666666641       NaN
0.08899999999999973       NaN
0.08933333333333306       NaN
0.0896666666666664        NaN
0.08999999999999973       NaN
0.09033333333333307       NaN
0.09066666666666641       NaN
0.09099999999999973       NaN
0.09133333333333306       NaN
0.09166666666666641       NaN
0.09199999999999973       NaN
0.09233333333333309       NaN
0.09266666666666641       NaN
0.09299999999999974       NaN
0.09333333333333306       NaN
0.0936666666666664        NaN
0.09399999999999972       NaN
0.09433333333333305       NaN
0.0946666666666664        NaN
0.09499999999999971       NaN
0.09533333333333303       NaN
0.09566666666666637       NaN
0.09599999999999971       NaN
0.09633333333333306       NaN
0.09666666666666639       NaN
0.09699999999999971       NaN
0.09733333333333304       NaN
0.09766666666666637       NaN
0.0979999999999997        NaN
0.09833333333333304       NaN
0.09866666666666636       NaN
0.0989999999999997        NaN
0.09933333333333302       NaN
0.09966666666666636       NaN
0.0999999999999997        NaN
0.10033333333333302       NaN
0.10066666666666638       NaN
0.1009999999999997        NaN
0.10133333333333304       NaN
0.10166666666666636       NaN
0.1019999999999997        NaN
0.10233333333333304       NaN
0.10266666666666636       NaN
0.10299999999999969       NaN
0.10333333333333301       NaN
0.10366666666666635       NaN
0.10399999999999969       NaN
0.10433333333333303       NaN
0.10466666666666635       NaN
0.10499999999999969       NaN
0.10533333333333302       NaN
0.10566666666666637       NaN
0.10599999999999969       NaN
0.10633333333333302       NaN
0.10666666666666634       NaN
0.10699999999999966       NaN
0.10733333333333299       NaN
0.10766666666666631       NaN
0.10799999999999967       NaN
0.10833333333333302       NaN
0.10866666666666634       NaN
0.10899999999999967       NaN
0.10933333333333299       NaN
0.10966666666666634       NaN
0.10999999999999967       NaN
0.11033333333333299       NaN
0.11066666666666634       NaN
0.11099999999999967       NaN
0.11133333333333299       NaN
0.11166666666666632       NaN
0.11199999999999967       NaN
0.11233333333333302       NaN
0.11266666666666635       NaN
0.11299999999999967       NaN
0.113333333333333         NaN
0.11366666666666632       NaN
0.11399999999999964       NaN
0.11433333333333297       NaN
0.11466666666666632       NaN
0.11499999999999964       NaN
0.11533333333333297       NaN
0.11566666666666632       NaN
0.11599999999999965       NaN
0.116333333333333         NaN
0.1166666666666663        NaN
0.11699999999999962       NaN
0.11733333333333294       NaN
0.1176666666666663        NaN
0.11799999999999962       NaN
0.11833333333333294       NaN
0.1186666666666663        NaN
0.11899999999999962       NaN
0.11933333333333294       NaN
0.11966666666666627       NaN
0.11999999999999962       NaN
0.12033333333333297       NaN
0.12066666666666633       NaN
0.12099999999999962       NaN
0.12133333333333297       NaN
0.1216666666666663        NaN
0.12199999999999962       NaN
0.12233333333333297       NaN
0.1226666666666663        NaN
0.12299999999999962       NaN
0.12333333333333295       NaN
0.12366666666666627       NaN
0.12399999999999962       NaN
0.12433333333333298       NaN
0.12466666666666633       NaN
0.12499999999999963       NaN
0.12533333333333296       NaN
0.12566666666666626       NaN
0.12599999999999958       NaN
0.12633333333333294       NaN
0.12666666666666626       NaN
0.12699999999999959       NaN
0.1273333333333329        NaN
0.12766666666666626       NaN
0.1279999999999996        NaN
0.1283333333333329        NaN
0.12866666666666626       NaN
0.1289999999999996        NaN
0.12933333333333294       NaN
0.12966666666666626       NaN
0.1299999999999996        NaN
0.13033333333333294       NaN
0.13066666666666626       NaN
0.1309999999999996        NaN
0.1313333333333329        NaN
0.13166666666666627       NaN
0.1319999999999996        NaN
0.13233333333333291       NaN
0.13266666666666624       NaN
0.13299999999999956       NaN
0.1333333333333329        NaN
0.1336666666666662        NaN
0.13399999999999956       NaN
0.13433333333333292       NaN
0.13466666666666624       NaN
0.13499999999999956       NaN
0.13533333333333286       NaN
0.1356666666666662        NaN
0.13599999999999954       NaN
0.13633333333333286       NaN
0.13666666666666621       NaN
0.13699999999999954       NaN
0.1373333333333329        NaN
0.13766666666666622       NaN
0.13799999999999954       NaN
0.1383333333333329        NaN
0.13866666666666622       NaN
0.13899999999999954       NaN
0.13933333333333286       NaN
0.13966666666666622       NaN
0.13999999999999954       NaN
0.14033333333333287       NaN
0.1406666666666662        NaN
0.14099999999999954       NaN
0.14133333333333287       NaN
0.14166666666666622       NaN
0.14199999999999954       NaN
0.1423333333333329        NaN
0.14266666666666622       NaN
0.14299999999999954       NaN
0.14333333333333287       NaN
0.14366666666666622       NaN
0.14399999999999955       NaN
0.1443333333333329        NaN
0.1446666666666662        NaN
0.14499999999999955       NaN
0.14533333333333284       NaN
0.14566666666666622       NaN
0.14599999999999955       NaN
0.14633333333333287       NaN
0.14666666666666622       NaN
0.14699999999999952       NaN
0.14733333333333284       NaN
0.14766666666666617       NaN
0.14799999999999952       NaN
0.14833333333333287       NaN
0.14866666666666617       NaN
0.14899999999999952       NaN
0.14933333333333285       NaN
0.14966666666666617       NaN
0.14999999999999952       NaN
0.15033333333333287       NaN
0.1506666666666662        NaN
0.15099999999999952       NaN
0.15133333333333285       NaN
0.15166666666666617       NaN
0.1519999999999995        NaN
0.15233333333333285       NaN
0.15266666666666615       NaN
0.1529999999999995        NaN
0.1533333333333328        NaN
0.15366666666666617       NaN
0.1539999999999995        NaN
0.15433333333333285       NaN
0.15466666666666617       NaN
0.1549999999999995        NaN
0.15533333333333282       NaN
0.15566666666666618       NaN
0.1559999999999995        NaN
0.15633333333333282       NaN
0.15666666666666612       NaN
0.15699999999999947       NaN
0.15733333333333277       NaN
0.15766666666666615       NaN
0.15799999999999947       NaN
0.15833333333333283       NaN
0.15866666666666615       NaN
0.15899999999999948       NaN
0.1593333333333328        NaN
0.15966666666666612       NaN
0.15999999999999948       NaN
0.1603333333333328        NaN
0.16066666666666615       NaN
0.16099999999999948       NaN
0.16133333333333277       NaN
0.16166666666666615       NaN
0.16199999999999948       NaN
0.16233333333333283       NaN
0.16266666666666618       NaN
0.16299999999999948       NaN
0.16333333333333283       NaN
0.16366666666666616       NaN
0.16399999999999948       NaN
0.16433333333333283       NaN
0.16466666666666616       NaN
0.16499999999999948       NaN
0.16533333333333278       NaN
0.16566666666666616       NaN
0.16599999999999948       NaN
0.1663333333333328        NaN
0.16666666666666616       NaN
0.16699999999999945       NaN
0.16733333333333278       NaN
0.1676666666666661        NaN
0.16799999999999943       NaN
0.16833333333333275       NaN
0.1686666666666661        NaN
0.16899999999999943       NaN
0.16933333333333273       NaN
0.1696666666666661        NaN
0.16999999999999943       NaN
0.17033333333333278       NaN
0.17066666666666613       NaN
0.17099999999999943       NaN
0.17133333333333278       NaN
0.17166666666666608       NaN
0.17199999999999943       NaN
0.17233333333333278       NaN
0.1726666666666661        NaN
0.17299999999999943       NaN
0.17333333333333273       NaN
0.1736666666666661        NaN
0.17399999999999943       NaN
0.17433333333333276       NaN
0.1746666666666661        NaN
0.17499999999999943       NaN
0.17533333333333279       NaN
0.17566666666666608       NaN
0.17599999999999943       NaN
0.1763333333333328        NaN
0.1766666666666661        NaN
0.17699999999999944       NaN
0.17733333333333273       NaN
0.17766666666666608       NaN
0.1779999999999994        NaN
0.17833333333333284       NaN
0.17866666666666628       NaN
0.17899999999999971       NaN
0.17933333333333312       NaN
0.17966666666666659       NaN
0.18                      NaN
