[Info]
Version 1
Dimension 2
NumNodes 1681
Num3DElements 0
Num2DElements 1600
Num1DElements 0
NumNodeBC 168
NumSaveNodes 0
NumSaveElements 0
Num 2d-line      : 0
Num 2d-line,quad : 0
Num 3d-line      : 0
Num 3d-line,quad : 0
Num triangle     : 0
Num triangle,quad: 0
Num quadr        : 1600
Num quadr,quad   : 0
Num tetra        : 0
Num tetra,quad   : 0
Num brick        : 0
Num brick,quad   : 0
Num pyramid      : 0
Num pyramid,quad : 0
Num wedge        : 0
Num wedge,quad   : 0

[Nodes]
#NodeNr x-coord y-coord z-coord
1  0.0  0.0  0.0
2  0.025  0.0  0.0
3  0.05  0.0  0.0
4  0.075  0.0  0.0
5  0.1  0.0  0.0
6  0.125  0.0  0.0
7  0.15  0.0  0.0
8  0.175  0.0  0.0
9  0.2  0.0  0.0
10  0.225  0.0  0.0
11  0.25  0.0  0.0
12  0.275  0.0  0.0
13  0.3  0.0  0.0
14  0.325  0.0  0.0
15  0.35  0.0  0.0
16  0.375  0.0  0.0
17  0.4  0.0  0.0
18  0.425  0.0  0.0
19  0.45  0.0  0.0
20  0.475  0.0  0.0
21  0.5  0.0  0.0
22  0.525  0.0  0.0
23  0.55  0.0  0.0
24  0.575  0.0  0.0
25  0.6  0.0  0.0
26  0.625  0.0  0.0
27  0.65  0.0  0.0
28  0.675  0.0  0.0
29  0.7  0.0  0.0
30  0.725  0.0  0.0
31  0.75  0.0  0.0
32  0.775  0.0  0.0
33  0.8  0.0  0.0
34  0.825  0.0  0.0
35  0.85  0.0  0.0
36  0.875  0.0  0.0
37  0.9  0.0  0.0
38  0.925  0.0  0.0
39  0.95  0.0  0.0
40  0.975  0.0  0.0
41  1.0  0.0  0.0
42  0.0  0.025  0.0
43  0.025  0.025  0.0
44  0.05  0.025  0.0
45  0.075  0.025  0.0
46  0.1  0.025  0.0
47  0.125  0.025  0.0
48  0.15  0.025  0.0
49  0.175  0.025  0.0
50  0.2  0.025  0.0
51  0.225  0.025  0.0
52  0.25  0.025  0.0
53  0.275  0.025  0.0
54  0.3  0.025  0.0
55  0.325  0.025  0.0
56  0.35  0.025  0.0
57  0.375  0.025  0.0
58  0.4  0.025  0.0
59  0.425  0.025  0.0
60  0.45  0.025  0.0
61  0.475  0.025  0.0
62  0.5  0.025  0.0
63  0.525  0.025  0.0
64  0.55  0.025  0.0
65  0.575  0.025  0.0
66  0.6  0.025  0.0
67  0.625  0.025  0.0
68  0.65  0.025  0.0
69  0.675  0.025  0.0
70  0.7  0.025  0.0
71  0.725  0.025  0.0
72  0.75  0.025  0.0
73  0.775  0.025  0.0
74  0.8  0.025  0.0
75  0.825  0.025  0.0
76  0.85  0.025  0.0
77  0.875  0.025  0.0
78  0.9  0.025  0.0
79  0.925  0.025  0.0
80  0.95  0.025  0.0
81  0.975  0.025  0.0
82  1.0  0.025  0.0
83  0.0  0.05  0.0
84  0.025  0.05  0.0
85  0.05  0.05  0.0
86  0.075  0.05  0.0
87  0.1  0.05  0.0
88  0.125  0.05  0.0
89  0.15  0.05  0.0
90  0.175  0.05  0.0
91  0.2  0.05  0.0
92  0.225  0.05  0.0
93  0.25  0.05  0.0
94  0.275  0.05  0.0
95  0.3  0.05  0.0
96  0.325  0.05  0.0
97  0.35  0.05  0.0
98  0.375  0.05  0.0
99  0.4  0.05  0.0
100  0.425  0.05  0.0
101  0.45  0.05  0.0
102  0.475  0.05  0.0
103  0.5  0.05  0.0
104  0.525  0.05  0.0
105  0.55  0.05  0.0
106  0.575  0.05  0.0
107  0.6  0.05  0.0
108  0.625  0.05  0.0
109  0.65  0.05  0.0
110  0.675  0.05  0.0
111  0.7  0.05  0.0
112  0.725  0.05  0.0
113  0.75  0.05  0.0
114  0.775  0.05  0.0
115  0.8  0.05  0.0
116  0.825  0.05  0.0
117  0.85  0.05  0.0
118  0.875  0.05  0.0
119  0.9  0.05  0.0
120  0.925  0.05  0.0
121  0.95  0.05  0.0
122  0.975  0.05  0.0
123  1.0  0.05  0.0
124  0.0  0.075  0.0
125  0.025  0.075  0.0
126  0.05  0.075  0.0
127  0.075  0.075  0.0
128  0.1  0.075  0.0
129  0.125  0.075  0.0
130  0.15  0.075  0.0
131  0.175  0.075  0.0
132  0.2  0.075  0.0
133  0.225  0.075  0.0
134  0.25  0.075  0.0
135  0.275  0.075  0.0
136  0.3  0.075  0.0
137  0.325  0.075  0.0
138  0.35  0.075  0.0
139  0.375  0.075  0.0
140  0.4  0.075  0.0
141  0.425  0.075  0.0
142  0.45  0.075  0.0
143  0.475  0.075  0.0
144  0.5  0.075  0.0
145  0.525  0.075  0.0
146  0.55  0.075  0.0
147  0.575  0.075  0.0
148  0.6  0.075  0.0
149  0.625  0.075  0.0
150  0.65  0.075  0.0
151  0.675  0.075  0.0
152  0.7  0.075  0.0
153  0.725  0.075  0.0
154  0.75  0.075  0.0
155  0.775  0.075  0.0
156  0.8  0.075  0.0
157  0.825  0.075  0.0
158  0.85  0.075  0.0
159  0.875  0.075  0.0
160  0.9  0.075  0.0
161  0.925  0.075  0.0
162  0.95  0.075  0.0
163  0.975  0.075  0.0
164  1.0  0.075  0.0
165  0.0  0.1  0.0
166  0.025  0.1  0.0
167  0.05  0.1  0.0
168  0.075  0.1  0.0
169  0.1  0.1  0.0
170  0.125  0.1  0.0
171  0.15  0.1  0.0
172  0.175  0.1  0.0
173  0.2  0.1  0.0
174  0.225  0.1  0.0
175  0.25  0.1  0.0
176  0.275  0.1  0.0
177  0.3  0.1  0.0
178  0.325  0.1  0.0
179  0.35  0.1  0.0
180  0.375  0.1  0.0
181  0.4  0.1  0.0
182  0.425  0.1  0.0
183  0.45  0.1  0.0
184  0.475  0.1  0.0
185  0.5  0.1  0.0
186  0.525  0.1  0.0
187  0.55  0.1  0.0
188  0.575  0.1  0.0
189  0.6  0.1  0.0
190  0.625  0.1  0.0
191  0.65  0.1  0.0
192  0.675  0.1  0.0
193  0.7  0.1  0.0
194  0.725  0.1  0.0
195  0.75  0.1  0.0
196  0.775  0.1  0.0
197  0.8  0.1  0.0
198  0.825  0.1  0.0
199  0.85  0.1  0.0
200  0.875  0.1  0.0
201  0.9  0.1  0.0
202  0.925  0.1  0.0
203  0.95  0.1  0.0
204  0.975  0.1  0.0
205  1.0  0.1  0.0
206  0.0  0.125  0.0
207  0.025  0.125  0.0
208  0.05  0.125  0.0
209  0.075  0.125  0.0
210  0.1  0.125  0.0
211  0.125  0.125  0.0
212  0.15  0.125  0.0
213  0.175  0.125  0.0
214  0.2  0.125  0.0
215  0.225  0.125  0.0
216  0.25  0.125  0.0
217  0.275  0.125  0.0
218  0.3  0.125  0.0
219  0.325  0.125  0.0
220  0.35  0.125  0.0
221  0.375  0.125  0.0
222  0.4  0.125  0.0
223  0.425  0.125  0.0
224  0.45  0.125  0.0
225  0.475  0.125  0.0
226  0.5  0.125  0.0
227  0.525  0.125  0.0
228  0.55  0.125  0.0
229  0.575  0.125  0.0
230  0.6  0.125  0.0
231  0.625  0.125  0.0
232  0.65  0.125  0.0
233  0.675  0.125  0.0
234  0.7  0.125  0.0
235  0.725  0.125  0.0
236  0.75  0.125  0.0
237  0.775  0.125  0.0
238  0.8  0.125  0.0
239  0.825  0.125  0.0
240  0.85  0.125  0.0
241  0.875  0.125  0.0
242  0.9  0.125  0.0
243  0.925  0.125  0.0
244  0.95  0.125  0.0
245  0.975  0.125  0.0
246  1.0  0.125  0.0
247  0.0  0.15  0.0
248  0.025  0.15  0.0
249  0.05  0.15  0.0
250  0.075  0.15  0.0
251  0.1  0.15  0.0
252  0.125  0.15  0.0
253  0.15  0.15  0.0
254  0.175  0.15  0.0
255  0.2  0.15  0.0
256  0.225  0.15  0.0
257  0.25  0.15  0.0
258  0.275  0.15  0.0
259  0.3  0.15  0.0
260  0.325  0.15  0.0
261  0.35  0.15  0.0
262  0.375  0.15  0.0
263  0.4  0.15  0.0
264  0.425  0.15  0.0
265  0.45  0.15  0.0
266  0.475  0.15  0.0
267  0.5  0.15  0.0
268  0.525  0.15  0.0
269  0.55  0.15  0.0
270  0.575  0.15  0.0
271  0.6  0.15  0.0
272  0.625  0.15  0.0
273  0.65  0.15  0.0
274  0.675  0.15  0.0
275  0.7  0.15  0.0
276  0.725  0.15  0.0
277  0.75  0.15  0.0
278  0.775  0.15  0.0
279  0.8  0.15  0.0
280  0.825  0.15  0.0
281  0.85  0.15  0.0
282  0.875  0.15  0.0
283  0.9  0.15  0.0
284  0.925  0.15  0.0
285  0.95  0.15  0.0
286  0.975  0.15  0.0
287  1.0  0.15  0.0
288  0.0  0.175  0.0
289  0.025  0.175  0.0
290  0.05  0.175  0.0
291  0.075  0.175  0.0
292  0.1  0.175  0.0
293  0.125  0.175  0.0
294  0.15  0.175  0.0
295  0.175  0.175  0.0
296  0.2  0.175  0.0
297  0.225  0.175  0.0
298  0.25  0.175  0.0
299  0.275  0.175  0.0
300  0.3  0.175  0.0
301  0.325  0.175  0.0
302  0.35  0.175  0.0
303  0.375  0.175  0.0
304  0.4  0.175  0.0
305  0.425  0.175  0.0
306  0.45  0.175  0.0
307  0.475  0.175  0.0
308  0.5  0.175  0.0
309  0.525  0.175  0.0
310  0.55  0.175  0.0
311  0.575  0.175  0.0
312  0.6  0.175  0.0
313  0.625  0.175  0.0
314  0.65  0.175  0.0
315  0.675  0.175  0.0
316  0.7  0.175  0.0
317  0.725  0.175  0.0
318  0.75  0.175  0.0
319  0.775  0.175  0.0
320  0.8  0.175  0.0
321  0.825  0.175  0.0
322  0.85  0.175  0.0
323  0.875  0.175  0.0
324  0.9  0.175  0.0
325  0.925  0.175  0.0
326  0.95  0.175  0.0
327  0.975  0.175  0.0
328  1.0  0.175  0.0
329  0.0  0.2  0.0
330  0.025  0.2  0.0
331  0.05  0.2  0.0
332  0.075  0.2  0.0
333  0.1  0.2  0.0
334  0.125  0.2  0.0
335  0.15  0.2  0.0
336  0.175  0.2  0.0
337  0.2  0.2  0.0
338  0.225  0.2  0.0
339  0.25  0.2  0.0
340  0.275  0.2  0.0
341  0.3  0.2  0.0
342  0.325  0.2  0.0
343  0.35  0.2  0.0
344  0.375  0.2  0.0
345  0.4  0.2  0.0
346  0.425  0.2  0.0
347  0.45  0.2  0.0
348  0.475  0.2  0.0
349  0.5  0.2  0.0
350  0.525  0.2  0.0
351  0.55  0.2  0.0
352  0.575  0.2  0.0
353  0.6  0.2  0.0
354  0.625  0.2  0.0
355  0.65  0.2  0.0
356  0.675  0.2  0.0
357  0.7  0.2  0.0
358  0.725  0.2  0.0
359  0.75  0.2  0.0
360  0.775  0.2  0.0
361  0.8  0.2  0.0
362  0.825  0.2  0.0
363  0.85  0.2  0.0
364  0.875  0.2  0.0
365  0.9  0.2  0.0
366  0.925  0.2  0.0
367  0.95  0.2  0.0
368  0.975  0.2  0.0
369  1.0  0.2  0.0
370  0.0  0.225  0.0
371  0.025  0.225  0.0
372  0.05  0.225  0.0
373  0.075  0.225  0.0
374  0.1  0.225  0.0
375  0.125  0.225  0.0
376  0.15  0.225  0.0
377  0.175  0.225  0.0
378  0.2  0.225  0.0
379  0.225  0.225  0.0
380  0.25  0.225  0.0
381  0.275  0.225  0.0
382  0.3  0.225  0.0
383  0.325  0.225  0.0
384  0.35  0.225  0.0
385  0.375  0.225  0.0
386  0.4  0.225  0.0
387  0.425  0.225  0.0
388  0.45  0.225  0.0
389  0.475  0.225  0.0
390  0.5  0.225  0.0
391  0.525  0.225  0.0
392  0.55  0.225  0.0
393  0.575  0.225  0.0
394  0.6  0.225  0.0
395  0.625  0.225  0.0
396  0.65  0.225  0.0
397  0.675  0.225  0.0
398  0.7  0.225  0.0
399  0.725  0.225  0.0
400  0.75  0.225  0.0
401  0.775  0.225  0.0
402  0.8  0.225  0.0
403  0.825  0.225  0.0
404  0.85  0.225  0.0
405  0.875  0.225  0.0
406  0.9  0.225  0.0
407  0.925  0.225  0.0
408  0.95  0.225  0.0
409  0.975  0.225  0.0
410  1.0  0.225  0.0
411  0.0  0.25  0.0
412  0.025  0.25  0.0
413  0.05  0.25  0.0
414  0.075  0.25  0.0
415  0.1  0.25  0.0
416  0.125  0.25  0.0
417  0.15  0.25  0.0
418  0.175  0.25  0.0
419  0.2  0.25  0.0
420  0.225  0.25  0.0
421  0.25  0.25  0.0
422  0.275  0.25  0.0
423  0.3  0.25  0.0
424  0.325  0.25  0.0
425  0.35  0.25  0.0
426  0.375  0.25  0.0
427  0.4  0.25  0.0
428  0.425  0.25  0.0
429  0.45  0.25  0.0
430  0.475  0.25  0.0
431  0.5  0.25  0.0
432  0.525  0.25  0.0
433  0.55  0.25  0.0
434  0.575  0.25  0.0
435  0.6  0.25  0.0
436  0.625  0.25  0.0
437  0.65  0.25  0.0
438  0.675  0.25  0.0
439  0.7  0.25  0.0
440  0.725  0.25  0.0
441  0.75  0.25  0.0
442  0.775  0.25  0.0
443  0.8  0.25  0.0
444  0.825  0.25  0.0
445  0.85  0.25  0.0
446  0.875  0.25  0.0
447  0.9  0.25  0.0
448  0.925  0.25  0.0
449  0.95  0.25  0.0
450  0.975  0.25  0.0
451  1.0  0.25  0.0
452  0.0  0.275  0.0
453  0.025  0.275  0.0
454  0.05  0.275  0.0
455  0.075  0.275  0.0
456  0.1  0.275  0.0
457  0.125  0.275  0.0
458  0.15  0.275  0.0
459  0.175  0.275  0.0
460  0.2  0.275  0.0
461  0.225  0.275  0.0
462  0.25  0.275  0.0
463  0.275  0.275  0.0
464  0.3  0.275  0.0
465  0.325  0.275  0.0
466  0.35  0.275  0.0
467  0.375  0.275  0.0
468  0.4  0.275  0.0
469  0.425  0.275  0.0
470  0.45  0.275  0.0
471  0.475  0.275  0.0
472  0.5  0.275  0.0
473  0.525  0.275  0.0
474  0.55  0.275  0.0
475  0.575  0.275  0.0
476  0.6  0.275  0.0
477  0.625  0.275  0.0
478  0.65  0.275  0.0
479  0.675  0.275  0.0
480  0.7  0.275  0.0
481  0.725  0.275  0.0
482  0.75  0.275  0.0
483  0.775  0.275  0.0
484  0.8  0.275  0.0
485  0.825  0.275  0.0
486  0.85  0.275  0.0
487  0.875  0.275  0.0
488  0.9  0.275  0.0
489  0.925  0.275  0.0
490  0.95  0.275  0.0
491  0.975  0.275  0.0
492  1.0  0.275  0.0
493  0.0  0.3  0.0
494  0.025  0.3  0.0
495  0.05  0.3  0.0
496  0.075  0.3  0.0
497  0.1  0.3  0.0
498  0.125  0.3  0.0
499  0.15  0.3  0.0
500  0.175  0.3  0.0
501  0.2  0.3  0.0
502  0.225  0.3  0.0
503  0.25  0.3  0.0
504  0.275  0.3  0.0
505  0.3  0.3  0.0
506  0.325  0.3  0.0
507  0.35  0.3  0.0
508  0.375  0.3  0.0
509  0.4  0.3  0.0
510  0.425  0.3  0.0
511  0.45  0.3  0.0
512  0.475  0.3  0.0
513  0.5  0.3  0.0
514  0.525  0.3  0.0
515  0.55  0.3  0.0
516  0.575  0.3  0.0
517  0.6  0.3  0.0
518  0.625  0.3  0.0
519  0.65  0.3  0.0
520  0.675  0.3  0.0
521  0.7  0.3  0.0
522  0.725  0.3  0.0
523  0.75  0.3  0.0
524  0.775  0.3  0.0
525  0.8  0.3  0.0
526  0.825  0.3  0.0
527  0.85  0.3  0.0
528  0.875  0.3  0.0
529  0.9  0.3  0.0
530  0.925  0.3  0.0
531  0.95  0.3  0.0
532  0.975  0.3  0.0
533  1.0  0.3  0.0
534  0.0  0.325  0.0
535  0.025  0.325  0.0
536  0.05  0.325  0.0
537  0.075  0.325  0.0
538  0.1  0.325  0.0
539  0.125  0.325  0.0
540  0.15  0.325  0.0
541  0.175  0.325  0.0
542  0.2  0.325  0.0
543  0.225  0.325  0.0
544  0.25  0.325  0.0
545  0.275  0.325  0.0
546  0.3  0.325  0.0
547  0.325  0.325  0.0
548  0.35  0.325  0.0
549  0.375  0.325  0.0
550  0.4  0.325  0.0
551  0.425  0.325  0.0
552  0.45  0.325  0.0
553  0.475  0.325  0.0
554  0.5  0.325  0.0
555  0.525  0.325  0.0
556  0.55  0.325  0.0
557  0.575  0.325  0.0
558  0.6  0.325  0.0
559  0.625  0.325  0.0
560  0.65  0.325  0.0
561  0.675  0.325  0.0
562  0.7  0.325  0.0
563  0.725  0.325  0.0
564  0.75  0.325  0.0
565  0.775  0.325  0.0
566  0.8  0.325  0.0
567  0.825  0.325  0.0
568  0.85  0.325  0.0
569  0.875  0.325  0.0
570  0.9  0.325  0.0
571  0.925  0.325  0.0
572  0.95  0.325  0.0
573  0.975  0.325  0.0
574  1.0  0.325  0.0
575  0.0  0.35  0.0
576  0.025  0.35  0.0
577  0.05  0.35  0.0
578  0.075  0.35  0.0
579  0.1  0.35  0.0
580  0.125  0.35  0.0
581  0.15  0.35  0.0
582  0.175  0.35  0.0
583  0.2  0.35  0.0
584  0.225  0.35  0.0
585  0.25  0.35  0.0
586  0.275  0.35  0.0
587  0.3  0.35  0.0
588  0.325  0.35  0.0
589  0.35  0.35  0.0
590  0.375  0.35  0.0
591  0.4  0.35  0.0
592  0.425  0.35  0.0
593  0.45  0.35  0.0
594  0.475  0.35  0.0
595  0.5  0.35  0.0
596  0.525  0.35  0.0
597  0.55  0.35  0.0
598  0.575  0.35  0.0
599  0.6  0.35  0.0
600  0.625  0.35  0.0
601  0.65  0.35  0.0
602  0.675  0.35  0.0
603  0.7  0.35  0.0
604  0.725  0.35  0.0
605  0.75  0.35  0.0
606  0.775  0.35  0.0
607  0.8  0.35  0.0
608  0.825  0.35  0.0
609  0.85  0.35  0.0
610  0.875  0.35  0.0
611  0.9  0.35  0.0
612  0.925  0.35  0.0
613  0.95  0.35  0.0
614  0.975  0.35  0.0
615  1.0  0.35  0.0
616  0.0  0.375  0.0
617  0.025  0.375  0.0
618  0.05  0.375  0.0
619  0.075  0.375  0.0
620  0.1  0.375  0.0
621  0.125  0.375  0.0
622  0.15  0.375  0.0
623  0.175  0.375  0.0
624  0.2  0.375  0.0
625  0.225  0.375  0.0
626  0.25  0.375  0.0
627  0.275  0.375  0.0
628  0.3  0.375  0.0
629  0.325  0.375  0.0
630  0.35  0.375  0.0
631  0.375  0.375  0.0
632  0.4  0.375  0.0
633  0.425  0.375  0.0
634  0.45  0.375  0.0
635  0.475  0.375  0.0
636  0.5  0.375  0.0
637  0.525  0.375  0.0
638  0.55  0.375  0.0
639  0.575  0.375  0.0
640  0.6  0.375  0.0
641  0.625  0.375  0.0
642  0.65  0.375  0.0
643  0.675  0.375  0.0
644  0.7  0.375  0.0
645  0.725  0.375  0.0
646  0.75  0.375  0.0
647  0.775  0.375  0.0
648  0.8  0.375  0.0
649  0.825  0.375  0.0
650  0.85  0.375  0.0
651  0.875  0.375  0.0
652  0.9  0.375  0.0
653  0.925  0.375  0.0
654  0.95  0.375  0.0
655  0.975  0.375  0.0
656  1.0  0.375  0.0
657  0.0  0.4  0.0
658  0.025  0.4  0.0
659  0.05  0.4  0.0
660  0.075  0.4  0.0
661  0.1  0.4  0.0
662  0.125  0.4  0.0
663  0.15  0.4  0.0
664  0.175  0.4  0.0
665  0.2  0.4  0.0
666  0.225  0.4  0.0
667  0.25  0.4  0.0
668  0.275  0.4  0.0
669  0.3  0.4  0.0
670  0.325  0.4  0.0
671  0.35  0.4  0.0
672  0.375  0.4  0.0
673  0.4  0.4  0.0
674  0.425  0.4  0.0
675  0.45  0.4  0.0
676  0.475  0.4  0.0
677  0.5  0.4  0.0
678  0.525  0.4  0.0
679  0.55  0.4  0.0
680  0.575  0.4  0.0
681  0.6  0.4  0.0
682  0.625  0.4  0.0
683  0.65  0.4  0.0
684  0.675  0.4  0.0
685  0.7  0.4  0.0
686  0.725  0.4  0.0
687  0.75  0.4  0.0
688  0.775  0.4  0.0
689  0.8  0.4  0.0
690  0.825  0.4  0.0
691  0.85  0.4  0.0
692  0.875  0.4  0.0
693  0.9  0.4  0.0
694  0.925  0.4  0.0
695  0.95  0.4  0.0
696  0.975  0.4  0.0
697  1.0  0.4  0.0
698  0.0  0.425  0.0
699  0.025  0.425  0.0
700  0.05  0.425  0.0
701  0.075  0.425  0.0
702  0.1  0.425  0.0
703  0.125  0.425  0.0
704  0.15  0.425  0.0
705  0.175  0.425  0.0
706  0.2  0.425  0.0
707  0.225  0.425  0.0
708  0.25  0.425  0.0
709  0.275  0.425  0.0
710  0.3  0.425  0.0
711  0.325  0.425  0.0
712  0.35  0.425  0.0
713  0.375  0.425  0.0
714  0.4  0.425  0.0
715  0.425  0.425  0.0
716  0.45  0.425  0.0
717  0.475  0.425  0.0
718  0.5  0.425  0.0
719  0.525  0.425  0.0
720  0.55  0.425  0.0
721  0.575  0.425  0.0
722  0.6  0.425  0.0
723  0.625  0.425  0.0
724  0.65  0.425  0.0
725  0.675  0.425  0.0
726  0.7  0.425  0.0
727  0.725  0.425  0.0
728  0.75  0.425  0.0
729  0.775  0.425  0.0
730  0.8  0.425  0.0
731  0.825  0.425  0.0
732  0.85  0.425  0.0
733  0.875  0.425  0.0
734  0.9  0.425  0.0
735  0.925  0.425  0.0
736  0.95  0.425  0.0
737  0.975  0.425  0.0
738  1.0  0.425  0.0
739  0.0  0.45  0.0
740  0.025  0.45  0.0
741  0.05  0.45  0.0
742  0.075  0.45  0.0
743  0.1  0.45  0.0
744  0.125  0.45  0.0
745  0.15  0.45  0.0
746  0.175  0.45  0.0
747  0.2  0.45  0.0
748  0.225  0.45  0.0
749  0.25  0.45  0.0
750  0.275  0.45  0.0
751  0.3  0.45  0.0
752  0.325  0.45  0.0
753  0.35  0.45  0.0
754  0.375  0.45  0.0
755  0.4  0.45  0.0
756  0.425  0.45  0.0
757  0.45  0.45  0.0
758  0.475  0.45  0.0
759  0.5  0.45  0.0
760  0.525  0.45  0.0
761  0.55  0.45  0.0
762  0.575  0.45  0.0
763  0.6  0.45  0.0
764  0.625  0.45  0.0
765  0.65  0.45  0.0
766  0.675  0.45  0.0
767  0.7  0.45  0.0
768  0.725  0.45  0.0
769  0.75  0.45  0.0
770  0.775  0.45  0.0
771  0.8  0.45  0.0
772  0.825  0.45  0.0
773  0.85  0.45  0.0
774  0.875  0.45  0.0
775  0.9  0.45  0.0
776  0.925  0.45  0.0
777  0.95  0.45  0.0
778  0.975  0.45  0.0
779  1.0  0.45  0.0
780  0.0  0.475  0.0
781  0.025  0.475  0.0
782  0.05  0.475  0.0
783  0.075  0.475  0.0
784  0.1  0.475  0.0
785  0.125  0.475  0.0
786  0.15  0.475  0.0
787  0.175  0.475  0.0
788  0.2  0.475  0.0
789  0.225  0.475  0.0
790  0.25  0.475  0.0
791  0.275  0.475  0.0
792  0.3  0.475  0.0
793  0.325  0.475  0.0
794  0.35  0.475  0.0
795  0.375  0.475  0.0
796  0.4  0.475  0.0
797  0.425  0.475  0.0
798  0.45  0.475  0.0
799  0.475  0.475  0.0
800  0.5  0.475  0.0
801  0.525  0.475  0.0
802  0.55  0.475  0.0
803  0.575  0.475  0.0
804  0.6  0.475  0.0
805  0.625  0.475  0.0
806  0.65  0.475  0.0
807  0.675  0.475  0.0
808  0.7  0.475  0.0
809  0.725  0.475  0.0
810  0.75  0.475  0.0
811  0.775  0.475  0.0
812  0.8  0.475  0.0
813  0.825  0.475  0.0
814  0.85  0.475  0.0
815  0.875  0.475  0.0
816  0.9  0.475  0.0
817  0.925  0.475  0.0
818  0.95  0.475  0.0
819  0.975  0.475  0.0
820  1.0  0.475  0.0
821  0.0  0.5  0.0
822  0.025  0.5  0.0
823  0.05  0.5  0.0
824  0.075  0.5  0.0
825  0.1  0.5  0.0
826  0.125  0.5  0.0
827  0.15  0.5  0.0
828  0.175  0.5  0.0
829  0.2  0.5  0.0
830  0.225  0.5  0.0
831  0.25  0.5  0.0
832  0.275  0.5  0.0
833  0.3  0.5  0.0
834  0.325  0.5  0.0
835  0.35  0.5  0.0
836  0.375  0.5  0.0
837  0.4  0.5  0.0
838  0.425  0.5  0.0
839  0.45  0.5  0.0
840  0.475  0.5  0.0
841  0.5  0.5  0.0
842  0.525  0.5  0.0
843  0.55  0.5  0.0
844  0.575  0.5  0.0
845  0.6  0.5  0.0
846  0.625  0.5  0.0
847  0.65  0.5  0.0
848  0.675  0.5  0.0
849  0.7  0.5  0.0
850  0.725  0.5  0.0
851  0.75  0.5  0.0
852  0.775  0.5  0.0
853  0.8  0.5  0.0
854  0.825  0.5  0.0
855  0.85  0.5  0.0
856  0.875  0.5  0.0
857  0.9  0.5  0.0
858  0.925  0.5  0.0
859  0.95  0.5  0.0
860  0.975  0.5  0.0
861  1.0  0.5  0.0
862  0.0  0.525  0.0
863  0.025  0.525  0.0
864  0.05  0.525  0.0
865  0.075  0.525  0.0
866  0.1  0.525  0.0
867  0.125  0.525  0.0
868  0.15  0.525  0.0
869  0.175  0.525  0.0
870  0.2  0.525  0.0
871  0.225  0.525  0.0
872  0.25  0.525  0.0
873  0.275  0.525  0.0
874  0.3  0.525  0.0
875  0.325  0.525  0.0
876  0.35  0.525  0.0
877  0.375  0.525  0.0
878  0.4  0.525  0.0
879  0.425  0.525  0.0
880  0.45  0.525  0.0
881  0.475  0.525  0.0
882  0.5  0.525  0.0
883  0.525  0.525  0.0
884  0.55  0.525  0.0
885  0.575  0.525  0.0
886  0.6  0.525  0.0
887  0.625  0.525  0.0
888  0.65  0.525  0.0
889  0.675  0.525  0.0
890  0.7  0.525  0.0
891  0.725  0.525  0.0
892  0.75  0.525  0.0
893  0.775  0.525  0.0
894  0.8  0.525  0.0
895  0.825  0.525  0.0
896  0.85  0.525  0.0
897  0.875  0.525  0.0
898  0.9  0.525  0.0
899  0.925  0.525  0.0
900  0.95  0.525  0.0
901  0.975  0.525  0.0
902  1.0  0.525  0.0
903  0.0  0.55  0.0
904  0.025  0.55  0.0
905  0.05  0.55  0.0
906  0.075  0.55  0.0
907  0.1  0.55  0.0
908  0.125  0.55  0.0
909  0.15  0.55  0.0
910  0.175  0.55  0.0
911  0.2  0.55  0.0
912  0.225  0.55  0.0
913  0.25  0.55  0.0
914  0.275  0.55  0.0
915  0.3  0.55  0.0
916  0.325  0.55  0.0
917  0.35  0.55  0.0
918  0.375  0.55  0.0
919  0.4  0.55  0.0
920  0.425  0.55  0.0
921  0.45  0.55  0.0
922  0.475  0.55  0.0
923  0.5  0.55  0.0
924  0.525  0.55  0.0
925  0.55  0.55  0.0
926  0.575  0.55  0.0
927  0.6  0.55  0.0
928  0.625  0.55  0.0
929  0.65  0.55  0.0
930  0.675  0.55  0.0
931  0.7  0.55  0.0
932  0.725  0.55  0.0
933  0.75  0.55  0.0
934  0.775  0.55  0.0
935  0.8  0.55  0.0
936  0.825  0.55  0.0
937  0.85  0.55  0.0
938  0.875  0.55  0.0
939  0.9  0.55  0.0
940  0.925  0.55  0.0
941  0.95  0.55  0.0
942  0.975  0.55  0.0
943  1.0  0.55  0.0
944  0.0  0.575  0.0
945  0.025  0.575  0.0
946  0.05  0.575  0.0
947  0.075  0.575  0.0
948  0.1  0.575  0.0
949  0.125  0.575  0.0
950  0.15  0.575  0.0
951  0.175  0.575  0.0
952  0.2  0.575  0.0
953  0.225  0.575  0.0
954  0.25  0.575  0.0
955  0.275  0.575  0.0
956  0.3  0.575  0.0
957  0.325  0.575  0.0
958  0.35  0.575  0.0
959  0.375  0.575  0.0
960  0.4  0.575  0.0
961  0.425  0.575  0.0
962  0.45  0.575  0.0
963  0.475  0.575  0.0
964  0.5  0.575  0.0
965  0.525  0.575  0.0
966  0.55  0.575  0.0
967  0.575  0.575  0.0
968  0.6  0.575  0.0
969  0.625  0.575  0.0
970  0.65  0.575  0.0
971  0.675  0.575  0.0
972  0.7  0.575  0.0
973  0.725  0.575  0.0
974  0.75  0.575  0.0
975  0.775  0.575  0.0
976  0.8  0.575  0.0
977  0.825  0.575  0.0
978  0.85  0.575  0.0
979  0.875  0.575  0.0
980  0.9  0.575  0.0
981  0.925  0.575  0.0
982  0.95  0.575  0.0
983  0.975  0.575  0.0
984  1.0  0.575  0.0
985  0.0  0.6  0.0
986  0.025  0.6  0.0
987  0.05  0.6  0.0
988  0.075  0.6  0.0
989  0.1  0.6  0.0
990  0.125  0.6  0.0
991  0.15  0.6  0.0
992  0.175  0.6  0.0
993  0.2  0.6  0.0
994  0.225  0.6  0.0
995  0.25  0.6  0.0
996  0.275  0.6  0.0
997  0.3  0.6  0.0
998  0.325  0.6  0.0
999  0.35  0.6  0.0
1000  0.375  0.6  0.0
1001  0.4  0.6  0.0
1002  0.425  0.6  0.0
1003  0.45  0.6  0.0
1004  0.475  0.6  0.0
1005  0.5  0.6  0.0
1006  0.525  0.6  0.0
1007  0.55  0.6  0.0
1008  0.575  0.6  0.0
1009  0.6  0.6  0.0
1010  0.625  0.6  0.0
1011  0.65  0.6  0.0
1012  0.675  0.6  0.0
1013  0.7  0.6  0.0
1014  0.725  0.6  0.0
1015  0.75  0.6  0.0
1016  0.775  0.6  0.0
1017  0.8  0.6  0.0
1018  0.825  0.6  0.0
1019  0.85  0.6  0.0
1020  0.875  0.6  0.0
1021  0.9  0.6  0.0
1022  0.925  0.6  0.0
1023  0.95  0.6  0.0
1024  0.975  0.6  0.0
1025  1.0  0.6  0.0
1026  0.0  0.625  0.0
1027  0.025  0.625  0.0
1028  0.05  0.625  0.0
1029  0.075  0.625  0.0
1030  0.1  0.625  0.0
1031  0.125  0.625  0.0
1032  0.15  0.625  0.0
1033  0.175  0.625  0.0
1034  0.2  0.625  0.0
1035  0.225  0.625  0.0
1036  0.25  0.625  0.0
1037  0.275  0.625  0.0
1038  0.3  0.625  0.0
1039  0.325  0.625  0.0
1040  0.35  0.625  0.0
1041  0.375  0.625  0.0
1042  0.4  0.625  0.0
1043  0.425  0.625  0.0
1044  0.45  0.625  0.0
1045  0.475  0.625  0.0
1046  0.5  0.625  0.0
1047  0.525  0.625  0.0
1048  0.55  0.625  0.0
1049  0.575  0.625  0.0
1050  0.6  0.625  0.0
1051  0.625  0.625  0.0
1052  0.65  0.625  0.0
1053  0.675  0.625  0.0
1054  0.7  0.625  0.0
1055  0.725  0.625  0.0
1056  0.75  0.625  0.0
1057  0.775  0.625  0.0
1058  0.8  0.625  0.0
1059  0.825  0.625  0.0
1060  0.85  0.625  0.0
1061  0.875  0.625  0.0
1062  0.9  0.625  0.0
1063  0.925  0.625  0.0
1064  0.95  0.625  0.0
1065  0.975  0.625  0.0
1066  1.0  0.625  0.0
1067  0.0  0.65  0.0
1068  0.025  0.65  0.0
1069  0.05  0.65  0.0
1070  0.075  0.65  0.0
1071  0.1  0.65  0.0
1072  0.125  0.65  0.0
1073  0.15  0.65  0.0
1074  0.175  0.65  0.0
1075  0.2  0.65  0.0
1076  0.225  0.65  0.0
1077  0.25  0.65  0.0
1078  0.275  0.65  0.0
1079  0.3  0.65  0.0
1080  0.325  0.65  0.0
1081  0.35  0.65  0.0
1082  0.375  0.65  0.0
1083  0.4  0.65  0.0
1084  0.425  0.65  0.0
1085  0.45  0.65  0.0
1086  0.475  0.65  0.0
1087  0.5  0.65  0.0
1088  0.525  0.65  0.0
1089  0.55  0.65  0.0
1090  0.575  0.65  0.0
1091  0.6  0.65  0.0
1092  0.625  0.65  0.0
1093  0.65  0.65  0.0
1094  0.675  0.65  0.0
1095  0.7  0.65  0.0
1096  0.725  0.65  0.0
1097  0.75  0.65  0.0
1098  0.775  0.65  0.0
1099  0.8  0.65  0.0
1100  0.825  0.65  0.0
1101  0.85  0.65  0.0
1102  0.875  0.65  0.0
1103  0.9  0.65  0.0
1104  0.925  0.65  0.0
1105  0.95  0.65  0.0
1106  0.975  0.65  0.0
1107  1.0  0.65  0.0
1108  0.0  0.675  0.0
1109  0.025  0.675  0.0
1110  0.05  0.675  0.0
1111  0.075  0.675  0.0
1112  0.1  0.675  0.0
1113  0.125  0.675  0.0
1114  0.15  0.675  0.0
1115  0.175  0.675  0.0
1116  0.2  0.675  0.0
1117  0.225  0.675  0.0
1118  0.25  0.675  0.0
1119  0.275  0.675  0.0
1120  0.3  0.675  0.0
1121  0.325  0.675  0.0
1122  0.35  0.675  0.0
1123  0.375  0.675  0.0
1124  0.4  0.675  0.0
1125  0.425  0.675  0.0
1126  0.45  0.675  0.0
1127  0.475  0.675  0.0
1128  0.5  0.675  0.0
1129  0.525  0.675  0.0
1130  0.55  0.675  0.0
1131  0.575  0.675  0.0
1132  0.6  0.675  0.0
1133  0.625  0.675  0.0
1134  0.65  0.675  0.0
1135  0.675  0.675  0.0
1136  0.7  0.675  0.0
1137  0.725  0.675  0.0
1138  0.75  0.675  0.0
1139  0.775  0.675  0.0
1140  0.8  0.675  0.0
1141  0.825  0.675  0.0
1142  0.85  0.675  0.0
1143  0.875  0.675  0.0
1144  0.9  0.675  0.0
1145  0.925  0.675  0.0
1146  0.95  0.675  0.0
1147  0.975  0.675  0.0
1148  1.0  0.675  0.0
1149  0.0  0.7  0.0
1150  0.025  0.7  0.0
1151  0.05  0.7  0.0
1152  0.075  0.7  0.0
1153  0.1  0.7  0.0
1154  0.125  0.7  0.0
1155  0.15  0.7  0.0
1156  0.175  0.7  0.0
1157  0.2  0.7  0.0
1158  0.225  0.7  0.0
1159  0.25  0.7  0.0
1160  0.275  0.7  0.0
1161  0.3  0.7  0.0
1162  0.325  0.7  0.0
1163  0.35  0.7  0.0
1164  0.375  0.7  0.0
1165  0.4  0.7  0.0
1166  0.425  0.7  0.0
1167  0.45  0.7  0.0
1168  0.475  0.7  0.0
1169  0.5  0.7  0.0
1170  0.525  0.7  0.0
1171  0.55  0.7  0.0
1172  0.575  0.7  0.0
1173  0.6  0.7  0.0
1174  0.625  0.7  0.0
1175  0.65  0.7  0.0
1176  0.675  0.7  0.0
1177  0.7  0.7  0.0
1178  0.725  0.7  0.0
1179  0.75  0.7  0.0
1180  0.775  0.7  0.0
1181  0.8  0.7  0.0
1182  0.825  0.7  0.0
1183  0.85  0.7  0.0
1184  0.875  0.7  0.0
1185  0.9  0.7  0.0
1186  0.925  0.7  0.0
1187  0.95  0.7  0.0
1188  0.975  0.7  0.0
1189  1.0  0.7  0.0
1190  0.0  0.725  0.0
1191  0.025  0.725  0.0
1192  0.05  0.725  0.0
1193  0.075  0.725  0.0
1194  0.1  0.725  0.0
1195  0.125  0.725  0.0
1196  0.15  0.725  0.0
1197  0.175  0.725  0.0
1198  0.2  0.725  0.0
1199  0.225  0.725  0.0
1200  0.25  0.725  0.0
1201  0.275  0.725  0.0
1202  0.3  0.725  0.0
1203  0.325  0.725  0.0
1204  0.35  0.725  0.0
1205  0.375  0.725  0.0
1206  0.4  0.725  0.0
1207  0.425  0.725  0.0
1208  0.45  0.725  0.0
1209  0.475  0.725  0.0
1210  0.5  0.725  0.0
1211  0.525  0.725  0.0
1212  0.55  0.725  0.0
1213  0.575  0.725  0.0
1214  0.6  0.725  0.0
1215  0.625  0.725  0.0
1216  0.65  0.725  0.0
1217  0.675  0.725  0.0
1218  0.7  0.725  0.0
1219  0.725  0.725  0.0
1220  0.75  0.725  0.0
1221  0.775  0.725  0.0
1222  0.8  0.725  0.0
1223  0.825  0.725  0.0
1224  0.85  0.725  0.0
1225  0.875  0.725  0.0
1226  0.9  0.725  0.0
1227  0.925  0.725  0.0
1228  0.95  0.725  0.0
1229  0.975  0.725  0.0
1230  1.0  0.725  0.0
1231  0.0  0.75  0.0
1232  0.025  0.75  0.0
1233  0.05  0.75  0.0
1234  0.075  0.75  0.0
1235  0.1  0.75  0.0
1236  0.125  0.75  0.0
1237  0.15  0.75  0.0
1238  0.175  0.75  0.0
1239  0.2  0.75  0.0
1240  0.225  0.75  0.0
1241  0.25  0.75  0.0
1242  0.275  0.75  0.0
1243  0.3  0.75  0.0
1244  0.325  0.75  0.0
1245  0.35  0.75  0.0
1246  0.375  0.75  0.0
1247  0.4  0.75  0.0
1248  0.425  0.75  0.0
1249  0.45  0.75  0.0
1250  0.475  0.75  0.0
1251  0.5  0.75  0.0
1252  0.525  0.75  0.0
1253  0.55  0.75  0.0
1254  0.575  0.75  0.0
1255  0.6  0.75  0.0
1256  0.625  0.75  0.0
1257  0.65  0.75  0.0
1258  0.675  0.75  0.0
1259  0.7  0.75  0.0
1260  0.725  0.75  0.0
1261  0.75  0.75  0.0
1262  0.775  0.75  0.0
1263  0.8  0.75  0.0
1264  0.825  0.75  0.0
1265  0.85  0.75  0.0
1266  0.875  0.75  0.0
1267  0.9  0.75  0.0
1268  0.925  0.75  0.0
1269  0.95  0.75  0.0
1270  0.975  0.75  0.0
1271  1.0  0.75  0.0
1272  0.0  0.775  0.0
1273  0.025  0.775  0.0
1274  0.05  0.775  0.0
1275  0.075  0.775  0.0
1276  0.1  0.775  0.0
1277  0.125  0.775  0.0
1278  0.15  0.775  0.0
1279  0.175  0.775  0.0
1280  0.2  0.775  0.0
1281  0.225  0.775  0.0
1282  0.25  0.775  0.0
1283  0.275  0.775  0.0
1284  0.3  0.775  0.0
1285  0.325  0.775  0.0
1286  0.35  0.775  0.0
1287  0.375  0.775  0.0
1288  0.4  0.775  0.0
1289  0.425  0.775  0.0
1290  0.45  0.775  0.0
1291  0.475  0.775  0.0
1292  0.5  0.775  0.0
1293  0.525  0.775  0.0
1294  0.55  0.775  0.0
1295  0.575  0.775  0.0
1296  0.6  0.775  0.0
1297  0.625  0.775  0.0
1298  0.65  0.775  0.0
1299  0.675  0.775  0.0
1300  0.7  0.775  0.0
1301  0.725  0.775  0.0
1302  0.75  0.775  0.0
1303  0.775  0.775  0.0
1304  0.8  0.775  0.0
1305  0.825  0.775  0.0
1306  0.85  0.775  0.0
1307  0.875  0.775  0.0
1308  0.9  0.775  0.0
1309  0.925  0.775  0.0
1310  0.95  0.775  0.0
1311  0.975  0.775  0.0
1312  1.0  0.775  0.0
1313  0.0  0.8  0.0
1314  0.025  0.8  0.0
1315  0.05  0.8  0.0
1316  0.075  0.8  0.0
1317  0.1  0.8  0.0
1318  0.125  0.8  0.0
1319  0.15  0.8  0.0
1320  0.175  0.8  0.0
1321  0.2  0.8  0.0
1322  0.225  0.8  0.0
1323  0.25  0.8  0.0
1324  0.275  0.8  0.0
1325  0.3  0.8  0.0
1326  0.325  0.8  0.0
1327  0.35  0.8  0.0
1328  0.375  0.8  0.0
1329  0.4  0.8  0.0
1330  0.425  0.8  0.0
1331  0.45  0.8  0.0
1332  0.475  0.8  0.0
1333  0.5  0.8  0.0
1334  0.525  0.8  0.0
1335  0.55  0.8  0.0
1336  0.575  0.8  0.0
1337  0.6  0.8  0.0
1338  0.625  0.8  0.0
1339  0.65  0.8  0.0
1340  0.675  0.8  0.0
1341  0.7  0.8  0.0
1342  0.725  0.8  0.0
1343  0.75  0.8  0.0
1344  0.775  0.8  0.0
1345  0.8  0.8  0.0
1346  0.825  0.8  0.0
1347  0.85  0.8  0.0
1348  0.875  0.8  0.0
1349  0.9  0.8  0.0
1350  0.925  0.8  0.0
1351  0.95  0.8  0.0
1352  0.975  0.8  0.0
1353  1.0  0.8  0.0
1354  0.0  0.825  0.0
1355  0.025  0.825  0.0
1356  0.05  0.825  0.0
1357  0.075  0.825  0.0
1358  0.1  0.825  0.0
1359  0.125  0.825  0.0
1360  0.15  0.825  0.0
1361  0.175  0.825  0.0
1362  0.2  0.825  0.0
1363  0.225  0.825  0.0
1364  0.25  0.825  0.0
1365  0.275  0.825  0.0
1366  0.3  0.825  0.0
1367  0.325  0.825  0.0
1368  0.35  0.825  0.0
1369  0.375  0.825  0.0
1370  0.4  0.825  0.0
1371  0.425  0.825  0.0
1372  0.45  0.825  0.0
1373  0.475  0.825  0.0
1374  0.5  0.825  0.0
1375  0.525  0.825  0.0
1376  0.55  0.825  0.0
1377  0.575  0.825  0.0
1378  0.6  0.825  0.0
1379  0.625  0.825  0.0
1380  0.65  0.825  0.0
1381  0.675  0.825  0.0
1382  0.7  0.825  0.0
1383  0.725  0.825  0.0
1384  0.75  0.825  0.0
1385  0.775  0.825  0.0
1386  0.8  0.825  0.0
1387  0.825  0.825  0.0
1388  0.85  0.825  0.0
1389  0.875  0.825  0.0
1390  0.9  0.825  0.0
1391  0.925  0.825  0.0
1392  0.95  0.825  0.0
1393  0.975  0.825  0.0
1394  1.0  0.825  0.0
1395  0.0  0.85  0.0
1396  0.025  0.85  0.0
1397  0.05  0.85  0.0
1398  0.075  0.85  0.0
1399  0.1  0.85  0.0
1400  0.125  0.85  0.0
1401  0.15  0.85  0.0
1402  0.175  0.85  0.0
1403  0.2  0.85  0.0
1404  0.225  0.85  0.0
1405  0.25  0.85  0.0
1406  0.275  0.85  0.0
1407  0.3  0.85  0.0
1408  0.325  0.85  0.0
1409  0.35  0.85  0.0
1410  0.375  0.85  0.0
1411  0.4  0.85  0.0
1412  0.425  0.85  0.0
1413  0.45  0.85  0.0
1414  0.475  0.85  0.0
1415  0.5  0.85  0.0
1416  0.525  0.85  0.0
1417  0.55  0.85  0.0
1418  0.575  0.85  0.0
1419  0.6  0.85  0.0
1420  0.625  0.85  0.0
1421  0.65  0.85  0.0
1422  0.675  0.85  0.0
1423  0.7  0.85  0.0
1424  0.725  0.85  0.0
1425  0.75  0.85  0.0
1426  0.775  0.85  0.0
1427  0.8  0.85  0.0
1428  0.825  0.85  0.0
1429  0.85  0.85  0.0
1430  0.875  0.85  0.0
1431  0.9  0.85  0.0
1432  0.925  0.85  0.0
1433  0.95  0.85  0.0
1434  0.975  0.85  0.0
1435  1.0  0.85  0.0
1436  0.0  0.875  0.0
1437  0.025  0.875  0.0
1438  0.05  0.875  0.0
1439  0.075  0.875  0.0
1440  0.1  0.875  0.0
1441  0.125  0.875  0.0
1442  0.15  0.875  0.0
1443  0.175  0.875  0.0
1444  0.2  0.875  0.0
1445  0.225  0.875  0.0
1446  0.25  0.875  0.0
1447  0.275  0.875  0.0
1448  0.3  0.875  0.0
1449  0.325  0.875  0.0
1450  0.35  0.875  0.0
1451  0.375  0.875  0.0
1452  0.4  0.875  0.0
1453  0.425  0.875  0.0
1454  0.45  0.875  0.0
1455  0.475  0.875  0.0
1456  0.5  0.875  0.0
1457  0.525  0.875  0.0
1458  0.55  0.875  0.0
1459  0.575  0.875  0.0
1460  0.6  0.875  0.0
1461  0.625  0.875  0.0
1462  0.65  0.875  0.0
1463  0.675  0.875  0.0
1464  0.7  0.875  0.0
1465  0.725  0.875  0.0
1466  0.75  0.875  0.0
1467  0.775  0.875  0.0
1468  0.8  0.875  0.0
1469  0.825  0.875  0.0
1470  0.85  0.875  0.0
1471  0.875  0.875  0.0
1472  0.9  0.875  0.0
1473  0.925  0.875  0.0
1474  0.95  0.875  0.0
1475  0.975  0.875  0.0
1476  1.0  0.875  0.0
1477  0.0  0.9  0.0
1478  0.025  0.9  0.0
1479  0.05  0.9  0.0
1480  0.075  0.9  0.0
1481  0.1  0.9  0.0
1482  0.125  0.9  0.0
1483  0.15  0.9  0.0
1484  0.175  0.9  0.0
1485  0.2  0.9  0.0
1486  0.225  0.9  0.0
1487  0.25  0.9  0.0
1488  0.275  0.9  0.0
1489  0.3  0.9  0.0
1490  0.325  0.9  0.0
1491  0.35  0.9  0.0
1492  0.375  0.9  0.0
1493  0.4  0.9  0.0
1494  0.425  0.9  0.0
1495  0.45  0.9  0.0
1496  0.475  0.9  0.0
1497  0.5  0.9  0.0
1498  0.525  0.9  0.0
1499  0.55  0.9  0.0
1500  0.575  0.9  0.0
1501  0.6  0.9  0.0
1502  0.625  0.9  0.0
1503  0.65  0.9  0.0
1504  0.675  0.9  0.0
1505  0.7  0.9  0.0
1506  0.725  0.9  0.0
1507  0.75  0.9  0.0
1508  0.775  0.9  0.0
1509  0.8  0.9  0.0
1510  0.825  0.9  0.0
1511  0.85  0.9  0.0
1512  0.875  0.9  0.0
1513  0.9  0.9  0.0
1514  0.925  0.9  0.0
1515  0.95  0.9  0.0
1516  0.975  0.9  0.0
1517  1.0  0.9  0.0
1518  0.0  0.925  0.0
1519  0.025  0.925  0.0
1520  0.05  0.925  0.0
1521  0.075  0.925  0.0
1522  0.1  0.925  0.0
1523  0.125  0.925  0.0
1524  0.15  0.925  0.0
1525  0.175  0.925  0.0
1526  0.2  0.925  0.0
1527  0.225  0.925  0.0
1528  0.25  0.925  0.0
1529  0.275  0.925  0.0
1530  0.3  0.925  0.0
1531  0.325  0.925  0.0
1532  0.35  0.925  0.0
1533  0.375  0.925  0.0
1534  0.4  0.925  0.0
1535  0.425  0.925  0.0
1536  0.45  0.925  0.0
1537  0.475  0.925  0.0
1538  0.5  0.925  0.0
1539  0.525  0.925  0.0
1540  0.55  0.925  0.0
1541  0.575  0.925  0.0
1542  0.6  0.925  0.0
1543  0.625  0.925  0.0
1544  0.65  0.925  0.0
1545  0.675  0.925  0.0
1546  0.7  0.925  0.0
1547  0.725  0.925  0.0
1548  0.75  0.925  0.0
1549  0.775  0.925  0.0
1550  0.8  0.925  0.0
1551  0.825  0.925  0.0
1552  0.85  0.925  0.0
1553  0.875  0.925  0.0
1554  0.9  0.925  0.0
1555  0.925  0.925  0.0
1556  0.95  0.925  0.0
1557  0.975  0.925  0.0
1558  1.0  0.925  0.0
1559  0.0  0.95  0.0
1560  0.025  0.95  0.0
1561  0.05  0.95  0.0
1562  0.075  0.95  0.0
1563  0.1  0.95  0.0
1564  0.125  0.95  0.0
1565  0.15  0.95  0.0
1566  0.175  0.95  0.0
1567  0.2  0.95  0.0
1568  0.225  0.95  0.0
1569  0.25  0.95  0.0
1570  0.275  0.95  0.0
1571  0.3  0.95  0.0
1572  0.325  0.95  0.0
1573  0.35  0.95  0.0
1574  0.375  0.95  0.0
1575  0.4  0.95  0.0
1576  0.425  0.95  0.0
1577  0.45  0.95  0.0
1578  0.475  0.95  0.0
1579  0.5  0.95  0.0
1580  0.525  0.95  0.0
1581  0.55  0.95  0.0
1582  0.575  0.95  0.0
1583  0.6  0.95  0.0
1584  0.625  0.95  0.0
1585  0.65  0.95  0.0
1586  0.675  0.95  0.0
1587  0.7  0.95  0.0
1588  0.725  0.95  0.0
1589  0.75  0.95  0.0
1590  0.775  0.95  0.0
1591  0.8  0.95  0.0
1592  0.825  0.95  0.0
1593  0.85  0.95  0.0
1594  0.875  0.95  0.0
1595  0.9  0.95  0.0
1596  0.925  0.95  0.0
1597  0.95  0.95  0.0
1598  0.975  0.95  0.0
1599  1.0  0.95  0.0
1600  0.0  0.975  0.0
1601  0.025  0.975  0.0
1602  0.05  0.975  0.0
1603  0.075  0.975  0.0
1604  0.1  0.975  0.0
1605  0.125  0.975  0.0
1606  0.15  0.975  0.0
1607  0.175  0.975  0.0
1608  0.2  0.975  0.0
1609  0.225  0.975  0.0
1610  0.25  0.975  0.0
1611  0.275  0.975  0.0
1612  0.3  0.975  0.0
1613  0.325  0.975  0.0
1614  0.35  0.975  0.0
1615  0.375  0.975  0.0
1616  0.4  0.975  0.0
1617  0.425  0.975  0.0
1618  0.45  0.975  0.0
1619  0.475  0.975  0.0
1620  0.5  0.975  0.0
1621  0.525  0.975  0.0
1622  0.55  0.975  0.0
1623  0.575  0.975  0.0
1624  0.6  0.975  0.0
1625  0.625  0.975  0.0
1626  0.65  0.975  0.0
1627  0.675  0.975  0.0
1628  0.7  0.975  0.0
1629  0.725  0.975  0.0
1630  0.75  0.975  0.0
1631  0.775  0.975  0.0
1632  0.8  0.975  0.0
1633  0.825  0.975  0.0
1634  0.85  0.975  0.0
1635  0.875  0.975  0.0
1636  0.9  0.975  0.0
1637  0.925  0.975  0.0
1638  0.95  0.975  0.0
1639  0.975  0.975  0.0
1640  1.0  0.975  0.0
1641  0.0  1.0  0.0
1642  0.025  1.0  0.0
1643  0.05  1.0  0.0
1644  0.075  1.0  0.0
1645  0.1  1.0  0.0
1646  0.125  1.0  0.0
1647  0.15  1.0  0.0
1648  0.175  1.0  0.0
1649  0.2  1.0  0.0
1650  0.225  1.0  0.0
1651  0.25  1.0  0.0
1652  0.275  1.0  0.0
1653  0.3  1.0  0.0
1654  0.325  1.0  0.0
1655  0.35  1.0  0.0
1656  0.375  1.0  0.0
1657  0.4  1.0  0.0
1658  0.425  1.0  0.0
1659  0.45  1.0  0.0
1660  0.475  1.0  0.0
1661  0.5  1.0  0.0
1662  0.525  1.0  0.0
1663  0.55  1.0  0.0
1664  0.575  1.0  0.0
1665  0.6  1.0  0.0
1666  0.625  1.0  0.0
1667  0.65  1.0  0.0
1668  0.675  1.0  0.0
1669  0.7  1.0  0.0
1670  0.725  1.0  0.0
1671  0.75  1.0  0.0
1672  0.775  1.0  0.0
1673  0.8  1.0  0.0
1674  0.825  1.0  0.0
1675  0.85  1.0  0.0
1676  0.875  1.0  0.0
1677  0.9  1.0  0.0
1678  0.925  1.0  0.0
1679  0.95  1.0  0.0
1680  0.975  1.0  0.0
1681  1.0  1.0  0.0

[1D Elements]
#ElemNr  ElemType  NrOfNodes  Level
#Node1 Node2 ... NodeNrOfNodes

[2D Elements]
#ElemNr  ElemType  NrOfNodes  Level
#Node1 Node2 ... NodeNrOfNodes
1 6 4 mech
1 2 43 42
2 6 4 mech
2 3 44 43
3 6 4 mech
3 4 45 44
4 6 4 mech
4 5 46 45
5 6 4 mech
5 6 47 46
6 6 4 mech
6 7 48 47
7 6 4 mech
7 8 49 48
8 6 4 mech
8 9 50 49
9 6 4 mech
9 10 51 50
10 6 4 mech
10 11 52 51
11 6 4 mech
11 12 53 52
12 6 4 mech
12 13 54 53
13 6 4 mech
13 14 55 54
14 6 4 mech
14 15 56 55
15 6 4 mech
15 16 57 56
16 6 4 mech
16 17 58 57
17 6 4 mech
17 18 59 58
18 6 4 mech
18 19 60 59
19 6 4 mech
19 20 61 60
20 6 4 mech
20 21 62 61
21 6 4 mech
21 22 63 62
22 6 4 mech
22 23 64 63
23 6 4 mech
23 24 65 64
24 6 4 mech
24 25 66 65
25 6 4 mech
25 26 67 66
26 6 4 mech
26 27 68 67
27 6 4 mech
27 28 69 68
28 6 4 mech
28 29 70 69
29 6 4 mech
29 30 71 70
30 6 4 mech
30 31 72 71
31 6 4 mech
31 32 73 72
32 6 4 mech
32 33 74 73
33 6 4 mech
33 34 75 74
34 6 4 mech
34 35 76 75
35 6 4 mech
35 36 77 76
36 6 4 mech
36 37 78 77
37 6 4 mech
37 38 79 78
38 6 4 mech
38 39 80 79
39 6 4 mech
39 40 81 80
40 6 4 mech
40 41 82 81
41 6 4 mech
42 43 84 83
42 6 4 mech
43 44 85 84
43 6 4 mech
44 45 86 85
44 6 4 mech
45 46 87 86
45 6 4 mech
46 47 88 87
46 6 4 mech
47 48 89 88
47 6 4 mech
48 49 90 89
48 6 4 mech
49 50 91 90
49 6 4 mech
50 51 92 91
50 6 4 mech
51 52 93 92
51 6 4 mech
52 53 94 93
52 6 4 mech
53 54 95 94
53 6 4 mech
54 55 96 95
54 6 4 mech
55 56 97 96
55 6 4 mech
56 57 98 97
56 6 4 mech
57 58 99 98
57 6 4 mech
58 59 100 99
58 6 4 mech
59 60 101 100
59 6 4 mech
60 61 102 101
60 6 4 mech
61 62 103 102
61 6 4 mech
62 63 104 103
62 6 4 mech
63 64 105 104
63 6 4 mech
64 65 106 105
64 6 4 mech
65 66 107 106
65 6 4 mech
66 67 108 107
66 6 4 mech
67 68 109 108
67 6 4 mech
68 69 110 109
68 6 4 mech
69 70 111 110
69 6 4 mech
70 71 112 111
70 6 4 mech
71 72 113 112
71 6 4 mech
72 73 114 113
72 6 4 mech
73 74 115 114
73 6 4 mech
74 75 116 115
74 6 4 mech
75 76 117 116
75 6 4 mech
76 77 118 117
76 6 4 mech
77 78 119 118
77 6 4 mech
78 79 120 119
78 6 4 mech
79 80 121 120
79 6 4 mech
80 81 122 121
80 6 4 mech
81 82 123 122
81 6 4 mech
83 84 125 124
82 6 4 mech
84 85 126 125
83 6 4 mech
85 86 127 126
84 6 4 mech
86 87 128 127
85 6 4 mech
87 88 129 128
86 6 4 mech
88 89 130 129
87 6 4 mech
89 90 131 130
88 6 4 mech
90 91 132 131
89 6 4 mech
91 92 133 132
90 6 4 mech
92 93 134 133
91 6 4 mech
93 94 135 134
92 6 4 mech
94 95 136 135
93 6 4 mech
95 96 137 136
94 6 4 mech
96 97 138 137
95 6 4 mech
97 98 139 138
96 6 4 mech
98 99 140 139
97 6 4 mech
99 100 141 140
98 6 4 mech
100 101 142 141
99 6 4 mech
101 102 143 142
100 6 4 mech
102 103 144 143
101 6 4 mech
103 104 145 144
102 6 4 mech
104 105 146 145
103 6 4 mech
105 106 147 146
104 6 4 mech
106 107 148 147
105 6 4 mech
107 108 149 148
106 6 4 mech
108 109 150 149
107 6 4 mech
109 110 151 150
108 6 4 mech
110 111 152 151
109 6 4 mech
111 112 153 152
110 6 4 mech
112 113 154 153
111 6 4 mech
113 114 155 154
112 6 4 mech
114 115 156 155
113 6 4 mech
115 116 157 156
114 6 4 mech
116 117 158 157
115 6 4 mech
117 118 159 158
116 6 4 mech
118 119 160 159
117 6 4 mech
119 120 161 160
118 6 4 mech
120 121 162 161
119 6 4 mech
121 122 163 162
120 6 4 mech
122 123 164 163
121 6 4 mech
124 125 166 165
122 6 4 mech
125 126 167 166
123 6 4 mech
126 127 168 167
124 6 4 mech
127 128 169 168
125 6 4 mech
128 129 170 169
126 6 4 mech
129 130 171 170
127 6 4 mech
130 131 172 171
128 6 4 mech
131 132 173 172
129 6 4 mech
132 133 174 173
130 6 4 mech
133 134 175 174
131 6 4 mech
134 135 176 175
132 6 4 mech
135 136 177 176
133 6 4 mech
136 137 178 177
134 6 4 mech
137 138 179 178
135 6 4 mech
138 139 180 179
136 6 4 mech
139 140 181 180
137 6 4 mech
140 141 182 181
138 6 4 mech
141 142 183 182
139 6 4 mech
142 143 184 183
140 6 4 mech
143 144 185 184
141 6 4 mech
144 145 186 185
142 6 4 mech
145 146 187 186
143 6 4 mech
146 147 188 187
144 6 4 mech
147 148 189 188
145 6 4 mech
148 149 190 189
146 6 4 mech
149 150 191 190
147 6 4 mech
150 151 192 191
148 6 4 mech
151 152 193 192
149 6 4 mech
152 153 194 193
150 6 4 mech
153 154 195 194
151 6 4 mech
154 155 196 195
152 6 4 mech
155 156 197 196
153 6 4 mech
156 157 198 197
154 6 4 mech
157 158 199 198
155 6 4 mech
158 159 200 199
156 6 4 mech
159 160 201 200
157 6 4 mech
160 161 202 201
158 6 4 mech
161 162 203 202
159 6 4 mech
162 163 204 203
160 6 4 mech
163 164 205 204
161 6 4 mech
165 166 207 206
162 6 4 mech
166 167 208 207
163 6 4 mech
167 168 209 208
164 6 4 mech
168 169 210 209
165 6 4 mech
169 170 211 210
166 6 4 mech
170 171 212 211
167 6 4 mech
171 172 213 212
168 6 4 mech
172 173 214 213
169 6 4 mech
173 174 215 214
170 6 4 mech
174 175 216 215
171 6 4 mech
175 176 217 216
172 6 4 mech
176 177 218 217
173 6 4 mech
177 178 219 218
174 6 4 mech
178 179 220 219
175 6 4 mech
179 180 221 220
176 6 4 mech
180 181 222 221
177 6 4 mech
181 182 223 222
178 6 4 mech
182 183 224 223
179 6 4 mech
183 184 225 224
180 6 4 mech
184 185 226 225
181 6 4 mech
185 186 227 226
182 6 4 mech
186 187 228 227
183 6 4 mech
187 188 229 228
184 6 4 mech
188 189 230 229
185 6 4 mech
189 190 231 230
186 6 4 mech
190 191 232 231
187 6 4 mech
191 192 233 232
188 6 4 mech
192 193 234 233
189 6 4 mech
193 194 235 234
190 6 4 mech
194 195 236 235
191 6 4 mech
195 196 237 236
192 6 4 mech
196 197 238 237
193 6 4 mech
197 198 239 238
194 6 4 mech
198 199 240 239
195 6 4 mech
199 200 241 240
196 6 4 mech
200 201 242 241
197 6 4 mech
201 202 243 242
198 6 4 mech
202 203 244 243
199 6 4 mech
203 204 245 244
200 6 4 mech
204 205 246 245
201 6 4 mech
206 207 248 247
202 6 4 mech
207 208 249 248
203 6 4 mech
208 209 250 249
204 6 4 mech
209 210 251 250
205 6 4 mech
210 211 252 251
206 6 4 mech
211 212 253 252
207 6 4 mech
212 213 254 253
208 6 4 mech
213 214 255 254
209 6 4 mech
214 215 256 255
210 6 4 mech
215 216 257 256
211 6 4 mech
216 217 258 257
212 6 4 mech
217 218 259 258
213 6 4 mech
218 219 260 259
214 6 4 mech
219 220 261 260
215 6 4 mech
220 221 262 261
216 6 4 mech
221 222 263 262
217 6 4 mech
222 223 264 263
218 6 4 mech
223 224 265 264
219 6 4 mech
224 225 266 265
220 6 4 mech
225 226 267 266
221 6 4 mech
226 227 268 267
222 6 4 mech
227 228 269 268
223 6 4 mech
228 229 270 269
224 6 4 mech
229 230 271 270
225 6 4 mech
230 231 272 271
226 6 4 mech
231 232 273 272
227 6 4 mech
232 233 274 273
228 6 4 mech
233 234 275 274
229 6 4 mech
234 235 276 275
230 6 4 mech
235 236 277 276
231 6 4 mech
236 237 278 277
232 6 4 mech
237 238 279 278
233 6 4 mech
238 239 280 279
234 6 4 mech
239 240 281 280
235 6 4 mech
240 241 282 281
236 6 4 mech
241 242 283 282
237 6 4 mech
242 243 284 283
238 6 4 mech
243 244 285 284
239 6 4 mech
244 245 286 285
240 6 4 mech
245 246 287 286
241 6 4 mech
247 248 289 288
242 6 4 mech
248 249 290 289
243 6 4 mech
249 250 291 290
244 6 4 mech
250 251 292 291
245 6 4 mech
251 252 293 292
246 6 4 mech
252 253 294 293
247 6 4 mech
253 254 295 294
248 6 4 mech
254 255 296 295
249 6 4 mech
255 256 297 296
250 6 4 mech
256 257 298 297
251 6 4 mech
257 258 299 298
252 6 4 mech
258 259 300 299
253 6 4 mech
259 260 301 300
254 6 4 mech
260 261 302 301
255 6 4 mech
261 262 303 302
256 6 4 mech
262 263 304 303
257 6 4 mech
263 264 305 304
258 6 4 mech
264 265 306 305
259 6 4 mech
265 266 307 306
260 6 4 mech
266 267 308 307
261 6 4 mech
267 268 309 308
262 6 4 mech
268 269 310 309
263 6 4 mech
269 270 311 310
264 6 4 mech
270 271 312 311
265 6 4 mech
271 272 313 312
266 6 4 mech
272 273 314 313
267 6 4 mech
273 274 315 314
268 6 4 mech
274 275 316 315
269 6 4 mech
275 276 317 316
270 6 4 mech
276 277 318 317
271 6 4 mech
277 278 319 318
272 6 4 mech
278 279 320 319
273 6 4 mech
279 280 321 320
274 6 4 mech
280 281 322 321
275 6 4 mech
281 282 323 322
276 6 4 mech
282 283 324 323
277 6 4 mech
283 284 325 324
278 6 4 mech
284 285 326 325
279 6 4 mech
285 286 327 326
280 6 4 mech
286 287 328 327
281 6 4 mech
288 289 330 329
282 6 4 mech
289 290 331 330
283 6 4 mech
290 291 332 331
284 6 4 mech
291 292 333 332
285 6 4 mech
292 293 334 333
286 6 4 mech
293 294 335 334
287 6 4 mech
294 295 336 335
288 6 4 mech
295 296 337 336
289 6 4 mech
296 297 338 337
290 6 4 mech
297 298 339 338
291 6 4 mech
298 299 340 339
292 6 4 mech
299 300 341 340
293 6 4 mech
300 301 342 341
294 6 4 mech
301 302 343 342
295 6 4 mech
302 303 344 343
296 6 4 mech
303 304 345 344
297 6 4 mech
304 305 346 345
298 6 4 mech
305 306 347 346
299 6 4 mech
306 307 348 347
300 6 4 mech
307 308 349 348
301 6 4 mech
308 309 350 349
302 6 4 mech
309 310 351 350
303 6 4 mech
310 311 352 351
304 6 4 mech
311 312 353 352
305 6 4 mech
312 313 354 353
306 6 4 mech
313 314 355 354
307 6 4 mech
314 315 356 355
308 6 4 mech
315 316 357 356
309 6 4 mech
316 317 358 357
310 6 4 mech
317 318 359 358
311 6 4 mech
318 319 360 359
312 6 4 mech
319 320 361 360
313 6 4 mech
320 321 362 361
314 6 4 mech
321 322 363 362
315 6 4 mech
322 323 364 363
316 6 4 mech
323 324 365 364
317 6 4 mech
324 325 366 365
318 6 4 mech
325 326 367 366
319 6 4 mech
326 327 368 367
320 6 4 mech
327 328 369 368
321 6 4 mech
329 330 371 370
322 6 4 mech
330 331 372 371
323 6 4 mech
331 332 373 372
324 6 4 mech
332 333 374 373
325 6 4 mech
333 334 375 374
326 6 4 mech
334 335 376 375
327 6 4 mech
335 336 377 376
328 6 4 mech
336 337 378 377
329 6 4 mech
337 338 379 378
330 6 4 mech
338 339 380 379
331 6 4 mech
339 340 381 380
332 6 4 mech
340 341 382 381
333 6 4 mech
341 342 383 382
334 6 4 mech
342 343 384 383
335 6 4 mech
343 344 385 384
336 6 4 mech
344 345 386 385
337 6 4 mech
345 346 387 386
338 6 4 mech
346 347 388 387
339 6 4 mech
347 348 389 388
340 6 4 mech
348 349 390 389
341 6 4 mech
349 350 391 390
342 6 4 mech
350 351 392 391
343 6 4 mech
351 352 393 392
344 6 4 mech
352 353 394 393
345 6 4 mech
353 354 395 394
346 6 4 mech
354 355 396 395
347 6 4 mech
355 356 397 396
348 6 4 mech
356 357 398 397
349 6 4 mech
357 358 399 398
350 6 4 mech
358 359 400 399
351 6 4 mech
359 360 401 400
352 6 4 mech
360 361 402 401
353 6 4 mech
361 362 403 402
354 6 4 mech
362 363 404 403
355 6 4 mech
363 364 405 404
356 6 4 mech
364 365 406 405
357 6 4 mech
365 366 407 406
358 6 4 mech
366 367 408 407
359 6 4 mech
367 368 409 408
360 6 4 mech
368 369 410 409
361 6 4 mech
370 371 412 411
362 6 4 mech
371 372 413 412
363 6 4 mech
372 373 414 413
364 6 4 mech
373 374 415 414
365 6 4 mech
374 375 416 415
366 6 4 mech
375 376 417 416
367 6 4 mech
376 377 418 417
368 6 4 mech
377 378 419 418
369 6 4 mech
378 379 420 419
370 6 4 mech
379 380 421 420
371 6 4 mech
380 381 422 421
372 6 4 mech
381 382 423 422
373 6 4 mech
382 383 424 423
374 6 4 mech
383 384 425 424
375 6 4 mech
384 385 426 425
376 6 4 mech
385 386 427 426
377 6 4 mech
386 387 428 427
378 6 4 mech
387 388 429 428
379 6 4 mech
388 389 430 429
380 6 4 mech
389 390 431 430
381 6 4 mech
390 391 432 431
382 6 4 mech
391 392 433 432
383 6 4 mech
392 393 434 433
384 6 4 mech
393 394 435 434
385 6 4 mech
394 395 436 435
386 6 4 mech
395 396 437 436
387 6 4 mech
396 397 438 437
388 6 4 mech
397 398 439 438
389 6 4 mech
398 399 440 439
390 6 4 mech
399 400 441 440
391 6 4 mech
400 401 442 441
392 6 4 mech
401 402 443 442
393 6 4 mech
402 403 444 443
394 6 4 mech
403 404 445 444
395 6 4 mech
404 405 446 445
396 6 4 mech
405 406 447 446
397 6 4 mech
406 407 448 447
398 6 4 mech
407 408 449 448
399 6 4 mech
408 409 450 449
400 6 4 mech
409 410 451 450
401 6 4 mech
411 412 453 452
402 6 4 mech
412 413 454 453
403 6 4 mech
413 414 455 454
404 6 4 mech
414 415 456 455
405 6 4 mech
415 416 457 456
406 6 4 mech
416 417 458 457
407 6 4 mech
417 418 459 458
408 6 4 mech
418 419 460 459
409 6 4 mech
419 420 461 460
410 6 4 mech
420 421 462 461
411 6 4 mech
421 422 463 462
412 6 4 mech
422 423 464 463
413 6 4 mech
423 424 465 464
414 6 4 mech
424 425 466 465
415 6 4 mech
425 426 467 466
416 6 4 mech
426 427 468 467
417 6 4 mech
427 428 469 468
418 6 4 mech
428 429 470 469
419 6 4 mech
429 430 471 470
420 6 4 mech
430 431 472 471
421 6 4 mech
431 432 473 472
422 6 4 mech
432 433 474 473
423 6 4 mech
433 434 475 474
424 6 4 mech
434 435 476 475
425 6 4 mech
435 436 477 476
426 6 4 mech
436 437 478 477
427 6 4 mech
437 438 479 478
428 6 4 mech
438 439 480 479
429 6 4 mech
439 440 481 480
430 6 4 mech
440 441 482 481
431 6 4 mech
441 442 483 482
432 6 4 mech
442 443 484 483
433 6 4 mech
443 444 485 484
434 6 4 mech
444 445 486 485
435 6 4 mech
445 446 487 486
436 6 4 mech
446 447 488 487
437 6 4 mech
447 448 489 488
438 6 4 mech
448 449 490 489
439 6 4 mech
449 450 491 490
440 6 4 mech
450 451 492 491
441 6 4 mech
452 453 494 493
442 6 4 mech
453 454 495 494
443 6 4 mech
454 455 496 495
444 6 4 mech
455 456 497 496
445 6 4 mech
456 457 498 497
446 6 4 mech
457 458 499 498
447 6 4 mech
458 459 500 499
448 6 4 mech
459 460 501 500
449 6 4 mech
460 461 502 501
450 6 4 mech
461 462 503 502
451 6 4 mech
462 463 504 503
452 6 4 mech
463 464 505 504
453 6 4 mech
464 465 506 505
454 6 4 mech
465 466 507 506
455 6 4 mech
466 467 508 507
456 6 4 mech
467 468 509 508
457 6 4 mech
468 469 510 509
458 6 4 mech
469 470 511 510
459 6 4 mech
470 471 512 511
460 6 4 mech
471 472 513 512
461 6 4 mech
472 473 514 513
462 6 4 mech
473 474 515 514
463 6 4 mech
474 475 516 515
464 6 4 mech
475 476 517 516
465 6 4 mech
476 477 518 517
466 6 4 mech
477 478 519 518
467 6 4 mech
478 479 520 519
468 6 4 mech
479 480 521 520
469 6 4 mech
480 481 522 521
470 6 4 mech
481 482 523 522
471 6 4 mech
482 483 524 523
472 6 4 mech
483 484 525 524
473 6 4 mech
484 485 526 525
474 6 4 mech
485 486 527 526
475 6 4 mech
486 487 528 527
476 6 4 mech
487 488 529 528
477 6 4 mech
488 489 530 529
478 6 4 mech
489 490 531 530
479 6 4 mech
490 491 532 531
480 6 4 mech
491 492 533 532
481 6 4 mech
493 494 535 534
482 6 4 mech
494 495 536 535
483 6 4 mech
495 496 537 536
484 6 4 mech
496 497 538 537
485 6 4 mech
497 498 539 538
486 6 4 mech
498 499 540 539
487 6 4 mech
499 500 541 540
488 6 4 mech
500 501 542 541
489 6 4 mech
501 502 543 542
490 6 4 mech
502 503 544 543
491 6 4 mech
503 504 545 544
492 6 4 mech
504 505 546 545
493 6 4 mech
505 506 547 546
494 6 4 mech
506 507 548 547
495 6 4 mech
507 508 549 548
496 6 4 mech
508 509 550 549
497 6 4 mech
509 510 551 550
498 6 4 mech
510 511 552 551
499 6 4 mech
511 512 553 552
500 6 4 mech
512 513 554 553
501 6 4 mech
513 514 555 554
502 6 4 mech
514 515 556 555
503 6 4 mech
515 516 557 556
504 6 4 mech
516 517 558 557
505 6 4 mech
517 518 559 558
506 6 4 mech
518 519 560 559
507 6 4 mech
519 520 561 560
508 6 4 mech
520 521 562 561
509 6 4 mech
521 522 563 562
510 6 4 mech
522 523 564 563
511 6 4 mech
523 524 565 564
512 6 4 mech
524 525 566 565
513 6 4 mech
525 526 567 566
514 6 4 mech
526 527 568 567
515 6 4 mech
527 528 569 568
516 6 4 mech
528 529 570 569
517 6 4 mech
529 530 571 570
518 6 4 mech
530 531 572 571
519 6 4 mech
531 532 573 572
520 6 4 mech
532 533 574 573
521 6 4 mech
534 535 576 575
522 6 4 mech
535 536 577 576
523 6 4 mech
536 537 578 577
524 6 4 mech
537 538 579 578
525 6 4 mech
538 539 580 579
526 6 4 mech
539 540 581 580
527 6 4 mech
540 541 582 581
528 6 4 mech
541 542 583 582
529 6 4 mech
542 543 584 583
530 6 4 mech
543 544 585 584
531 6 4 mech
544 545 586 585
532 6 4 mech
545 546 587 586
533 6 4 mech
546 547 588 587
534 6 4 mech
547 548 589 588
535 6 4 mech
548 549 590 589
536 6 4 mech
549 550 591 590
537 6 4 mech
550 551 592 591
538 6 4 mech
551 552 593 592
539 6 4 mech
552 553 594 593
540 6 4 mech
553 554 595 594
541 6 4 mech
554 555 596 595
542 6 4 mech
555 556 597 596
543 6 4 mech
556 557 598 597
544 6 4 mech
557 558 599 598
545 6 4 mech
558 559 600 599
546 6 4 mech
559 560 601 600
547 6 4 mech
560 561 602 601
548 6 4 mech
561 562 603 602
549 6 4 mech
562 563 604 603
550 6 4 mech
563 564 605 604
551 6 4 mech
564 565 606 605
552 6 4 mech
565 566 607 606
553 6 4 mech
566 567 608 607
554 6 4 mech
567 568 609 608
555 6 4 mech
568 569 610 609
556 6 4 mech
569 570 611 610
557 6 4 mech
570 571 612 611
558 6 4 mech
571 572 613 612
559 6 4 mech
572 573 614 613
560 6 4 mech
573 574 615 614
561 6 4 mech
575 576 617 616
562 6 4 mech
576 577 618 617
563 6 4 mech
577 578 619 618
564 6 4 mech
578 579 620 619
565 6 4 mech
579 580 621 620
566 6 4 mech
580 581 622 621
567 6 4 mech
581 582 623 622
568 6 4 mech
582 583 624 623
569 6 4 mech
583 584 625 624
570 6 4 mech
584 585 626 625
571 6 4 mech
585 586 627 626
572 6 4 mech
586 587 628 627
573 6 4 mech
587 588 629 628
574 6 4 mech
588 589 630 629
575 6 4 mech
589 590 631 630
576 6 4 mech
590 591 632 631
577 6 4 mech
591 592 633 632
578 6 4 mech
592 593 634 633
579 6 4 mech
593 594 635 634
580 6 4 mech
594 595 636 635
581 6 4 mech
595 596 637 636
582 6 4 mech
596 597 638 637
583 6 4 mech
597 598 639 638
584 6 4 mech
598 599 640 639
585 6 4 mech
599 600 641 640
586 6 4 mech
600 601 642 641
587 6 4 mech
601 602 643 642
588 6 4 mech
602 603 644 643
589 6 4 mech
603 604 645 644
590 6 4 mech
604 605 646 645
591 6 4 mech
605 606 647 646
592 6 4 mech
606 607 648 647
593 6 4 mech
607 608 649 648
594 6 4 mech
608 609 650 649
595 6 4 mech
609 610 651 650
596 6 4 mech
610 611 652 651
597 6 4 mech
611 612 653 652
598 6 4 mech
612 613 654 653
599 6 4 mech
613 614 655 654
600 6 4 mech
614 615 656 655
601 6 4 mech
616 617 658 657
602 6 4 mech
617 618 659 658
603 6 4 mech
618 619 660 659
604 6 4 mech
619 620 661 660
605 6 4 mech
620 621 662 661
606 6 4 mech
621 622 663 662
607 6 4 mech
622 623 664 663
608 6 4 mech
623 624 665 664
609 6 4 mech
624 625 666 665
610 6 4 mech
625 626 667 666
611 6 4 mech
626 627 668 667
612 6 4 mech
627 628 669 668
613 6 4 mech
628 629 670 669
614 6 4 mech
629 630 671 670
615 6 4 mech
630 631 672 671
616 6 4 mech
631 632 673 672
617 6 4 mech
632 633 674 673
618 6 4 mech
633 634 675 674
619 6 4 mech
634 635 676 675
620 6 4 mech
635 636 677 676
621 6 4 mech
636 637 678 677
622 6 4 mech
637 638 679 678
623 6 4 mech
638 639 680 679
624 6 4 mech
639 640 681 680
625 6 4 mech
640 641 682 681
626 6 4 mech
641 642 683 682
627 6 4 mech
642 643 684 683
628 6 4 mech
643 644 685 684
629 6 4 mech
644 645 686 685
630 6 4 mech
645 646 687 686
631 6 4 mech
646 647 688 687
632 6 4 mech
647 648 689 688
633 6 4 mech
648 649 690 689
634 6 4 mech
649 650 691 690
635 6 4 mech
650 651 692 691
636 6 4 mech
651 652 693 692
637 6 4 mech
652 653 694 693
638 6 4 mech
653 654 695 694
639 6 4 mech
654 655 696 695
640 6 4 mech
655 656 697 696
641 6 4 mech
657 658 699 698
642 6 4 mech
658 659 700 699
643 6 4 mech
659 660 701 700
644 6 4 mech
660 661 702 701
645 6 4 mech
661 662 703 702
646 6 4 mech
662 663 704 703
647 6 4 mech
663 664 705 704
648 6 4 mech
664 665 706 705
649 6 4 mech
665 666 707 706
650 6 4 mech
666 667 708 707
651 6 4 mech
667 668 709 708
652 6 4 mech
668 669 710 709
653 6 4 mech
669 670 711 710
654 6 4 mech
670 671 712 711
655 6 4 mech
671 672 713 712
656 6 4 mech
672 673 714 713
657 6 4 mech
673 674 715 714
658 6 4 mech
674 675 716 715
659 6 4 mech
675 676 717 716
660 6 4 mech
676 677 718 717
661 6 4 mech
677 678 719 718
662 6 4 mech
678 679 720 719
663 6 4 mech
679 680 721 720
664 6 4 mech
680 681 722 721
665 6 4 mech
681 682 723 722
666 6 4 mech
682 683 724 723
667 6 4 mech
683 684 725 724
668 6 4 mech
684 685 726 725
669 6 4 mech
685 686 727 726
670 6 4 mech
686 687 728 727
671 6 4 mech
687 688 729 728
672 6 4 mech
688 689 730 729
673 6 4 mech
689 690 731 730
674 6 4 mech
690 691 732 731
675 6 4 mech
691 692 733 732
676 6 4 mech
692 693 734 733
677 6 4 mech
693 694 735 734
678 6 4 mech
694 695 736 735
679 6 4 mech
695 696 737 736
680 6 4 mech
696 697 738 737
681 6 4 mech
698 699 740 739
682 6 4 mech
699 700 741 740
683 6 4 mech
700 701 742 741
684 6 4 mech
701 702 743 742
685 6 4 mech
702 703 744 743
686 6 4 mech
703 704 745 744
687 6 4 mech
704 705 746 745
688 6 4 mech
705 706 747 746
689 6 4 mech
706 707 748 747
690 6 4 mech
707 708 749 748
691 6 4 mech
708 709 750 749
692 6 4 mech
709 710 751 750
693 6 4 mech
710 711 752 751
694 6 4 mech
711 712 753 752
695 6 4 mech
712 713 754 753
696 6 4 mech
713 714 755 754
697 6 4 mech
714 715 756 755
698 6 4 mech
715 716 757 756
699 6 4 mech
716 717 758 757
700 6 4 mech
717 718 759 758
701 6 4 mech
718 719 760 759
702 6 4 mech
719 720 761 760
703 6 4 mech
720 721 762 761
704 6 4 mech
721 722 763 762
705 6 4 mech
722 723 764 763
706 6 4 mech
723 724 765 764
707 6 4 mech
724 725 766 765
708 6 4 mech
725 726 767 766
709 6 4 mech
726 727 768 767
710 6 4 mech
727 728 769 768
711 6 4 mech
728 729 770 769
712 6 4 mech
729 730 771 770
713 6 4 mech
730 731 772 771
714 6 4 mech
731 732 773 772
715 6 4 mech
732 733 774 773
716 6 4 mech
733 734 775 774
717 6 4 mech
734 735 776 775
718 6 4 mech
735 736 777 776
719 6 4 mech
736 737 778 777
720 6 4 mech
737 738 779 778
721 6 4 mech
739 740 781 780
722 6 4 mech
740 741 782 781
723 6 4 mech
741 742 783 782
724 6 4 mech
742 743 784 783
725 6 4 mech
743 744 785 784
726 6 4 mech
744 745 786 785
727 6 4 mech
745 746 787 786
728 6 4 mech
746 747 788 787
729 6 4 mech
747 748 789 788
730 6 4 mech
748 749 790 789
731 6 4 mech
749 750 791 790
732 6 4 mech
750 751 792 791
733 6 4 mech
751 752 793 792
734 6 4 mech
752 753 794 793
735 6 4 mech
753 754 795 794
736 6 4 mech
754 755 796 795
737 6 4 mech
755 756 797 796
738 6 4 mech
756 757 798 797
739 6 4 mech
757 758 799 798
740 6 4 mech
758 759 800 799
741 6 4 mech
759 760 801 800
742 6 4 mech
760 761 802 801
743 6 4 mech
761 762 803 802
744 6 4 mech
762 763 804 803
745 6 4 mech
763 764 805 804
746 6 4 mech
764 765 806 805
747 6 4 mech
765 766 807 806
748 6 4 mech
766 767 808 807
749 6 4 mech
767 768 809 808
750 6 4 mech
768 769 810 809
751 6 4 mech
769 770 811 810
752 6 4 mech
770 771 812 811
753 6 4 mech
771 772 813 812
754 6 4 mech
772 773 814 813
755 6 4 mech
773 774 815 814
756 6 4 mech
774 775 816 815
757 6 4 mech
775 776 817 816
758 6 4 mech
776 777 818 817
759 6 4 mech
777 778 819 818
760 6 4 mech
778 779 820 819
761 6 4 mech
780 781 822 821
762 6 4 mech
781 782 823 822
763 6 4 mech
782 783 824 823
764 6 4 mech
783 784 825 824
765 6 4 mech
784 785 826 825
766 6 4 mech
785 786 827 826
767 6 4 mech
786 787 828 827
768 6 4 mech
787 788 829 828
769 6 4 mech
788 789 830 829
770 6 4 mech
789 790 831 830
771 6 4 mech
790 791 832 831
772 6 4 mech
791 792 833 832
773 6 4 mech
792 793 834 833
774 6 4 mech
793 794 835 834
775 6 4 mech
794 795 836 835
776 6 4 mech
795 796 837 836
777 6 4 mech
796 797 838 837
778 6 4 mech
797 798 839 838
779 6 4 mech
798 799 840 839
780 6 4 mech
799 800 841 840
781 6 4 mech
800 801 842 841
782 6 4 mech
801 802 843 842
783 6 4 mech
802 803 844 843
784 6 4 mech
803 804 845 844
785 6 4 mech
804 805 846 845
786 6 4 mech
805 806 847 846
787 6 4 mech
806 807 848 847
788 6 4 mech
807 808 849 848
789 6 4 mech
808 809 850 849
790 6 4 mech
809 810 851 850
791 6 4 mech
810 811 852 851
792 6 4 mech
811 812 853 852
793 6 4 mech
812 813 854 853
794 6 4 mech
813 814 855 854
795 6 4 mech
814 815 856 855
796 6 4 mech
815 816 857 856
797 6 4 mech
816 817 858 857
798 6 4 mech
817 818 859 858
799 6 4 mech
818 819 860 859
800 6 4 mech
819 820 861 860
801 6 4 mech
821 822 863 862
802 6 4 mech
822 823 864 863
803 6 4 mech
823 824 865 864
804 6 4 mech
824 825 866 865
805 6 4 mech
825 826 867 866
806 6 4 mech
826 827 868 867
807 6 4 mech
827 828 869 868
808 6 4 mech
828 829 870 869
809 6 4 mech
829 830 871 870
810 6 4 mech
830 831 872 871
811 6 4 mech
831 832 873 872
812 6 4 mech
832 833 874 873
813 6 4 mech
833 834 875 874
814 6 4 mech
834 835 876 875
815 6 4 mech
835 836 877 876
816 6 4 mech
836 837 878 877
817 6 4 mech
837 838 879 878
818 6 4 mech
838 839 880 879
819 6 4 mech
839 840 881 880
820 6 4 mech
840 841 882 881
821 6 4 mech
841 842 883 882
822 6 4 mech
842 843 884 883
823 6 4 mech
843 844 885 884
824 6 4 mech
844 845 886 885
825 6 4 mech
845 846 887 886
826 6 4 mech
846 847 888 887
827 6 4 mech
847 848 889 888
828 6 4 mech
848 849 890 889
829 6 4 mech
849 850 891 890
830 6 4 mech
850 851 892 891
831 6 4 mech
851 852 893 892
832 6 4 mech
852 853 894 893
833 6 4 mech
853 854 895 894
834 6 4 mech
854 855 896 895
835 6 4 mech
855 856 897 896
836 6 4 mech
856 857 898 897
837 6 4 mech
857 858 899 898
838 6 4 mech
858 859 900 899
839 6 4 mech
859 860 901 900
840 6 4 mech
860 861 902 901
841 6 4 mech
862 863 904 903
842 6 4 mech
863 864 905 904
843 6 4 mech
864 865 906 905
844 6 4 mech
865 866 907 906
845 6 4 mech
866 867 908 907
846 6 4 mech
867 868 909 908
847 6 4 mech
868 869 910 909
848 6 4 mech
869 870 911 910
849 6 4 mech
870 871 912 911
850 6 4 mech
871 872 913 912
851 6 4 mech
872 873 914 913
852 6 4 mech
873 874 915 914
853 6 4 mech
874 875 916 915
854 6 4 mech
875 876 917 916
855 6 4 mech
876 877 918 917
856 6 4 mech
877 878 919 918
857 6 4 mech
878 879 920 919
858 6 4 mech
879 880 921 920
859 6 4 mech
880 881 922 921
860 6 4 mech
881 882 923 922
861 6 4 mech
882 883 924 923
862 6 4 mech
883 884 925 924
863 6 4 mech
884 885 926 925
864 6 4 mech
885 886 927 926
865 6 4 mech
886 887 928 927
866 6 4 mech
887 888 929 928
867 6 4 mech
888 889 930 929
868 6 4 mech
889 890 931 930
869 6 4 mech
890 891 932 931
870 6 4 mech
891 892 933 932
871 6 4 mech
892 893 934 933
872 6 4 mech
893 894 935 934
873 6 4 mech
894 895 936 935
874 6 4 mech
895 896 937 936
875 6 4 mech
896 897 938 937
876 6 4 mech
897 898 939 938
877 6 4 mech
898 899 940 939
878 6 4 mech
899 900 941 940
879 6 4 mech
900 901 942 941
880 6 4 mech
901 902 943 942
881 6 4 mech
903 904 945 944
882 6 4 mech
904 905 946 945
883 6 4 mech
905 906 947 946
884 6 4 mech
906 907 948 947
885 6 4 mech
907 908 949 948
886 6 4 mech
908 909 950 949
887 6 4 mech
909 910 951 950
888 6 4 mech
910 911 952 951
889 6 4 mech
911 912 953 952
890 6 4 mech
912 913 954 953
891 6 4 mech
913 914 955 954
892 6 4 mech
914 915 956 955
893 6 4 mech
915 916 957 956
894 6 4 mech
916 917 958 957
895 6 4 mech
917 918 959 958
896 6 4 mech
918 919 960 959
897 6 4 mech
919 920 961 960
898 6 4 mech
920 921 962 961
899 6 4 mech
921 922 963 962
900 6 4 mech
922 923 964 963
901 6 4 mech
923 924 965 964
902 6 4 mech
924 925 966 965
903 6 4 mech
925 926 967 966
904 6 4 mech
926 927 968 967
905 6 4 mech
927 928 969 968
906 6 4 mech
928 929 970 969
907 6 4 mech
929 930 971 970
908 6 4 mech
930 931 972 971
909 6 4 mech
931 932 973 972
910 6 4 mech
932 933 974 973
911 6 4 mech
933 934 975 974
912 6 4 mech
934 935 976 975
913 6 4 mech
935 936 977 976
914 6 4 mech
936 937 978 977
915 6 4 mech
937 938 979 978
916 6 4 mech
938 939 980 979
917 6 4 mech
939 940 981 980
918 6 4 mech
940 941 982 981
919 6 4 mech
941 942 983 982
920 6 4 mech
942 943 984 983
921 6 4 mech
944 945 986 985
922 6 4 mech
945 946 987 986
923 6 4 mech
946 947 988 987
924 6 4 mech
947 948 989 988
925 6 4 mech
948 949 990 989
926 6 4 mech
949 950 991 990
927 6 4 mech
950 951 992 991
928 6 4 mech
951 952 993 992
929 6 4 mech
952 953 994 993
930 6 4 mech
953 954 995 994
931 6 4 mech
954 955 996 995
932 6 4 mech
955 956 997 996
933 6 4 mech
956 957 998 997
934 6 4 mech
957 958 999 998
935 6 4 mech
958 959 1000 999
936 6 4 mech
959 960 1001 1000
937 6 4 mech
960 961 1002 1001
938 6 4 mech
961 962 1003 1002
939 6 4 mech
962 963 1004 1003
940 6 4 mech
963 964 1005 1004
941 6 4 mech
964 965 1006 1005
942 6 4 mech
965 966 1007 1006
943 6 4 mech
966 967 1008 1007
944 6 4 mech
967 968 1009 1008
945 6 4 mech
968 969 1010 1009
946 6 4 mech
969 970 1011 1010
947 6 4 mech
970 971 1012 1011
948 6 4 mech
971 972 1013 1012
949 6 4 mech
972 973 1014 1013
950 6 4 mech
973 974 1015 1014
951 6 4 mech
974 975 1016 1015
952 6 4 mech
975 976 1017 1016
953 6 4 mech
976 977 1018 1017
954 6 4 mech
977 978 1019 1018
955 6 4 mech
978 979 1020 1019
956 6 4 mech
979 980 1021 1020
957 6 4 mech
980 981 1022 1021
958 6 4 mech
981 982 1023 1022
959 6 4 mech
982 983 1024 1023
960 6 4 mech
983 984 1025 1024
961 6 4 mech
985 986 1027 1026
962 6 4 mech
986 987 1028 1027
963 6 4 mech
987 988 1029 1028
964 6 4 mech
988 989 1030 1029
965 6 4 mech
989 990 1031 1030
966 6 4 mech
990 991 1032 1031
967 6 4 mech
991 992 1033 1032
968 6 4 mech
992 993 1034 1033
969 6 4 mech
993 994 1035 1034
970 6 4 mech
994 995 1036 1035
971 6 4 mech
995 996 1037 1036
972 6 4 mech
996 997 1038 1037
973 6 4 mech
997 998 1039 1038
974 6 4 mech
998 999 1040 1039
975 6 4 mech
999 1000 1041 1040
976 6 4 mech
1000 1001 1042 1041
977 6 4 mech
1001 1002 1043 1042
978 6 4 mech
1002 1003 1044 1043
979 6 4 mech
1003 1004 1045 1044
980 6 4 mech
1004 1005 1046 1045
981 6 4 mech
1005 1006 1047 1046
982 6 4 mech
1006 1007 1048 1047
983 6 4 mech
1007 1008 1049 1048
984 6 4 mech
1008 1009 1050 1049
985 6 4 mech
1009 1010 1051 1050
986 6 4 mech
1010 1011 1052 1051
987 6 4 mech
1011 1012 1053 1052
988 6 4 mech
1012 1013 1054 1053
989 6 4 mech
1013 1014 1055 1054
990 6 4 mech
1014 1015 1056 1055
991 6 4 mech
1015 1016 1057 1056
992 6 4 mech
1016 1017 1058 1057
993 6 4 mech
1017 1018 1059 1058
994 6 4 mech
1018 1019 1060 1059
995 6 4 mech
1019 1020 1061 1060
996 6 4 mech
1020 1021 1062 1061
997 6 4 mech
1021 1022 1063 1062
998 6 4 mech
1022 1023 1064 1063
999 6 4 mech
1023 1024 1065 1064
1000 6 4 mech
1024 1025 1066 1065
1001 6 4 mech
1026 1027 1068 1067
1002 6 4 mech
1027 1028 1069 1068
1003 6 4 mech
1028 1029 1070 1069
1004 6 4 mech
1029 1030 1071 1070
1005 6 4 mech
1030 1031 1072 1071
1006 6 4 mech
1031 1032 1073 1072
1007 6 4 mech
1032 1033 1074 1073
1008 6 4 mech
1033 1034 1075 1074
1009 6 4 mech
1034 1035 1076 1075
1010 6 4 mech
1035 1036 1077 1076
1011 6 4 mech
1036 1037 1078 1077
1012 6 4 mech
1037 1038 1079 1078
1013 6 4 mech
1038 1039 1080 1079
1014 6 4 mech
1039 1040 1081 1080
1015 6 4 mech
1040 1041 1082 1081
1016 6 4 mech
1041 1042 1083 1082
1017 6 4 mech
1042 1043 1084 1083
1018 6 4 mech
1043 1044 1085 1084
1019 6 4 mech
1044 1045 1086 1085
1020 6 4 mech
1045 1046 1087 1086
1021 6 4 mech
1046 1047 1088 1087
1022 6 4 mech
1047 1048 1089 1088
1023 6 4 mech
1048 1049 1090 1089
1024 6 4 mech
1049 1050 1091 1090
1025 6 4 mech
1050 1051 1092 1091
1026 6 4 mech
1051 1052 1093 1092
1027 6 4 mech
1052 1053 1094 1093
1028 6 4 mech
1053 1054 1095 1094
1029 6 4 mech
1054 1055 1096 1095
1030 6 4 mech
1055 1056 1097 1096
1031 6 4 mech
1056 1057 1098 1097
1032 6 4 mech
1057 1058 1099 1098
1033 6 4 mech
1058 1059 1100 1099
1034 6 4 mech
1059 1060 1101 1100
1035 6 4 mech
1060 1061 1102 1101
1036 6 4 mech
1061 1062 1103 1102
1037 6 4 mech
1062 1063 1104 1103
1038 6 4 mech
1063 1064 1105 1104
1039 6 4 mech
1064 1065 1106 1105
1040 6 4 mech
1065 1066 1107 1106
1041 6 4 mech
1067 1068 1109 1108
1042 6 4 mech
1068 1069 1110 1109
1043 6 4 mech
1069 1070 1111 1110
1044 6 4 mech
1070 1071 1112 1111
1045 6 4 mech
1071 1072 1113 1112
1046 6 4 mech
1072 1073 1114 1113
1047 6 4 mech
1073 1074 1115 1114
1048 6 4 mech
1074 1075 1116 1115
1049 6 4 mech
1075 1076 1117 1116
1050 6 4 mech
1076 1077 1118 1117
1051 6 4 mech
1077 1078 1119 1118
1052 6 4 mech
1078 1079 1120 1119
1053 6 4 mech
1079 1080 1121 1120
1054 6 4 mech
1080 1081 1122 1121
1055 6 4 mech
1081 1082 1123 1122
1056 6 4 mech
1082 1083 1124 1123
1057 6 4 mech
1083 1084 1125 1124
1058 6 4 mech
1084 1085 1126 1125
1059 6 4 mech
1085 1086 1127 1126
1060 6 4 mech
1086 1087 1128 1127
1061 6 4 mech
1087 1088 1129 1128
1062 6 4 mech
1088 1089 1130 1129
1063 6 4 mech
1089 1090 1131 1130
1064 6 4 mech
1090 1091 1132 1131
1065 6 4 mech
1091 1092 1133 1132
1066 6 4 mech
1092 1093 1134 1133
1067 6 4 mech
1093 1094 1135 1134
1068 6 4 mech
1094 1095 1136 1135
1069 6 4 mech
1095 1096 1137 1136
1070 6 4 mech
1096 1097 1138 1137
1071 6 4 mech
1097 1098 1139 1138
1072 6 4 mech
1098 1099 1140 1139
1073 6 4 mech
1099 1100 1141 1140
1074 6 4 mech
1100 1101 1142 1141
1075 6 4 mech
1101 1102 1143 1142
1076 6 4 mech
1102 1103 1144 1143
1077 6 4 mech
1103 1104 1145 1144
1078 6 4 mech
1104 1105 1146 1145
1079 6 4 mech
1105 1106 1147 1146
1080 6 4 mech
1106 1107 1148 1147
1081 6 4 mech
1108 1109 1150 1149
1082 6 4 mech
1109 1110 1151 1150
1083 6 4 mech
1110 1111 1152 1151
1084 6 4 mech
1111 1112 1153 1152
1085 6 4 mech
1112 1113 1154 1153
1086 6 4 mech
1113 1114 1155 1154
1087 6 4 mech
1114 1115 1156 1155
1088 6 4 mech
1115 1116 1157 1156
1089 6 4 mech
1116 1117 1158 1157
1090 6 4 mech
1117 1118 1159 1158
1091 6 4 mech
1118 1119 1160 1159
1092 6 4 mech
1119 1120 1161 1160
1093 6 4 mech
1120 1121 1162 1161
1094 6 4 mech
1121 1122 1163 1162
1095 6 4 mech
1122 1123 1164 1163
1096 6 4 mech
1123 1124 1165 1164
1097 6 4 mech
1124 1125 1166 1165
1098 6 4 mech
1125 1126 1167 1166
1099 6 4 mech
1126 1127 1168 1167
1100 6 4 mech
1127 1128 1169 1168
1101 6 4 mech
1128 1129 1170 1169
1102 6 4 mech
1129 1130 1171 1170
1103 6 4 mech
1130 1131 1172 1171
1104 6 4 mech
1131 1132 1173 1172
1105 6 4 mech
1132 1133 1174 1173
1106 6 4 mech
1133 1134 1175 1174
1107 6 4 mech
1134 1135 1176 1175
1108 6 4 mech
1135 1136 1177 1176
1109 6 4 mech
1136 1137 1178 1177
1110 6 4 mech
1137 1138 1179 1178
1111 6 4 mech
1138 1139 1180 1179
1112 6 4 mech
1139 1140 1181 1180
1113 6 4 mech
1140 1141 1182 1181
1114 6 4 mech
1141 1142 1183 1182
1115 6 4 mech
1142 1143 1184 1183
1116 6 4 mech
1143 1144 1185 1184
1117 6 4 mech
1144 1145 1186 1185
1118 6 4 mech
1145 1146 1187 1186
1119 6 4 mech
1146 1147 1188 1187
1120 6 4 mech
1147 1148 1189 1188
1121 6 4 mech
1149 1150 1191 1190
1122 6 4 mech
1150 1151 1192 1191
1123 6 4 mech
1151 1152 1193 1192
1124 6 4 mech
1152 1153 1194 1193
1125 6 4 mech
1153 1154 1195 1194
1126 6 4 mech
1154 1155 1196 1195
1127 6 4 mech
1155 1156 1197 1196
1128 6 4 mech
1156 1157 1198 1197
1129 6 4 mech
1157 1158 1199 1198
1130 6 4 mech
1158 1159 1200 1199
1131 6 4 mech
1159 1160 1201 1200
1132 6 4 mech
1160 1161 1202 1201
1133 6 4 mech
1161 1162 1203 1202
1134 6 4 mech
1162 1163 1204 1203
1135 6 4 mech
1163 1164 1205 1204
1136 6 4 mech
1164 1165 1206 1205
1137 6 4 mech
1165 1166 1207 1206
1138 6 4 mech
1166 1167 1208 1207
1139 6 4 mech
1167 1168 1209 1208
1140 6 4 mech
1168 1169 1210 1209
1141 6 4 mech
1169 1170 1211 1210
1142 6 4 mech
1170 1171 1212 1211
1143 6 4 mech
1171 1172 1213 1212
1144 6 4 mech
1172 1173 1214 1213
1145 6 4 mech
1173 1174 1215 1214
1146 6 4 mech
1174 1175 1216 1215
1147 6 4 mech
1175 1176 1217 1216
1148 6 4 mech
1176 1177 1218 1217
1149 6 4 mech
1177 1178 1219 1218
1150 6 4 mech
1178 1179 1220 1219
1151 6 4 mech
1179 1180 1221 1220
1152 6 4 mech
1180 1181 1222 1221
1153 6 4 mech
1181 1182 1223 1222
1154 6 4 mech
1182 1183 1224 1223
1155 6 4 mech
1183 1184 1225 1224
1156 6 4 mech
1184 1185 1226 1225
1157 6 4 mech
1185 1186 1227 1226
1158 6 4 mech
1186 1187 1228 1227
1159 6 4 mech
1187 1188 1229 1228
1160 6 4 mech
1188 1189 1230 1229
1161 6 4 mech
1190 1191 1232 1231
1162 6 4 mech
1191 1192 1233 1232
1163 6 4 mech
1192 1193 1234 1233
1164 6 4 mech
1193 1194 1235 1234
1165 6 4 mech
1194 1195 1236 1235
1166 6 4 mech
1195 1196 1237 1236
1167 6 4 mech
1196 1197 1238 1237
1168 6 4 mech
1197 1198 1239 1238
1169 6 4 mech
1198 1199 1240 1239
1170 6 4 mech
1199 1200 1241 1240
1171 6 4 mech
1200 1201 1242 1241
1172 6 4 mech
1201 1202 1243 1242
1173 6 4 mech
1202 1203 1244 1243
1174 6 4 mech
1203 1204 1245 1244
1175 6 4 mech
1204 1205 1246 1245
1176 6 4 mech
1205 1206 1247 1246
1177 6 4 mech
1206 1207 1248 1247
1178 6 4 mech
1207 1208 1249 1248
1179 6 4 mech
1208 1209 1250 1249
1180 6 4 mech
1209 1210 1251 1250
1181 6 4 mech
1210 1211 1252 1251
1182 6 4 mech
1211 1212 1253 1252
1183 6 4 mech
1212 1213 1254 1253
1184 6 4 mech
1213 1214 1255 1254
1185 6 4 mech
1214 1215 1256 1255
1186 6 4 mech
1215 1216 1257 1256
1187 6 4 mech
1216 1217 1258 1257
1188 6 4 mech
1217 1218 1259 1258
1189 6 4 mech
1218 1219 1260 1259
1190 6 4 mech
1219 1220 1261 1260
1191 6 4 mech
1220 1221 1262 1261
1192 6 4 mech
1221 1222 1263 1262
1193 6 4 mech
1222 1223 1264 1263
1194 6 4 mech
1223 1224 1265 1264
1195 6 4 mech
1224 1225 1266 1265
1196 6 4 mech
1225 1226 1267 1266
1197 6 4 mech
1226 1227 1268 1267
1198 6 4 mech
1227 1228 1269 1268
1199 6 4 mech
1228 1229 1270 1269
1200 6 4 mech
1229 1230 1271 1270
1201 6 4 mech
1231 1232 1273 1272
1202 6 4 mech
1232 1233 1274 1273
1203 6 4 mech
1233 1234 1275 1274
1204 6 4 mech
1234 1235 1276 1275
1205 6 4 mech
1235 1236 1277 1276
1206 6 4 mech
1236 1237 1278 1277
1207 6 4 mech
1237 1238 1279 1278
1208 6 4 mech
1238 1239 1280 1279
1209 6 4 mech
1239 1240 1281 1280
1210 6 4 mech
1240 1241 1282 1281
1211 6 4 mech
1241 1242 1283 1282
1212 6 4 mech
1242 1243 1284 1283
1213 6 4 mech
1243 1244 1285 1284
1214 6 4 mech
1244 1245 1286 1285
1215 6 4 mech
1245 1246 1287 1286
1216 6 4 mech
1246 1247 1288 1287
1217 6 4 mech
1247 1248 1289 1288
1218 6 4 mech
1248 1249 1290 1289
1219 6 4 mech
1249 1250 1291 1290
1220 6 4 mech
1250 1251 1292 1291
1221 6 4 mech
1251 1252 1293 1292
1222 6 4 mech
1252 1253 1294 1293
1223 6 4 mech
1253 1254 1295 1294
1224 6 4 mech
1254 1255 1296 1295
1225 6 4 mech
1255 1256 1297 1296
1226 6 4 mech
1256 1257 1298 1297
1227 6 4 mech
1257 1258 1299 1298
1228 6 4 mech
1258 1259 1300 1299
1229 6 4 mech
1259 1260 1301 1300
1230 6 4 mech
1260 1261 1302 1301
1231 6 4 mech
1261 1262 1303 1302
1232 6 4 mech
1262 1263 1304 1303
1233 6 4 mech
1263 1264 1305 1304
1234 6 4 mech
1264 1265 1306 1305
1235 6 4 mech
1265 1266 1307 1306
1236 6 4 mech
1266 1267 1308 1307
1237 6 4 mech
1267 1268 1309 1308
1238 6 4 mech
1268 1269 1310 1309
1239 6 4 mech
1269 1270 1311 1310
1240 6 4 mech
1270 1271 1312 1311
1241 6 4 mech
1272 1273 1314 1313
1242 6 4 mech
1273 1274 1315 1314
1243 6 4 mech
1274 1275 1316 1315
1244 6 4 mech
1275 1276 1317 1316
1245 6 4 mech
1276 1277 1318 1317
1246 6 4 mech
1277 1278 1319 1318
1247 6 4 mech
1278 1279 1320 1319
1248 6 4 mech
1279 1280 1321 1320
1249 6 4 mech
1280 1281 1322 1321
1250 6 4 mech
1281 1282 1323 1322
1251 6 4 mech
1282 1283 1324 1323
1252 6 4 mech
1283 1284 1325 1324
1253 6 4 mech
1284 1285 1326 1325
1254 6 4 mech
1285 1286 1327 1326
1255 6 4 mech
1286 1287 1328 1327
1256 6 4 mech
1287 1288 1329 1328
1257 6 4 mech
1288 1289 1330 1329
1258 6 4 mech
1289 1290 1331 1330
1259 6 4 mech
1290 1291 1332 1331
1260 6 4 mech
1291 1292 1333 1332
1261 6 4 mech
1292 1293 1334 1333
1262 6 4 mech
1293 1294 1335 1334
1263 6 4 mech
1294 1295 1336 1335
1264 6 4 mech
1295 1296 1337 1336
1265 6 4 mech
1296 1297 1338 1337
1266 6 4 mech
1297 1298 1339 1338
1267 6 4 mech
1298 1299 1340 1339
1268 6 4 mech
1299 1300 1341 1340
1269 6 4 mech
1300 1301 1342 1341
1270 6 4 mech
1301 1302 1343 1342
1271 6 4 mech
1302 1303 1344 1343
1272 6 4 mech
1303 1304 1345 1344
1273 6 4 mech
1304 1305 1346 1345
1274 6 4 mech
1305 1306 1347 1346
1275 6 4 mech
1306 1307 1348 1347
1276 6 4 mech
1307 1308 1349 1348
1277 6 4 mech
1308 1309 1350 1349
1278 6 4 mech
1309 1310 1351 1350
1279 6 4 mech
1310 1311 1352 1351
1280 6 4 mech
1311 1312 1353 1352
1281 6 4 mech
1313 1314 1355 1354
1282 6 4 mech
1314 1315 1356 1355
1283 6 4 mech
1315 1316 1357 1356
1284 6 4 mech
1316 1317 1358 1357
1285 6 4 mech
1317 1318 1359 1358
1286 6 4 mech
1318 1319 1360 1359
1287 6 4 mech
1319 1320 1361 1360
1288 6 4 mech
1320 1321 1362 1361
1289 6 4 mech
1321 1322 1363 1362
1290 6 4 mech
1322 1323 1364 1363
1291 6 4 mech
1323 1324 1365 1364
1292 6 4 mech
1324 1325 1366 1365
1293 6 4 mech
1325 1326 1367 1366
1294 6 4 mech
1326 1327 1368 1367
1295 6 4 mech
1327 1328 1369 1368
1296 6 4 mech
1328 1329 1370 1369
1297 6 4 mech
1329 1330 1371 1370
1298 6 4 mech
1330 1331 1372 1371
1299 6 4 mech
1331 1332 1373 1372
1300 6 4 mech
1332 1333 1374 1373
1301 6 4 mech
1333 1334 1375 1374
1302 6 4 mech
1334 1335 1376 1375
1303 6 4 mech
1335 1336 1377 1376
1304 6 4 mech
1336 1337 1378 1377
1305 6 4 mech
1337 1338 1379 1378
1306 6 4 mech
1338 1339 1380 1379
1307 6 4 mech
1339 1340 1381 1380
1308 6 4 mech
1340 1341 1382 1381
1309 6 4 mech
1341 1342 1383 1382
1310 6 4 mech
1342 1343 1384 1383
1311 6 4 mech
1343 1344 1385 1384
1312 6 4 mech
1344 1345 1386 1385
1313 6 4 mech
1345 1346 1387 1386
1314 6 4 mech
1346 1347 1388 1387
1315 6 4 mech
1347 1348 1389 1388
1316 6 4 mech
1348 1349 1390 1389
1317 6 4 mech
1349 1350 1391 1390
1318 6 4 mech
1350 1351 1392 1391
1319 6 4 mech
1351 1352 1393 1392
1320 6 4 mech
1352 1353 1394 1393
1321 6 4 mech
1354 1355 1396 1395
1322 6 4 mech
1355 1356 1397 1396
1323 6 4 mech
1356 1357 1398 1397
1324 6 4 mech
1357 1358 1399 1398
1325 6 4 mech
1358 1359 1400 1399
1326 6 4 mech
1359 1360 1401 1400
1327 6 4 mech
1360 1361 1402 1401
1328 6 4 mech
1361 1362 1403 1402
1329 6 4 mech
1362 1363 1404 1403
1330 6 4 mech
1363 1364 1405 1404
1331 6 4 mech
1364 1365 1406 1405
1332 6 4 mech
1365 1366 1407 1406
1333 6 4 mech
1366 1367 1408 1407
1334 6 4 mech
1367 1368 1409 1408
1335 6 4 mech
1368 1369 1410 1409
1336 6 4 mech
1369 1370 1411 1410
1337 6 4 mech
1370 1371 1412 1411
1338 6 4 mech
1371 1372 1413 1412
1339 6 4 mech
1372 1373 1414 1413
1340 6 4 mech
1373 1374 1415 1414
1341 6 4 mech
1374 1375 1416 1415
1342 6 4 mech
1375 1376 1417 1416
1343 6 4 mech
1376 1377 1418 1417
1344 6 4 mech
1377 1378 1419 1418
1345 6 4 mech
1378 1379 1420 1419
1346 6 4 mech
1379 1380 1421 1420
1347 6 4 mech
1380 1381 1422 1421
1348 6 4 mech
1381 1382 1423 1422
1349 6 4 mech
1382 1383 1424 1423
1350 6 4 mech
1383 1384 1425 1424
1351 6 4 mech
1384 1385 1426 1425
1352 6 4 mech
1385 1386 1427 1426
1353 6 4 mech
1386 1387 1428 1427
1354 6 4 mech
1387 1388 1429 1428
1355 6 4 mech
1388 1389 1430 1429
1356 6 4 mech
1389 1390 1431 1430
1357 6 4 mech
1390 1391 1432 1431
1358 6 4 mech
1391 1392 1433 1432
1359 6 4 mech
1392 1393 1434 1433
1360 6 4 mech
1393 1394 1435 1434
1361 6 4 mech
1395 1396 1437 1436
1362 6 4 mech
1396 1397 1438 1437
1363 6 4 mech
1397 1398 1439 1438
1364 6 4 mech
1398 1399 1440 1439
1365 6 4 mech
1399 1400 1441 1440
1366 6 4 mech
1400 1401 1442 1441
1367 6 4 mech
1401 1402 1443 1442
1368 6 4 mech
1402 1403 1444 1443
1369 6 4 mech
1403 1404 1445 1444
1370 6 4 mech
1404 1405 1446 1445
1371 6 4 mech
1405 1406 1447 1446
1372 6 4 mech
1406 1407 1448 1447
1373 6 4 mech
1407 1408 1449 1448
1374 6 4 mech
1408 1409 1450 1449
1375 6 4 mech
1409 1410 1451 1450
1376 6 4 mech
1410 1411 1452 1451
1377 6 4 mech
1411 1412 1453 1452
1378 6 4 mech
1412 1413 1454 1453
1379 6 4 mech
1413 1414 1455 1454
1380 6 4 mech
1414 1415 1456 1455
1381 6 4 mech
1415 1416 1457 1456
1382 6 4 mech
1416 1417 1458 1457
1383 6 4 mech
1417 1418 1459 1458
1384 6 4 mech
1418 1419 1460 1459
1385 6 4 mech
1419 1420 1461 1460
1386 6 4 mech
1420 1421 1462 1461
1387 6 4 mech
1421 1422 1463 1462
1388 6 4 mech
1422 1423 1464 1463
1389 6 4 mech
1423 1424 1465 1464
1390 6 4 mech
1424 1425 1466 1465
1391 6 4 mech
1425 1426 1467 1466
1392 6 4 mech
1426 1427 1468 1467
1393 6 4 mech
1427 1428 1469 1468
1394 6 4 mech
1428 1429 1470 1469
1395 6 4 mech
1429 1430 1471 1470
1396 6 4 mech
1430 1431 1472 1471
1397 6 4 mech
1431 1432 1473 1472
1398 6 4 mech
1432 1433 1474 1473
1399 6 4 mech
1433 1434 1475 1474
1400 6 4 mech
1434 1435 1476 1475
1401 6 4 mech
1436 1437 1478 1477
1402 6 4 mech
1437 1438 1479 1478
1403 6 4 mech
1438 1439 1480 1479
1404 6 4 mech
1439 1440 1481 1480
1405 6 4 mech
1440 1441 1482 1481
1406 6 4 mech
1441 1442 1483 1482
1407 6 4 mech
1442 1443 1484 1483
1408 6 4 mech
1443 1444 1485 1484
1409 6 4 mech
1444 1445 1486 1485
1410 6 4 mech
1445 1446 1487 1486
1411 6 4 mech
1446 1447 1488 1487
1412 6 4 mech
1447 1448 1489 1488
1413 6 4 mech
1448 1449 1490 1489
1414 6 4 mech
1449 1450 1491 1490
1415 6 4 mech
1450 1451 1492 1491
1416 6 4 mech
1451 1452 1493 1492
1417 6 4 mech
1452 1453 1494 1493
1418 6 4 mech
1453 1454 1495 1494
1419 6 4 mech
1454 1455 1496 1495
1420 6 4 mech
1455 1456 1497 1496
1421 6 4 mech
1456 1457 1498 1497
1422 6 4 mech
1457 1458 1499 1498
1423 6 4 mech
1458 1459 1500 1499
1424 6 4 mech
1459 1460 1501 1500
1425 6 4 mech
1460 1461 1502 1501
1426 6 4 mech
1461 1462 1503 1502
1427 6 4 mech
1462 1463 1504 1503
1428 6 4 mech
1463 1464 1505 1504
1429 6 4 mech
1464 1465 1506 1505
1430 6 4 mech
1465 1466 1507 1506
1431 6 4 mech
1466 1467 1508 1507
1432 6 4 mech
1467 1468 1509 1508
1433 6 4 mech
1468 1469 1510 1509
1434 6 4 mech
1469 1470 1511 1510
1435 6 4 mech
1470 1471 1512 1511
1436 6 4 mech
1471 1472 1513 1512
1437 6 4 mech
1472 1473 1514 1513
1438 6 4 mech
1473 1474 1515 1514
1439 6 4 mech
1474 1475 1516 1515
1440 6 4 mech
1475 1476 1517 1516
1441 6 4 mech
1477 1478 1519 1518
1442 6 4 mech
1478 1479 1520 1519
1443 6 4 mech
1479 1480 1521 1520
1444 6 4 mech
1480 1481 1522 1521
1445 6 4 mech
1481 1482 1523 1522
1446 6 4 mech
1482 1483 1524 1523
1447 6 4 mech
1483 1484 1525 1524
1448 6 4 mech
1484 1485 1526 1525
1449 6 4 mech
1485 1486 1527 1526
1450 6 4 mech
1486 1487 1528 1527
1451 6 4 mech
1487 1488 1529 1528
1452 6 4 mech
1488 1489 1530 1529
1453 6 4 mech
1489 1490 1531 1530
1454 6 4 mech
1490 1491 1532 1531
1455 6 4 mech
1491 1492 1533 1532
1456 6 4 mech
1492 1493 1534 1533
1457 6 4 mech
1493 1494 1535 1534
1458 6 4 mech
1494 1495 1536 1535
1459 6 4 mech
1495 1496 1537 1536
1460 6 4 mech
1496 1497 1538 1537
1461 6 4 mech
1497 1498 1539 1538
1462 6 4 mech
1498 1499 1540 1539
1463 6 4 mech
1499 1500 1541 1540
1464 6 4 mech
1500 1501 1542 1541
1465 6 4 mech
1501 1502 1543 1542
1466 6 4 mech
1502 1503 1544 1543
1467 6 4 mech
1503 1504 1545 1544
1468 6 4 mech
1504 1505 1546 1545
1469 6 4 mech
1505 1506 1547 1546
1470 6 4 mech
1506 1507 1548 1547
1471 6 4 mech
1507 1508 1549 1548
1472 6 4 mech
1508 1509 1550 1549
1473 6 4 mech
1509 1510 1551 1550
1474 6 4 mech
1510 1511 1552 1551
1475 6 4 mech
1511 1512 1553 1552
1476 6 4 mech
1512 1513 1554 1553
1477 6 4 mech
1513 1514 1555 1554
1478 6 4 mech
1514 1515 1556 1555
1479 6 4 mech
1515 1516 1557 1556
1480 6 4 mech
1516 1517 1558 1557
1481 6 4 mech
1518 1519 1560 1559
1482 6 4 mech
1519 1520 1561 1560
1483 6 4 mech
1520 1521 1562 1561
1484 6 4 mech
1521 1522 1563 1562
1485 6 4 mech
1522 1523 1564 1563
1486 6 4 mech
1523 1524 1565 1564
1487 6 4 mech
1524 1525 1566 1565
1488 6 4 mech
1525 1526 1567 1566
1489 6 4 mech
1526 1527 1568 1567
1490 6 4 mech
1527 1528 1569 1568
1491 6 4 mech
1528 1529 1570 1569
1492 6 4 mech
1529 1530 1571 1570
1493 6 4 mech
1530 1531 1572 1571
1494 6 4 mech
1531 1532 1573 1572
1495 6 4 mech
1532 1533 1574 1573
1496 6 4 mech
1533 1534 1575 1574
1497 6 4 mech
1534 1535 1576 1575
1498 6 4 mech
1535 1536 1577 1576
1499 6 4 mech
1536 1537 1578 1577
1500 6 4 mech
1537 1538 1579 1578
1501 6 4 mech
1538 1539 1580 1579
1502 6 4 mech
1539 1540 1581 1580
1503 6 4 mech
1540 1541 1582 1581
1504 6 4 mech
1541 1542 1583 1582
1505 6 4 mech
1542 1543 1584 1583
1506 6 4 mech
1543 1544 1585 1584
1507 6 4 mech
1544 1545 1586 1585
1508 6 4 mech
1545 1546 1587 1586
1509 6 4 mech
1546 1547 1588 1587
1510 6 4 mech
1547 1548 1589 1588
1511 6 4 mech
1548 1549 1590 1589
1512 6 4 mech
1549 1550 1591 1590
1513 6 4 mech
1550 1551 1592 1591
1514 6 4 mech
1551 1552 1593 1592
1515 6 4 mech
1552 1553 1594 1593
1516 6 4 mech
1553 1554 1595 1594
1517 6 4 mech
1554 1555 1596 1595
1518 6 4 mech
1555 1556 1597 1596
1519 6 4 mech
1556 1557 1598 1597
1520 6 4 mech
1557 1558 1599 1598
1521 6 4 mech
1559 1560 1601 1600
1522 6 4 mech
1560 1561 1602 1601
1523 6 4 mech
1561 1562 1603 1602
1524 6 4 mech
1562 1563 1604 1603
1525 6 4 mech
1563 1564 1605 1604
1526 6 4 mech
1564 1565 1606 1605
1527 6 4 mech
1565 1566 1607 1606
1528 6 4 mech
1566 1567 1608 1607
1529 6 4 mech
1567 1568 1609 1608
1530 6 4 mech
1568 1569 1610 1609
1531 6 4 mech
1569 1570 1611 1610
1532 6 4 mech
1570 1571 1612 1611
1533 6 4 mech
1571 1572 1613 1612
1534 6 4 mech
1572 1573 1614 1613
1535 6 4 mech
1573 1574 1615 1614
1536 6 4 mech
1574 1575 1616 1615
1537 6 4 mech
1575 1576 1617 1616
1538 6 4 mech
1576 1577 1618 1617
1539 6 4 mech
1577 1578 1619 1618
1540 6 4 mech
1578 1579 1620 1619
1541 6 4 mech
1579 1580 1621 1620
1542 6 4 mech
1580 1581 1622 1621
1543 6 4 mech
1581 1582 1623 1622
1544 6 4 mech
1582 1583 1624 1623
1545 6 4 mech
1583 1584 1625 1624
1546 6 4 mech
1584 1585 1626 1625
1547 6 4 mech
1585 1586 1627 1626
1548 6 4 mech
1586 1587 1628 1627
1549 6 4 mech
1587 1588 1629 1628
1550 6 4 mech
1588 1589 1630 1629
1551 6 4 mech
1589 1590 1631 1630
1552 6 4 mech
1590 1591 1632 1631
1553 6 4 mech
1591 1592 1633 1632
1554 6 4 mech
1592 1593 1634 1633
1555 6 4 mech
1593 1594 1635 1634
1556 6 4 mech
1594 1595 1636 1635
1557 6 4 mech
1595 1596 1637 1636
1558 6 4 mech
1596 1597 1638 1637
1559 6 4 mech
1597 1598 1639 1638
1560 6 4 mech
1598 1599 1640 1639
1561 6 4 mech
1600 1601 1642 1641
1562 6 4 mech
1601 1602 1643 1642
1563 6 4 mech
1602 1603 1644 1643
1564 6 4 mech
1603 1604 1645 1644
1565 6 4 mech
1604 1605 1646 1645
1566 6 4 mech
1605 1606 1647 1646
1567 6 4 mech
1606 1607 1648 1647
1568 6 4 mech
1607 1608 1649 1648
1569 6 4 mech
1608 1609 1650 1649
1570 6 4 mech
1609 1610 1651 1650
1571 6 4 mech
1610 1611 1652 1651
1572 6 4 mech
1611 1612 1653 1652
1573 6 4 mech
1612 1613 1654 1653
1574 6 4 mech
1613 1614 1655 1654
1575 6 4 mech
1614 1615 1656 1655
1576 6 4 mech
1615 1616 1657 1656
1577 6 4 mech
1616 1617 1658 1657
1578 6 4 mech
1617 1618 1659 1658
1579 6 4 mech
1618 1619 1660 1659
1580 6 4 mech
1619 1620 1661 1660
1581 6 4 mech
1620 1621 1662 1661
1582 6 4 mech
1621 1622 1663 1662
1583 6 4 mech
1622 1623 1664 1663
1584 6 4 mech
1623 1624 1665 1664
1585 6 4 mech
1624 1625 1666 1665
1586 6 4 mech
1625 1626 1667 1666
1587 6 4 mech
1626 1627 1668 1667
1588 6 4 mech
1627 1628 1669 1668
1589 6 4 mech
1628 1629 1670 1669
1590 6 4 mech
1629 1630 1671 1670
1591 6 4 mech
1630 1631 1672 1671
1592 6 4 mech
1631 1632 1673 1672
1593 6 4 mech
1632 1633 1674 1673
1594 6 4 mech
1633 1634 1675 1674
1595 6 4 mech
1634 1635 1676 1675
1596 6 4 mech
1635 1636 1677 1676
1597 6 4 mech
1636 1637 1678 1677
1598 6 4 mech
1637 1638 1679 1678
1599 6 4 mech
1638 1639 1680 1679
1600 6 4 mech
1639 1640 1681 1680

[3D Elements]
#ElemNr  ElemType  NrOfNodes  Level
#Node1 Node2 ... NodeNrOfNodes

[Node BC]
#NodeNr Level
1 south
2 south
3 south
4 south
5 south
6 south
7 south
8 south
9 south
10 south
11 south
12 south
13 south
14 south
15 south
16 south
17 south
18 south
19 south
20 south
21 south
22 south
23 south
24 south
25 south
26 south
27 south
28 south
29 south
30 south
31 south
32 south
33 south
34 south
35 south
36 south
37 south
38 south
39 south
40 south
41 south
1641 north
1642 north
1643 north
1644 north
1645 north
1646 north
1647 north
1648 north
1649 north
1650 north
1651 north
1652 north
1653 north
1654 north
1655 north
1656 north
1657 north
1658 north
1659 north
1660 north
1661 north
1662 north
1663 north
1664 north
1665 north
1666 north
1667 north
1668 north
1669 north
1670 north
1671 north
1672 north
1673 north
1674 north
1675 north
1676 north
1677 north
1678 north
1679 north
1680 north
1681 north
1 west
42 west
83 west
124 west
165 west
206 west
247 west
288 west
329 west
370 west
411 west
452 west
493 west
534 west
575 west
616 west
657 west
698 west
739 west
780 west
821 west
862 west
903 west
944 west
985 west
1026 west
1067 west
1108 west
1149 west
1190 west
1231 west
1272 west
1313 west
1354 west
1395 west
1436 west
1477 west
1518 west
1559 west
1600 west
1641 west
41 east
82 east
123 east
164 east
205 east
246 east
287 east
328 east
369 east
410 east
451 east
492 east
533 east
574 east
615 east
656 east
697 east
738 east
779 east
820 east
861 east
902 east
943 east
984 east
1025 east
1066 east
1107 east
1148 east
1189 east
1230 east
1271 east
1312 east
1353 east
1394 east
1435 east
1476 east
1517 east
1558 east
1599 east
1640 east
1681 east
1 left_lower
41 right_lower
1641 left_upper
1681 right_upper

[Save Nodes]
#NodeNr Level

[Save Elements]
#ElemNr Level

