$MeshFormat
2.2 0 8
$EndMeshFormat
$PhysicalNames
3
3 1 "elec3d"
2 2 "lower"
2 3 "upper"
$EndPhysicalNames
$Nodes
35
1 1 1 -1
2 -1 1 -1
3 -1 -1 -1
4 1 -1 -1
5 0 0 0
6 0 1 -1
7 -1 0 -1
8 0 -1 -1
9 1 0 -1
10 0.5 0.5 -0.5
11 -0.5 0.5 -0.5
12 -0.5 -0.5 -0.5
13 0.5 -0.5 -0.5

14 1 1 1
15 -1 1 1
16 -1 -1 1
17 1 -1 1
18 0 1 1
19 -1 0 1
20 0 -1 1
21 1 0 1
22 0.5 0.5 0.5
23 -0.5 0.5 0.5
24 -0.5 -0.5 0.5
25 0.5 -0.5 0.5

26 1 1 0
27 -1 1 0
28 -1 -1 0
29 1 -1 0

30 0 0 -1
31 0 -1 0
32 1 0 0
33 0 1 0
34 -1 0 0
35 0 0 1

$EndNodes
$Elements
8
1 10 4 2 1 1 1 1 2 3 4 6 7 8 9 30
2 10 4 3 1 1 1 16 15 14 17 19 18 21 20 35
3 14 4 1 1 1 1 1 2 3 4 5 6 9 10 7 11 8 12 13 30
4 14 4 1 1 1 1 16 15 14 17 5 19 20 24 18 23 21 22 25 31
5 14 4 1 1 1 1 1 14 15 2 5 26 6 10 18 22 27 23 11 32
6 14 4 1 1 1 1 2 15 16 3 5 27 7 11 19 23 28 24 12 33
7 14 4 1 1 1 1 3 16 17 4 5 28 8 12 20 24 29 25 13 34
8 14 4 1 1 1 1 4 17 14 1 5 29 9 13 21 25 26 22 10 35
$EndElements
