********************************** N O D E S **********************************
*NODE, NSET=ALLNODES
       1,    5.000000e+01,    1.500000e+00
       2,   -5.000000e+01,    1.500000e+00
       3,    4.600000e+01,    1.500000e+00
       4,    4.200000e+01,    1.500000e+00
       5,    3.800000e+01,    1.500000e+00
       6,    3.400000e+01,    1.500000e+00
       7,    3.000000e+01,    1.500000e+00
       8,    2.600000e+01,    1.500000e+00
       9,    2.200000e+01,    1.500000e+00
      10,    1.800000e+01,    1.500000e+00
      11,    1.400000e+01,    1.500000e+00
      12,    1.000000e+01,    1.500000e+00
      13,    6.000000e+00,    1.500000e+00
      14,    2.000000e+00,    1.500000e+00
      15,   -2.000000e+00,    1.500000e+00
      16,   -6.000000e+00,    1.500000e+00
      17,   -1.000000e+01,    1.500000e+00
      18,   -1.400000e+01,    1.500000e+00
      19,   -1.800000e+01,    1.500000e+00
      20,   -2.200000e+01,    1.500000e+00
      21,   -2.600000e+01,    1.500000e+00
      22,   -3.000000e+01,    1.500000e+00
      23,   -3.400000e+01,    1.500000e+00
      24,   -3.800000e+01,    1.500000e+00
      25,   -4.200000e+01,    1.500000e+00
      26,   -4.600000e+01,    1.500000e+00
      27,   -5.000000e+01,   -1.500000e+00
      28,   -5.000000e+01,    1.250000e+00
      29,   -5.000000e+01,    1.000000e+00
      30,   -5.000000e+01,    7.500000e-01
      31,   -5.000000e+01,    5.000000e-01
      32,   -5.000000e+01,    2.500000e-01
      33,   -5.000000e+01,    0.000000e+00
      34,   -5.000000e+01,   -2.500000e-01
      35,   -5.000000e+01,   -5.000000e-01
      36,   -5.000000e+01,   -7.500000e-01
      37,   -5.000000e+01,   -1.000000e+00
      38,   -5.000000e+01,   -1.250000e+00
      39,    5.000000e+01,   -1.500000e+00
      40,   -4.600000e+01,   -1.500000e+00
      41,   -4.200000e+01,   -1.500000e+00
      42,   -3.800000e+01,   -1.500000e+00
      43,   -3.400000e+01,   -1.500000e+00
      44,   -3.000000e+01,   -1.500000e+00
      45,   -2.600000e+01,   -1.500000e+00
      46,   -2.200000e+01,   -1.500000e+00
      47,   -1.800000e+01,   -1.500000e+00
      48,   -1.400000e+01,   -1.500000e+00
      49,   -1.000000e+01,   -1.500000e+00
      50,   -6.000000e+00,   -1.500000e+00
      51,   -2.000000e+00,   -1.500000e+00
      52,    2.000000e+00,   -1.500000e+00
      53,    6.000000e+00,   -1.500000e+00
      54,    1.000000e+01,   -1.500000e+00
      55,    1.400000e+01,   -1.500000e+00
      56,    1.800000e+01,   -1.500000e+00
      57,    2.200000e+01,   -1.500000e+00
      58,    2.600000e+01,   -1.500000e+00
      59,    3.000000e+01,   -1.500000e+00
      60,    3.400000e+01,   -1.500000e+00
      61,    3.800000e+01,   -1.500000e+00
      62,    4.200000e+01,   -1.500000e+00
      63,    4.600000e+01,   -1.500000e+00
      64,    5.000000e+01,   -1.250000e+00
      65,    5.000000e+01,   -1.000000e+00
      66,    5.000000e+01,   -7.500000e-01
      67,    5.000000e+01,   -5.000000e-01
      68,    5.000000e+01,   -2.500000e-01
      69,    5.000000e+01,    0.000000e+00
      70,    5.000000e+01,    2.500000e-01
      71,    5.000000e+01,    5.000000e-01
      72,    5.000000e+01,    7.500000e-01
      73,    5.000000e+01,    1.000000e+00
      74,    5.000000e+01,    1.250000e+00
      75,    4.600000e+01,    1.250000e+00
      76,    4.200000e+01,    1.250000e+00
      77,    3.800000e+01,    1.250000e+00
      78,    3.400000e+01,    1.250000e+00
      79,    3.000000e+01,    1.250000e+00
      80,    2.600000e+01,    1.250000e+00
      81,    2.200000e+01,    1.250000e+00
      82,    1.800000e+01,    1.250000e+00
      83,    1.400000e+01,    1.250000e+00
      84,    1.000000e+01,    1.250000e+00
      85,    6.000000e+00,    1.250000e+00
      86,    2.000000e+00,    1.250000e+00
      87,   -2.000000e+00,    1.250000e+00
      88,   -6.000000e+00,    1.250000e+00
      89,   -1.000000e+01,    1.250000e+00
      90,   -1.400000e+01,    1.250000e+00
      91,   -1.800000e+01,    1.250000e+00
      92,   -2.200000e+01,    1.250000e+00
      93,   -2.600000e+01,    1.250000e+00
      94,   -3.000000e+01,    1.250000e+00
      95,   -3.400000e+01,    1.250000e+00
      96,   -3.800000e+01,    1.250000e+00
      97,   -4.200000e+01,    1.250000e+00
      98,   -4.600000e+01,    1.250000e+00
      99,    4.600000e+01,    1.000000e+00
     100,    4.200000e+01,    1.000000e+00
     101,    3.800000e+01,    1.000000e+00
     102,    3.400000e+01,    1.000000e+00
     103,    3.000000e+01,    1.000000e+00
     104,    2.600000e+01,    1.000000e+00
     105,    2.200000e+01,    1.000000e+00
     106,    1.800000e+01,    1.000000e+00
     107,    1.400000e+01,    1.000000e+00
     108,    1.000000e+01,    1.000000e+00
     109,    6.000000e+00,    1.000000e+00
     110,    2.000000e+00,    1.000000e+00
     111,   -2.000000e+00,    1.000000e+00
     112,   -6.000000e+00,    1.000000e+00
     113,   -1.000000e+01,    1.000000e+00
     114,   -1.400000e+01,    1.000000e+00
     115,   -1.800000e+01,    1.000000e+00
     116,   -2.200000e+01,    1.000000e+00
     117,   -2.600000e+01,    1.000000e+00
     118,   -3.000000e+01,    1.000000e+00
     119,   -3.400000e+01,    1.000000e+00
     120,   -3.800000e+01,    1.000000e+00
     121,   -4.200000e+01,    1.000000e+00
     122,   -4.600000e+01,    1.000000e+00
     123,    4.600000e+01,    7.500000e-01
     124,    4.200000e+01,    7.500000e-01
     125,    3.800000e+01,    7.500000e-01
     126,    3.400000e+01,    7.500000e-01
     127,    3.000000e+01,    7.500000e-01
     128,    2.600000e+01,    7.500000e-01
     129,    2.200000e+01,    7.500000e-01
     130,    1.800000e+01,    7.500000e-01
     131,    1.400000e+01,    7.500000e-01
     132,    1.000000e+01,    7.500000e-01
     133,    6.000000e+00,    7.500000e-01
     134,    2.000000e+00,    7.500000e-01
     135,   -2.000000e+00,    7.500000e-01
     136,   -6.000000e+00,    7.500000e-01
     137,   -1.000000e+01,    7.500000e-01
     138,   -1.400000e+01,    7.500000e-01
     139,   -1.800000e+01,    7.500000e-01
     140,   -2.200000e+01,    7.500000e-01
     141,   -2.600000e+01,    7.500000e-01
     142,   -3.000000e+01,    7.500000e-01
     143,   -3.400000e+01,    7.500000e-01
     144,   -3.800000e+01,    7.500000e-01
     145,   -4.200000e+01,    7.500000e-01
     146,   -4.600000e+01,    7.500000e-01
     147,    4.600000e+01,    5.000000e-01
     148,    4.200000e+01,    5.000000e-01
     149,    3.800000e+01,    5.000000e-01
     150,    3.400000e+01,    5.000000e-01
     151,    3.000000e+01,    5.000000e-01
     152,    2.600000e+01,    5.000000e-01
     153,    2.200000e+01,    5.000000e-01
     154,    1.800000e+01,    5.000000e-01
     155,    1.400000e+01,    5.000000e-01
     156,    1.000000e+01,    5.000000e-01
     157,    6.000000e+00,    5.000000e-01
     158,    2.000000e+00,    5.000000e-01
     159,   -2.000000e+00,    5.000000e-01
     160,   -6.000000e+00,    5.000000e-01
     161,   -1.000000e+01,    5.000000e-01
     162,   -1.400000e+01,    5.000000e-01
     163,   -1.800000e+01,    5.000000e-01
     164,   -2.200000e+01,    5.000000e-01
     165,   -2.600000e+01,    5.000000e-01
     166,   -3.000000e+01,    5.000000e-01
     167,   -3.400000e+01,    5.000000e-01
     168,   -3.800000e+01,    5.000000e-01
     169,   -4.200000e+01,    5.000000e-01
     170,   -4.600000e+01,    5.000000e-01
     171,    4.600000e+01,    2.500000e-01
     172,    4.200000e+01,    2.500000e-01
     173,    3.800000e+01,    2.500000e-01
     174,    3.400000e+01,    2.500000e-01
     175,    3.000000e+01,    2.500000e-01
     176,    2.600000e+01,    2.500000e-01
     177,    2.200000e+01,    2.500000e-01
     178,    1.800000e+01,    2.500000e-01
     179,    1.400000e+01,    2.500000e-01
     180,    1.000000e+01,    2.500000e-01
     181,    6.000000e+00,    2.500000e-01
     182,    2.000000e+00,    2.500000e-01
     183,   -2.000000e+00,    2.500000e-01
     184,   -6.000000e+00,    2.500000e-01
     185,   -1.000000e+01,    2.500000e-01
     186,   -1.400000e+01,    2.500000e-01
     187,   -1.800000e+01,    2.500000e-01
     188,   -2.200000e+01,    2.500000e-01
     189,   -2.600000e+01,    2.500000e-01
     190,   -3.000000e+01,    2.500000e-01
     191,   -3.400000e+01,    2.500000e-01
     192,   -3.800000e+01,    2.500000e-01
     193,   -4.200000e+01,    2.500000e-01
     194,   -4.600000e+01,    2.500000e-01
     195,    4.600000e+01,   -5.879381e-19
     196,    4.200000e+01,   -5.879381e-19
     197,    3.800000e+01,   -5.879381e-19
     198,    3.400000e+01,   -5.879381e-19
     199,    3.000000e+01,   -5.879381e-19
     200,    2.600000e+01,   -5.879381e-19
     201,    2.200000e+01,   -5.879381e-19
     202,    1.800000e+01,   -5.879381e-19
     203,    1.400000e+01,   -5.879381e-19
     204,    1.000000e+01,   -5.879381e-19
     205,    6.000000e+00,   -5.879381e-19
     206,    2.000000e+00,   -5.879381e-19
     207,   -2.000000e+00,   -5.879381e-19
     208,   -6.000000e+00,   -5.879381e-19
     209,   -1.000000e+01,   -5.879381e-19
     210,   -1.400000e+01,   -5.879381e-19
     211,   -1.800000e+01,   -5.879381e-19
     212,   -2.200000e+01,   -5.879381e-19
     213,   -2.600000e+01,   -5.879381e-19
     214,   -3.000000e+01,   -5.879381e-19
     215,   -3.400000e+01,   -5.879381e-19
     216,   -3.800000e+01,   -5.879381e-19
     217,   -4.200000e+01,   -5.879381e-19
     218,   -4.600000e+01,   -5.879381e-19
     219,    4.600000e+01,   -2.500000e-01
     220,    4.200000e+01,   -2.500000e-01
     221,    3.800000e+01,   -2.500000e-01
     222,    3.400000e+01,   -2.500000e-01
     223,    3.000000e+01,   -2.500000e-01
     224,    2.600000e+01,   -2.500000e-01
     225,    2.200000e+01,   -2.500000e-01
     226,    1.800000e+01,   -2.500000e-01
     227,    1.400000e+01,   -2.500000e-01
     228,    1.000000e+01,   -2.500000e-01
     229,    6.000000e+00,   -2.500000e-01
     230,    2.000000e+00,   -2.500000e-01
     231,   -2.000000e+00,   -2.500000e-01
     232,   -6.000000e+00,   -2.500000e-01
     233,   -1.000000e+01,   -2.500000e-01
     234,   -1.400000e+01,   -2.500000e-01
     235,   -1.800000e+01,   -2.500000e-01
     236,   -2.200000e+01,   -2.500000e-01
     237,   -2.600000e+01,   -2.500000e-01
     238,   -3.000000e+01,   -2.500000e-01
     239,   -3.400000e+01,   -2.500000e-01
     240,   -3.800000e+01,   -2.500000e-01
     241,   -4.200000e+01,   -2.500000e-01
     242,   -4.600000e+01,   -2.500000e-01
     243,    4.600000e+01,   -5.000000e-01
     244,    4.200000e+01,   -5.000000e-01
     245,    3.800000e+01,   -5.000000e-01
     246,    3.400000e+01,   -5.000000e-01
     247,    3.000000e+01,   -5.000000e-01
     248,    2.600000e+01,   -5.000000e-01
     249,    2.200000e+01,   -5.000000e-01
     250,    1.800000e+01,   -5.000000e-01
     251,    1.400000e+01,   -5.000000e-01
     252,    1.000000e+01,   -5.000000e-01
     253,    6.000000e+00,   -5.000000e-01
     254,    2.000000e+00,   -5.000000e-01
     255,   -2.000000e+00,   -5.000000e-01
     256,   -6.000000e+00,   -5.000000e-01
     257,   -1.000000e+01,   -5.000000e-01
     258,   -1.400000e+01,   -5.000000e-01
     259,   -1.800000e+01,   -5.000000e-01
     260,   -2.200000e+01,   -5.000000e-01
     261,   -2.600000e+01,   -5.000000e-01
     262,   -3.000000e+01,   -5.000000e-01
     263,   -3.400000e+01,   -5.000000e-01
     264,   -3.800000e+01,   -5.000000e-01
     265,   -4.200000e+01,   -5.000000e-01
     266,   -4.600000e+01,   -5.000000e-01
     267,    4.600000e+01,   -7.500000e-01
     268,    4.200000e+01,   -7.500000e-01
     269,    3.800000e+01,   -7.500000e-01
     270,    3.400000e+01,   -7.500000e-01
     271,    3.000000e+01,   -7.500000e-01
     272,    2.600000e+01,   -7.500000e-01
     273,    2.200000e+01,   -7.500000e-01
     274,    1.800000e+01,   -7.500000e-01
     275,    1.400000e+01,   -7.500000e-01
     276,    1.000000e+01,   -7.500000e-01
     277,    6.000000e+00,   -7.500000e-01
     278,    2.000000e+00,   -7.500000e-01
     279,   -2.000000e+00,   -7.500000e-01
     280,   -6.000000e+00,   -7.500000e-01
     281,   -1.000000e+01,   -7.500000e-01
     282,   -1.400000e+01,   -7.500000e-01
     283,   -1.800000e+01,   -7.500000e-01
     284,   -2.200000e+01,   -7.500000e-01
     285,   -2.600000e+01,   -7.500000e-01
     286,   -3.000000e+01,   -7.500000e-01
     287,   -3.400000e+01,   -7.500000e-01
     288,   -3.800000e+01,   -7.500000e-01
     289,   -4.200000e+01,   -7.500000e-01
     290,   -4.600000e+01,   -7.500000e-01
     291,    4.600000e+01,   -1.000000e+00
     292,    4.200000e+01,   -1.000000e+00
     293,    3.800000e+01,   -1.000000e+00
     294,    3.400000e+01,   -1.000000e+00
     295,    3.000000e+01,   -1.000000e+00
     296,    2.600000e+01,   -1.000000e+00
     297,    2.200000e+01,   -1.000000e+00
     298,    1.800000e+01,   -1.000000e+00
     299,    1.400000e+01,   -1.000000e+00
     300,    1.000000e+01,   -1.000000e+00
     301,    6.000000e+00,   -1.000000e+00
     302,    2.000000e+00,   -1.000000e+00
     303,   -2.000000e+00,   -1.000000e+00
     304,   -6.000000e+00,   -1.000000e+00
     305,   -1.000000e+01,   -1.000000e+00
     306,   -1.400000e+01,   -1.000000e+00
     307,   -1.800000e+01,   -1.000000e+00
     308,   -2.200000e+01,   -1.000000e+00
     309,   -2.600000e+01,   -1.000000e+00
     310,   -3.000000e+01,   -1.000000e+00
     311,   -3.400000e+01,   -1.000000e+00
     312,   -3.800000e+01,   -1.000000e+00
     313,   -4.200000e+01,   -1.000000e+00
     314,   -4.600000e+01,   -1.000000e+00
     315,    4.600000e+01,   -1.250000e+00
     316,    4.200000e+01,   -1.250000e+00
     317,    3.800000e+01,   -1.250000e+00
     318,    3.400000e+01,   -1.250000e+00
     319,    3.000000e+01,   -1.250000e+00
     320,    2.600000e+01,   -1.250000e+00
     321,    2.200000e+01,   -1.250000e+00
     322,    1.800000e+01,   -1.250000e+00
     323,    1.400000e+01,   -1.250000e+00
     324,    1.000000e+01,   -1.250000e+00
     325,    6.000000e+00,   -1.250000e+00
     326,    2.000000e+00,   -1.250000e+00
     327,   -2.000000e+00,   -1.250000e+00
     328,   -6.000000e+00,   -1.250000e+00
     329,   -1.000000e+01,   -1.250000e+00
     330,   -1.400000e+01,   -1.250000e+00
     331,   -1.800000e+01,   -1.250000e+00
     332,   -2.200000e+01,   -1.250000e+00
     333,   -2.600000e+01,   -1.250000e+00
     334,   -3.000000e+01,   -1.250000e+00
     335,   -3.400000e+01,   -1.250000e+00
     336,   -3.800000e+01,   -1.250000e+00
     337,   -4.200000e+01,   -1.250000e+00
     338,   -4.600000e+01,   -1.250000e+00
     339,    4.800000e+01,    1.500000e+00
     340,    4.400000e+01,    1.500000e+00
     341,    4.000000e+01,    1.500000e+00
     342,    3.600000e+01,    1.500000e+00
     343,    3.200000e+01,    1.500000e+00
     344,    2.800000e+01,    1.500000e+00
     345,    2.400000e+01,    1.500000e+00
     346,    2.000000e+01,    1.500000e+00
     347,    1.600000e+01,    1.500000e+00
     348,    1.200000e+01,    1.500000e+00
     349,    8.000000e+00,    1.500000e+00
     350,    4.000000e+00,    1.500000e+00
     351,    0.000000e+00,    1.500000e+00
     352,   -4.000000e+00,    1.500000e+00
     353,   -8.000000e+00,    1.500000e+00
     354,   -1.200000e+01,    1.500000e+00
     355,   -1.600000e+01,    1.500000e+00
     356,   -2.000000e+01,    1.500000e+00
     357,   -2.400000e+01,    1.500000e+00
     358,   -2.800000e+01,    1.500000e+00
     359,   -3.200000e+01,    1.500000e+00
     360,   -3.600000e+01,    1.500000e+00
     361,   -4.000000e+01,    1.500000e+00
     362,   -4.400000e+01,    1.500000e+00
     363,   -4.800000e+01,    1.500000e+00
     364,   -5.000000e+01,    1.375000e+00
     365,   -5.000000e+01,    1.125000e+00
     366,   -5.000000e+01,    8.750000e-01
     367,   -5.000000e+01,    6.250000e-01
     368,   -5.000000e+01,    3.750000e-01
     369,   -5.000000e+01,    1.250000e-01
     370,   -5.000000e+01,   -1.250000e-01
     371,   -5.000000e+01,   -3.750000e-01
     372,   -5.000000e+01,   -6.250000e-01
     373,   -5.000000e+01,   -8.750000e-01
     374,   -5.000000e+01,   -1.125000e+00
     375,   -5.000000e+01,   -1.375000e+00
     376,   -4.800000e+01,   -1.500000e+00
     377,   -4.400000e+01,   -1.500000e+00
     378,   -4.000000e+01,   -1.500000e+00
     379,   -3.600000e+01,   -1.500000e+00
     380,   -3.200000e+01,   -1.500000e+00
     381,   -2.800000e+01,   -1.500000e+00
     382,   -2.400000e+01,   -1.500000e+00
     383,   -2.000000e+01,   -1.500000e+00
     384,   -1.600000e+01,   -1.500000e+00
     385,   -1.200000e+01,   -1.500000e+00
     386,   -8.000000e+00,   -1.500000e+00
     387,   -4.000000e+00,   -1.500000e+00
     388,    0.000000e+00,   -1.500000e+00
     389,    4.000000e+00,   -1.500000e+00
     390,    8.000000e+00,   -1.500000e+00
     391,    1.200000e+01,   -1.500000e+00
     392,    1.600000e+01,   -1.500000e+00
     393,    2.000000e+01,   -1.500000e+00
     394,    2.400000e+01,   -1.500000e+00
     395,    2.800000e+01,   -1.500000e+00
     396,    3.200000e+01,   -1.500000e+00
     397,    3.600000e+01,   -1.500000e+00
     398,    4.000000e+01,   -1.500000e+00
     399,    4.400000e+01,   -1.500000e+00
     400,    4.800000e+01,   -1.500000e+00
     401,    5.000000e+01,   -1.375000e+00
     402,    5.000000e+01,   -1.125000e+00
     403,    5.000000e+01,   -8.750000e-01
     404,    5.000000e+01,   -6.250000e-01
     405,    5.000000e+01,   -3.750000e-01
     406,    5.000000e+01,   -1.250000e-01
     407,    5.000000e+01,    1.250000e-01
     408,    5.000000e+01,    3.750000e-01
     409,    5.000000e+01,    6.250000e-01
     410,    5.000000e+01,    8.750000e-01
     411,    5.000000e+01,    1.125000e+00
     412,    5.000000e+01,    1.375000e+00
     413,    4.600000e+01,    1.375000e+00
     414,    4.800000e+01,    1.250000e+00
     415,    4.200000e+01,    1.375000e+00
     416,    4.400000e+01,    1.250000e+00
     417,    3.800000e+01,    1.375000e+00
     418,    4.000000e+01,    1.250000e+00
     419,    3.400000e+01,    1.375000e+00
     420,    3.600000e+01,    1.250000e+00
     421,    3.000000e+01,    1.375000e+00
     422,    3.200000e+01,    1.250000e+00
     423,    2.600000e+01,    1.375000e+00
     424,    2.800000e+01,    1.250000e+00
     425,    2.200000e+01,    1.375000e+00
     426,    2.400000e+01,    1.250000e+00
     427,    1.800000e+01,    1.375000e+00
     428,    2.000000e+01,    1.250000e+00
     429,    1.400000e+01,    1.375000e+00
     430,    1.600000e+01,    1.250000e+00
     431,    1.000000e+01,    1.375000e+00
     432,    1.200000e+01,    1.250000e+00
     433,    6.000000e+00,    1.375000e+00
     434,    8.000000e+00,    1.250000e+00
     435,    2.000000e+00,    1.375000e+00
     436,    4.000000e+00,    1.250000e+00
     437,   -2.000000e+00,    1.375000e+00
     438,   -5.551115e-16,    1.250000e+00
     439,   -6.000000e+00,    1.375000e+00
     440,   -4.000000e+00,    1.250000e+00
     441,   -1.000000e+01,    1.375000e+00
     442,   -8.000000e+00,    1.250000e+00
     443,   -1.400000e+01,    1.375000e+00
     444,   -1.200000e+01,    1.250000e+00
     445,   -1.800000e+01,    1.375000e+00
     446,   -1.600000e+01,    1.250000e+00
     447,   -2.200000e+01,    1.375000e+00
     448,   -2.000000e+01,    1.250000e+00
     449,   -2.600000e+01,    1.375000e+00
     450,   -2.400000e+01,    1.250000e+00
     451,   -3.000000e+01,    1.375000e+00
     452,   -2.800000e+01,    1.250000e+00
     453,   -3.400000e+01,    1.375000e+00
     454,   -3.200000e+01,    1.250000e+00
     455,   -3.800000e+01,    1.375000e+00
     456,   -3.600000e+01,    1.250000e+00
     457,   -4.200000e+01,    1.375000e+00
     458,   -4.000000e+01,    1.250000e+00
     459,   -4.600000e+01,    1.375000e+00
     460,   -4.400000e+01,    1.250000e+00
     461,   -4.800000e+01,    1.250000e+00
     462,    4.600000e+01,    1.125000e+00
     463,    4.800000e+01,    1.000000e+00
     464,    4.200000e+01,    1.125000e+00
     465,    4.400000e+01,    1.000000e+00
     466,    3.800000e+01,    1.125000e+00
     467,    4.000000e+01,    1.000000e+00
     468,    3.400000e+01,    1.125000e+00
     469,    3.600000e+01,    1.000000e+00
     470,    3.000000e+01,    1.125000e+00
     471,    3.200000e+01,    1.000000e+00
     472,    2.600000e+01,    1.125000e+00
     473,    2.800000e+01,    1.000000e+00
     474,    2.200000e+01,    1.125000e+00
     475,    2.400000e+01,    1.000000e+00
     476,    1.800000e+01,    1.125000e+00
     477,    2.000000e+01,    1.000000e+00
     478,    1.400000e+01,    1.125000e+00
     479,    1.600000e+01,    1.000000e+00
     480,    1.000000e+01,    1.125000e+00
     481,    1.200000e+01,    1.000000e+00
     482,    6.000000e+00,    1.125000e+00
     483,    8.000000e+00,    1.000000e+00
     484,    2.000000e+00,    1.125000e+00
     485,    4.000000e+00,    1.000000e+00
     486,   -2.000000e+00,    1.125000e+00
     487,    6.661338e-16,    1.000000e+00
     488,   -6.000000e+00,    1.125000e+00
     489,   -4.000000e+00,    1.000000e+00
     490,   -1.000000e+01,    1.125000e+00
     491,   -8.000000e+00,    1.000000e+00
     492,   -1.400000e+01,    1.125000e+00
     493,   -1.200000e+01,    1.000000e+00
     494,   -1.800000e+01,    1.125000e+00
     495,   -1.600000e+01,    1.000000e+00
     496,   -2.200000e+01,    1.125000e+00
     497,   -2.000000e+01,    1.000000e+00
     498,   -2.600000e+01,    1.125000e+00
     499,   -2.400000e+01,    1.000000e+00
     500,   -3.000000e+01,    1.125000e+00
     501,   -2.800000e+01,    1.000000e+00
     502,   -3.400000e+01,    1.125000e+00
     503,   -3.200000e+01,    1.000000e+00
     504,   -3.800000e+01,    1.125000e+00
     505,   -3.600000e+01,    1.000000e+00
     506,   -4.200000e+01,    1.125000e+00
     507,   -4.000000e+01,    1.000000e+00
     508,   -4.600000e+01,    1.125000e+00
     509,   -4.400000e+01,    1.000000e+00
     510,   -4.800000e+01,    1.000000e+00
     511,    4.600000e+01,    8.750000e-01
     512,    4.800000e+01,    7.500000e-01
     513,    4.200000e+01,    8.750000e-01
     514,    4.400000e+01,    7.500000e-01
     515,    3.800000e+01,    8.750000e-01
     516,    4.000000e+01,    7.500000e-01
     517,    3.400000e+01,    8.750000e-01
     518,    3.600000e+01,    7.500000e-01
     519,    3.000000e+01,    8.750000e-01
     520,    3.200000e+01,    7.500000e-01
     521,    2.600000e+01,    8.750000e-01
     522,    2.800000e+01,    7.500000e-01
     523,    2.200000e+01,    8.750000e-01
     524,    2.400000e+01,    7.500000e-01
     525,    1.800000e+01,    8.750000e-01
     526,    2.000000e+01,    7.500000e-01
     527,    1.400000e+01,    8.750000e-01
     528,    1.600000e+01,    7.500000e-01
     529,    1.000000e+01,    8.750000e-01
     530,    1.200000e+01,    7.500000e-01
     531,    6.000000e+00,    8.750000e-01
     532,    8.000000e+00,    7.500000e-01
     533,    2.000000e+00,    8.750000e-01
     534,    4.000000e+00,    7.500000e-01
     535,   -2.000000e+00,    8.750000e-01
     536,    0.000000e+00,    7.500000e-01
     537,   -6.000000e+00,    8.750000e-01
     538,   -4.000000e+00,    7.500000e-01
     539,   -1.000000e+01,    8.750000e-01
     540,   -8.000000e+00,    7.500000e-01
     541,   -1.400000e+01,    8.750000e-01
     542,   -1.200000e+01,    7.500000e-01
     543,   -1.800000e+01,    8.750000e-01
     544,   -1.600000e+01,    7.500000e-01
     545,   -2.200000e+01,    8.750000e-01
     546,   -2.000000e+01,    7.500000e-01
     547,   -2.600000e+01,    8.750000e-01
     548,   -2.400000e+01,    7.500000e-01
     549,   -3.000000e+01,    8.750000e-01
     550,   -2.800000e+01,    7.500000e-01
     551,   -3.400000e+01,    8.750000e-01
     552,   -3.200000e+01,    7.500000e-01
     553,   -3.800000e+01,    8.750000e-01
     554,   -3.600000e+01,    7.500000e-01
     555,   -4.200000e+01,    8.750000e-01
     556,   -4.000000e+01,    7.500000e-01
     557,   -4.600000e+01,    8.750000e-01
     558,   -4.400000e+01,    7.500000e-01
     559,   -4.800000e+01,    7.500000e-01
     560,    4.600000e+01,    6.250000e-01
     561,    4.800000e+01,    5.000000e-01
     562,    4.200000e+01,    6.250000e-01
     563,    4.400000e+01,    5.000000e-01
     564,    3.800000e+01,    6.250000e-01
     565,    4.000000e+01,    5.000000e-01
     566,    3.400000e+01,    6.250000e-01
     567,    3.600000e+01,    5.000000e-01
     568,    3.000000e+01,    6.250000e-01
     569,    3.200000e+01,    5.000000e-01
     570,    2.600000e+01,    6.250000e-01
     571,    2.800000e+01,    5.000000e-01
     572,    2.200000e+01,    6.250000e-01
     573,    2.400000e+01,    5.000000e-01
     574,    1.800000e+01,    6.250000e-01
     575,    2.000000e+01,    5.000000e-01
     576,    1.400000e+01,    6.250000e-01
     577,    1.600000e+01,    5.000000e-01
     578,    1.000000e+01,    6.250000e-01
     579,    1.200000e+01,    5.000000e-01
     580,    6.000000e+00,    6.250000e-01
     581,    8.000000e+00,    5.000000e-01
     582,    2.000000e+00,    6.250000e-01
     583,    4.000000e+00,    5.000000e-01
     584,   -2.000000e+00,    6.250000e-01
     585,   -4.440892e-16,    5.000000e-01
     586,   -6.000000e+00,    6.250000e-01
     587,   -4.000000e+00,    5.000000e-01
     588,   -1.000000e+01,    6.250000e-01
     589,   -8.000000e+00,    5.000000e-01
     590,   -1.400000e+01,    6.250000e-01
     591,   -1.200000e+01,    5.000000e-01
     592,   -1.800000e+01,    6.250000e-01
     593,   -1.600000e+01,    5.000000e-01
     594,   -2.200000e+01,    6.250000e-01
     595,   -2.000000e+01,    5.000000e-01
     596,   -2.600000e+01,    6.250000e-01
     597,   -2.400000e+01,    5.000000e-01
     598,   -3.000000e+01,    6.250000e-01
     599,   -2.800000e+01,    5.000000e-01
     600,   -3.400000e+01,    6.250000e-01
     601,   -3.200000e+01,    5.000000e-01
     602,   -3.800000e+01,    6.250000e-01
     603,   -3.600000e+01,    5.000000e-01
     604,   -4.200000e+01,    6.250000e-01
     605,   -4.000000e+01,    5.000000e-01
     606,   -4.600000e+01,    6.250000e-01
     607,   -4.400000e+01,    5.000000e-01
     608,   -4.800000e+01,    5.000000e-01
     609,    4.600000e+01,    3.750000e-01
     610,    4.800000e+01,    2.500000e-01
     611,    4.200000e+01,    3.750000e-01
     612,    4.400000e+01,    2.500000e-01
     613,    3.800000e+01,    3.750000e-01
     614,    4.000000e+01,    2.500000e-01
     615,    3.400000e+01,    3.750000e-01
     616,    3.600000e+01,    2.500000e-01
     617,    3.000000e+01,    3.750000e-01
     618,    3.200000e+01,    2.500000e-01
     619,    2.600000e+01,    3.750000e-01
     620,    2.800000e+01,    2.500000e-01
     621,    2.200000e+01,    3.750000e-01
     622,    2.400000e+01,    2.500000e-01
     623,    1.800000e+01,    3.750000e-01
     624,    2.000000e+01,    2.500000e-01
     625,    1.400000e+01,    3.750000e-01
     626,    1.600000e+01,    2.500000e-01
     627,    1.000000e+01,    3.750000e-01
     628,    1.200000e+01,    2.500000e-01
     629,    6.000000e+00,    3.750000e-01
     630,    8.000000e+00,    2.500000e-01
     631,    2.000000e+00,    3.750000e-01
     632,    4.000000e+00,    2.500000e-01
     633,   -2.000000e+00,    3.750000e-01
     634,   -1.776357e-15,    2.500000e-01
     635,   -6.000000e+00,    3.750000e-01
     636,   -4.000000e+00,    2.500000e-01
     637,   -1.000000e+01,    3.750000e-01
     638,   -8.000000e+00,    2.500000e-01
     639,   -1.400000e+01,    3.750000e-01
     640,   -1.200000e+01,    2.500000e-01
     641,   -1.800000e+01,    3.750000e-01
     642,   -1.600000e+01,    2.500000e-01
     643,   -2.200000e+01,    3.750000e-01
     644,   -2.000000e+01,    2.500000e-01
     645,   -2.600000e+01,    3.750000e-01
     646,   -2.400000e+01,    2.500000e-01
     647,   -3.000000e+01,    3.750000e-01
     648,   -2.800000e+01,    2.500000e-01
     649,   -3.400000e+01,    3.750000e-01
     650,   -3.200000e+01,    2.500000e-01
     651,   -3.800000e+01,    3.750000e-01
     652,   -3.600000e+01,    2.500000e-01
     653,   -4.200000e+01,    3.750000e-01
     654,   -4.000000e+01,    2.500000e-01
     655,   -4.600000e+01,    3.750000e-01
     656,   -4.400000e+01,    2.500000e-01
     657,   -4.800000e+01,    2.500000e-01
     658,    4.600000e+01,    1.250000e-01
     659,    4.800000e+01,   -2.939690e-19
     660,    4.200000e+01,    1.250000e-01
     661,    4.400000e+01,   -5.879381e-19
     662,    3.800000e+01,    1.250000e-01
     663,    4.000000e+01,   -5.879381e-19
     664,    3.400000e+01,    1.250000e-01
     665,    3.600000e+01,   -5.879381e-19
     666,    3.000000e+01,    1.250000e-01
     667,    3.200000e+01,   -5.879381e-19
     668,    2.600000e+01,    1.250000e-01
     669,    2.800000e+01,   -5.879381e-19
     670,    2.200000e+01,    1.250000e-01
     671,    2.400000e+01,   -5.879381e-19
     672,    1.800000e+01,    1.250000e-01
     673,    2.000000e+01,   -5.879381e-19
     674,    1.400000e+01,    1.250000e-01
     675,    1.600000e+01,   -5.879381e-19
     676,    1.000000e+01,    1.250000e-01
     677,    1.200000e+01,   -5.879381e-19
     678,    6.000000e+00,    1.250000e-01
     679,    8.000000e+00,   -5.879381e-19
     680,    2.000000e+00,    1.250000e-01
     681,    4.000000e+00,   -5.879381e-19
     682,   -2.000000e+00,    1.250000e-01
     683,    0.000000e+00,   -5.879381e-19
     684,   -6.000000e+00,    1.250000e-01
     685,   -4.000000e+00,   -5.879381e-19
     686,   -1.000000e+01,    1.250000e-01
     687,   -8.000000e+00,   -5.879381e-19
     688,   -1.400000e+01,    1.250000e-01
     689,   -1.200000e+01,   -5.879381e-19
     690,   -1.800000e+01,    1.250000e-01
     691,   -1.600000e+01,   -5.879381e-19
     692,   -2.200000e+01,    1.250000e-01
     693,   -2.000000e+01,   -5.879381e-19
     694,   -2.600000e+01,    1.250000e-01
     695,   -2.400000e+01,   -5.879381e-19
     696,   -3.000000e+01,    1.250000e-01
     697,   -2.800000e+01,   -5.879381e-19
     698,   -3.400000e+01,    1.250000e-01
     699,   -3.200000e+01,   -5.879381e-19
     700,   -3.800000e+01,    1.250000e-01
     701,   -3.600000e+01,   -5.879381e-19
     702,   -4.200000e+01,    1.250000e-01
     703,   -4.000000e+01,   -5.879381e-19
     704,   -4.600000e+01,    1.250000e-01
     705,   -4.400000e+01,   -5.879381e-19
     706,   -4.800000e+01,   -2.939690e-19
     707,    4.600000e+01,   -1.250000e-01
     708,    4.800000e+01,   -2.500000e-01
     709,    4.200000e+01,   -1.250000e-01
     710,    4.400000e+01,   -2.500000e-01
     711,    3.800000e+01,   -1.250000e-01
     712,    4.000000e+01,   -2.500000e-01
     713,    3.400000e+01,   -1.250000e-01
     714,    3.600000e+01,   -2.500000e-01
     715,    3.000000e+01,   -1.250000e-01
     716,    3.200000e+01,   -2.500000e-01
     717,    2.600000e+01,   -1.250000e-01
     718,    2.800000e+01,   -2.500000e-01
     719,    2.200000e+01,   -1.250000e-01
     720,    2.400000e+01,   -2.500000e-01
     721,    1.800000e+01,   -1.250000e-01
     722,    2.000000e+01,   -2.500000e-01
     723,    1.400000e+01,   -1.250000e-01
     724,    1.600000e+01,   -2.500000e-01
     725,    1.000000e+01,   -1.250000e-01
     726,    1.200000e+01,   -2.500000e-01
     727,    6.000000e+00,   -1.250000e-01
     728,    8.000000e+00,   -2.500000e-01
     729,    2.000000e+00,   -1.250000e-01
     730,    4.000000e+00,   -2.500000e-01
     731,   -2.000000e+00,   -1.250000e-01
     732,    8.881784e-16,   -2.500000e-01
     733,   -6.000000e+00,   -1.250000e-01
     734,   -4.000000e+00,   -2.500000e-01
     735,   -1.000000e+01,   -1.250000e-01
     736,   -8.000000e+00,   -2.500000e-01
     737,   -1.400000e+01,   -1.250000e-01
     738,   -1.200000e+01,   -2.500000e-01
     739,   -1.800000e+01,   -1.250000e-01
     740,   -1.600000e+01,   -2.500000e-01
     741,   -2.200000e+01,   -1.250000e-01
     742,   -2.000000e+01,   -2.500000e-01
     743,   -2.600000e+01,   -1.250000e-01
     744,   -2.400000e+01,   -2.500000e-01
     745,   -3.000000e+01,   -1.250000e-01
     746,   -2.800000e+01,   -2.500000e-01
     747,   -3.400000e+01,   -1.250000e-01
     748,   -3.200000e+01,   -2.500000e-01
     749,   -3.800000e+01,   -1.250000e-01
     750,   -3.600000e+01,   -2.500000e-01
     751,   -4.200000e+01,   -1.250000e-01
     752,   -4.000000e+01,   -2.500000e-01
     753,   -4.600000e+01,   -1.250000e-01
     754,   -4.400000e+01,   -2.500000e-01
     755,   -4.800000e+01,   -2.500000e-01
     756,    4.600000e+01,   -3.750000e-01
     757,    4.800000e+01,   -5.000000e-01
     758,    4.200000e+01,   -3.750000e-01
     759,    4.400000e+01,   -5.000000e-01
     760,    3.800000e+01,   -3.750000e-01
     761,    4.000000e+01,   -5.000000e-01
     762,    3.400000e+01,   -3.750000e-01
     763,    3.600000e+01,   -5.000000e-01
     764,    3.000000e+01,   -3.750000e-01
     765,    3.200000e+01,   -5.000000e-01
     766,    2.600000e+01,   -3.750000e-01
     767,    2.800000e+01,   -5.000000e-01
     768,    2.200000e+01,   -3.750000e-01
     769,    2.400000e+01,   -5.000000e-01
     770,    1.800000e+01,   -3.750000e-01
     771,    2.000000e+01,   -5.000000e-01
     772,    1.400000e+01,   -3.750000e-01
     773,    1.600000e+01,   -5.000000e-01
     774,    1.000000e+01,   -3.750000e-01
     775,    1.200000e+01,   -5.000000e-01
     776,    6.000000e+00,   -3.750000e-01
     777,    8.000000e+00,   -5.000000e-01
     778,    2.000000e+00,   -3.750000e-01
     779,    4.000000e+00,   -5.000000e-01
     780,   -2.000000e+00,   -3.750000e-01
     781,   -8.881784e-16,   -5.000000e-01
     782,   -6.000000e+00,   -3.750000e-01
     783,   -4.000000e+00,   -5.000000e-01
     784,   -1.000000e+01,   -3.750000e-01
     785,   -8.000000e+00,   -5.000000e-01
     786,   -1.400000e+01,   -3.750000e-01
     787,   -1.200000e+01,   -5.000000e-01
     788,   -1.800000e+01,   -3.750000e-01
     789,   -1.600000e+01,   -5.000000e-01
     790,   -2.200000e+01,   -3.750000e-01
     791,   -2.000000e+01,   -5.000000e-01
     792,   -2.600000e+01,   -3.750000e-01
     793,   -2.400000e+01,   -5.000000e-01
     794,   -3.000000e+01,   -3.750000e-01
     795,   -2.800000e+01,   -5.000000e-01
     796,   -3.400000e+01,   -3.750000e-01
     797,   -3.200000e+01,   -5.000000e-01
     798,   -3.800000e+01,   -3.750000e-01
     799,   -3.600000e+01,   -5.000000e-01
     800,   -4.200000e+01,   -3.750000e-01
     801,   -4.000000e+01,   -5.000000e-01
     802,   -4.600000e+01,   -3.750000e-01
     803,   -4.400000e+01,   -5.000000e-01
     804,   -4.800000e+01,   -5.000000e-01
     805,    4.600000e+01,   -6.250000e-01
     806,    4.800000e+01,   -7.500000e-01
     807,    4.200000e+01,   -6.250000e-01
     808,    4.400000e+01,   -7.500000e-01
     809,    3.800000e+01,   -6.250000e-01
     810,    4.000000e+01,   -7.500000e-01
     811,    3.400000e+01,   -6.250000e-01
     812,    3.600000e+01,   -7.500000e-01
     813,    3.000000e+01,   -6.250000e-01
     814,    3.200000e+01,   -7.500000e-01
     815,    2.600000e+01,   -6.250000e-01
     816,    2.800000e+01,   -7.500000e-01
     817,    2.200000e+01,   -6.250000e-01
     818,    2.400000e+01,   -7.500000e-01
     819,    1.800000e+01,   -6.250000e-01
     820,    2.000000e+01,   -7.500000e-01
     821,    1.400000e+01,   -6.250000e-01
     822,    1.600000e+01,   -7.500000e-01
     823,    1.000000e+01,   -6.250000e-01
     824,    1.200000e+01,   -7.500000e-01
     825,    6.000000e+00,   -6.250000e-01
     826,    8.000000e+00,   -7.500000e-01
     827,    2.000000e+00,   -6.250000e-01
     828,    4.000000e+00,   -7.500000e-01
     829,   -2.000000e+00,   -6.250000e-01
     830,    0.000000e+00,   -7.500000e-01
     831,   -6.000000e+00,   -6.250000e-01
     832,   -4.000000e+00,   -7.500000e-01
     833,   -1.000000e+01,   -6.250000e-01
     834,   -8.000000e+00,   -7.500000e-01
     835,   -1.400000e+01,   -6.250000e-01
     836,   -1.200000e+01,   -7.500000e-01
     837,   -1.800000e+01,   -6.250000e-01
     838,   -1.600000e+01,   -7.500000e-01
     839,   -2.200000e+01,   -6.250000e-01
     840,   -2.000000e+01,   -7.500000e-01
     841,   -2.600000e+01,   -6.250000e-01
     842,   -2.400000e+01,   -7.500000e-01
     843,   -3.000000e+01,   -6.250000e-01
     844,   -2.800000e+01,   -7.500000e-01
     845,   -3.400000e+01,   -6.250000e-01
     846,   -3.200000e+01,   -7.500000e-01
     847,   -3.800000e+01,   -6.250000e-01
     848,   -3.600000e+01,   -7.500000e-01
     849,   -4.200000e+01,   -6.250000e-01
     850,   -4.000000e+01,   -7.500000e-01
     851,   -4.600000e+01,   -6.250000e-01
     852,   -4.400000e+01,   -7.500000e-01
     853,   -4.800000e+01,   -7.500000e-01
     854,    4.600000e+01,   -8.750000e-01
     855,    4.800000e+01,   -1.000000e+00
     856,    4.200000e+01,   -8.750000e-01
     857,    4.400000e+01,   -1.000000e+00
     858,    3.800000e+01,   -8.750000e-01
     859,    4.000000e+01,   -1.000000e+00
     860,    3.400000e+01,   -8.750000e-01
     861,    3.600000e+01,   -1.000000e+00
     862,    3.000000e+01,   -8.750000e-01
     863,    3.200000e+01,   -1.000000e+00
     864,    2.600000e+01,   -8.750000e-01
     865,    2.800000e+01,   -1.000000e+00
     866,    2.200000e+01,   -8.750000e-01
     867,    2.400000e+01,   -1.000000e+00
     868,    1.800000e+01,   -8.750000e-01
     869,    2.000000e+01,   -1.000000e+00
     870,    1.400000e+01,   -8.750000e-01
     871,    1.600000e+01,   -1.000000e+00
     872,    1.000000e+01,   -8.750000e-01
     873,    1.200000e+01,   -1.000000e+00
     874,    6.000000e+00,   -8.750000e-01
     875,    8.000000e+00,   -1.000000e+00
     876,    2.000000e+00,   -8.750000e-01
     877,    4.000000e+00,   -1.000000e+00
     878,   -2.000000e+00,   -8.750000e-01
     879,    0.000000e+00,   -1.000000e+00
     880,   -6.000000e+00,   -8.750000e-01
     881,   -4.000000e+00,   -1.000000e+00
     882,   -1.000000e+01,   -8.750000e-01
     883,   -8.000000e+00,   -1.000000e+00
     884,   -1.400000e+01,   -8.750000e-01
     885,   -1.200000e+01,   -1.000000e+00
     886,   -1.800000e+01,   -8.750000e-01
     887,   -1.600000e+01,   -1.000000e+00
     888,   -2.200000e+01,   -8.750000e-01
     889,   -2.000000e+01,   -1.000000e+00
     890,   -2.600000e+01,   -8.750000e-01
     891,   -2.400000e+01,   -1.000000e+00
     892,   -3.000000e+01,   -8.750000e-01
     893,   -2.800000e+01,   -1.000000e+00
     894,   -3.400000e+01,   -8.750000e-01
     895,   -3.200000e+01,   -1.000000e+00
     896,   -3.800000e+01,   -8.750000e-01
     897,   -3.600000e+01,   -1.000000e+00
     898,   -4.200000e+01,   -8.750000e-01
     899,   -4.000000e+01,   -1.000000e+00
     900,   -4.600000e+01,   -8.750000e-01
     901,   -4.400000e+01,   -1.000000e+00
     902,   -4.800000e+01,   -1.000000e+00
     903,    4.600000e+01,   -1.125000e+00
     904,    4.800000e+01,   -1.250000e+00
     905,    4.200000e+01,   -1.125000e+00
     906,    4.400000e+01,   -1.250000e+00
     907,    3.800000e+01,   -1.125000e+00
     908,    4.000000e+01,   -1.250000e+00
     909,    3.400000e+01,   -1.125000e+00
     910,    3.600000e+01,   -1.250000e+00
     911,    3.000000e+01,   -1.125000e+00
     912,    3.200000e+01,   -1.250000e+00
     913,    2.600000e+01,   -1.125000e+00
     914,    2.800000e+01,   -1.250000e+00
     915,    2.200000e+01,   -1.125000e+00
     916,    2.400000e+01,   -1.250000e+00
     917,    1.800000e+01,   -1.125000e+00
     918,    2.000000e+01,   -1.250000e+00
     919,    1.400000e+01,   -1.125000e+00
     920,    1.600000e+01,   -1.250000e+00
     921,    1.000000e+01,   -1.125000e+00
     922,    1.200000e+01,   -1.250000e+00
     923,    6.000000e+00,   -1.125000e+00
     924,    8.000000e+00,   -1.250000e+00
     925,    2.000000e+00,   -1.125000e+00
     926,    4.000000e+00,   -1.250000e+00
     927,   -2.000000e+00,   -1.125000e+00
     928,    0.000000e+00,   -1.250000e+00
     929,   -6.000000e+00,   -1.125000e+00
     930,   -4.000000e+00,   -1.250000e+00
     931,   -1.000000e+01,   -1.125000e+00
     932,   -8.000000e+00,   -1.250000e+00
     933,   -1.400000e+01,   -1.125000e+00
     934,   -1.200000e+01,   -1.250000e+00
     935,   -1.800000e+01,   -1.125000e+00
     936,   -1.600000e+01,   -1.250000e+00
     937,   -2.200000e+01,   -1.125000e+00
     938,   -2.000000e+01,   -1.250000e+00
     939,   -2.600000e+01,   -1.125000e+00
     940,   -2.400000e+01,   -1.250000e+00
     941,   -3.000000e+01,   -1.125000e+00
     942,   -2.800000e+01,   -1.250000e+00
     943,   -3.400000e+01,   -1.125000e+00
     944,   -3.200000e+01,   -1.250000e+00
     945,   -3.800000e+01,   -1.125000e+00
     946,   -3.600000e+01,   -1.250000e+00
     947,   -4.200000e+01,   -1.125000e+00
     948,   -4.000000e+01,   -1.250000e+00
     949,   -4.600000e+01,   -1.125000e+00
     950,   -4.400000e+01,   -1.250000e+00
     951,   -4.800000e+01,   -1.250000e+00
     952,    4.600000e+01,   -1.375000e+00
     953,    4.200000e+01,   -1.375000e+00
     954,    3.800000e+01,   -1.375000e+00
     955,    3.400000e+01,   -1.375000e+00
     956,    3.000000e+01,   -1.375000e+00
     957,    2.600000e+01,   -1.375000e+00
     958,    2.200000e+01,   -1.375000e+00
     959,    1.800000e+01,   -1.375000e+00
     960,    1.400000e+01,   -1.375000e+00
     961,    1.000000e+01,   -1.375000e+00
     962,    6.000000e+00,   -1.375000e+00
     963,    2.000000e+00,   -1.375000e+00
     964,   -2.000000e+00,   -1.375000e+00
     965,   -6.000000e+00,   -1.375000e+00
     966,   -1.000000e+01,   -1.375000e+00
     967,   -1.400000e+01,   -1.375000e+00
     968,   -1.800000e+01,   -1.375000e+00
     969,   -2.200000e+01,   -1.375000e+00
     970,   -2.600000e+01,   -1.375000e+00
     971,   -3.000000e+01,   -1.375000e+00
     972,   -3.400000e+01,   -1.375000e+00
     973,   -3.800000e+01,   -1.375000e+00
     974,   -4.200000e+01,   -1.375000e+00
     975,   -4.600000e+01,   -1.375000e+00
********************************** E L E M E N T S ****************************
*ELEMENT, TYPE=CPS8, ELSET=beam
       1,       1,       3,      75,      74,     339,     413,     414,     412
       2,       3,       4,      76,      75,     340,     415,     416,     413
       3,       4,       5,      77,      76,     341,     417,     418,     415
       4,       5,       6,      78,      77,     342,     419,     420,     417
       5,       6,       7,      79,      78,     343,     421,     422,     419
       6,       7,       8,      80,      79,     344,     423,     424,     421
       7,       8,       9,      81,      80,     345,     425,     426,     423
       8,       9,      10,      82,      81,     346,     427,     428,     425
       9,      10,      11,      83,      82,     347,     429,     430,     427
      10,      11,      12,      84,      83,     348,     431,     432,     429
      11,      12,      13,      85,      84,     349,     433,     434,     431
      12,      13,      14,      86,      85,     350,     435,     436,     433
      13,      14,      15,      87,      86,     351,     437,     438,     435
      14,      15,      16,      88,      87,     352,     439,     440,     437
      15,      16,      17,      89,      88,     353,     441,     442,     439
      16,      17,      18,      90,      89,     354,     443,     444,     441
      17,      18,      19,      91,      90,     355,     445,     446,     443
      18,      19,      20,      92,      91,     356,     447,     448,     445
      19,      20,      21,      93,      92,     357,     449,     450,     447
      20,      21,      22,      94,      93,     358,     451,     452,     449
      21,      22,      23,      95,      94,     359,     453,     454,     451
      22,      23,      24,      96,      95,     360,     455,     456,     453
      23,      24,      25,      97,      96,     361,     457,     458,     455
      24,      25,      26,      98,      97,     362,     459,     460,     457
      25,      26,       2,      28,      98,     363,     364,     461,     459
      26,      74,      75,      99,      73,     414,     462,     463,     411
      27,      75,      76,     100,      99,     416,     464,     465,     462
      28,      76,      77,     101,     100,     418,     466,     467,     464
      29,      77,      78,     102,     101,     420,     468,     469,     466
      30,      78,      79,     103,     102,     422,     470,     471,     468
      31,      79,      80,     104,     103,     424,     472,     473,     470
      32,      80,      81,     105,     104,     426,     474,     475,     472
      33,      81,      82,     106,     105,     428,     476,     477,     474
      34,      82,      83,     107,     106,     430,     478,     479,     476
      35,      83,      84,     108,     107,     432,     480,     481,     478
      36,      84,      85,     109,     108,     434,     482,     483,     480
      37,      85,      86,     110,     109,     436,     484,     485,     482
      38,      86,      87,     111,     110,     438,     486,     487,     484
      39,      87,      88,     112,     111,     440,     488,     489,     486
      40,      88,      89,     113,     112,     442,     490,     491,     488
      41,      89,      90,     114,     113,     444,     492,     493,     490
      42,      90,      91,     115,     114,     446,     494,     495,     492
      43,      91,      92,     116,     115,     448,     496,     497,     494
      44,      92,      93,     117,     116,     450,     498,     499,     496
      45,      93,      94,     118,     117,     452,     500,     501,     498
      46,      94,      95,     119,     118,     454,     502,     503,     500
      47,      95,      96,     120,     119,     456,     504,     505,     502
      48,      96,      97,     121,     120,     458,     506,     507,     504
      49,      97,      98,     122,     121,     460,     508,     509,     506
      50,      98,      28,      29,     122,     461,     365,     510,     508
      51,      73,      99,     123,      72,     463,     511,     512,     410
      52,      99,     100,     124,     123,     465,     513,     514,     511
      53,     100,     101,     125,     124,     467,     515,     516,     513
      54,     101,     102,     126,     125,     469,     517,     518,     515
      55,     102,     103,     127,     126,     471,     519,     520,     517
      56,     103,     104,     128,     127,     473,     521,     522,     519
      57,     104,     105,     129,     128,     475,     523,     524,     521
      58,     105,     106,     130,     129,     477,     525,     526,     523
      59,     106,     107,     131,     130,     479,     527,     528,     525
      60,     107,     108,     132,     131,     481,     529,     530,     527
      61,     108,     109,     133,     132,     483,     531,     532,     529
      62,     109,     110,     134,     133,     485,     533,     534,     531
      63,     110,     111,     135,     134,     487,     535,     536,     533
      64,     111,     112,     136,     135,     489,     537,     538,     535
      65,     112,     113,     137,     136,     491,     539,     540,     537
      66,     113,     114,     138,     137,     493,     541,     542,     539
      67,     114,     115,     139,     138,     495,     543,     544,     541
      68,     115,     116,     140,     139,     497,     545,     546,     543
      69,     116,     117,     141,     140,     499,     547,     548,     545
      70,     117,     118,     142,     141,     501,     549,     550,     547
      71,     118,     119,     143,     142,     503,     551,     552,     549
      72,     119,     120,     144,     143,     505,     553,     554,     551
      73,     120,     121,     145,     144,     507,     555,     556,     553
      74,     121,     122,     146,     145,     509,     557,     558,     555
      75,     122,      29,      30,     146,     510,     366,     559,     557
      76,      72,     123,     147,      71,     512,     560,     561,     409
      77,     123,     124,     148,     147,     514,     562,     563,     560
      78,     124,     125,     149,     148,     516,     564,     565,     562
      79,     125,     126,     150,     149,     518,     566,     567,     564
      80,     126,     127,     151,     150,     520,     568,     569,     566
      81,     127,     128,     152,     151,     522,     570,     571,     568
      82,     128,     129,     153,     152,     524,     572,     573,     570
      83,     129,     130,     154,     153,     526,     574,     575,     572
      84,     130,     131,     155,     154,     528,     576,     577,     574
      85,     131,     132,     156,     155,     530,     578,     579,     576
      86,     132,     133,     157,     156,     532,     580,     581,     578
      87,     133,     134,     158,     157,     534,     582,     583,     580
      88,     134,     135,     159,     158,     536,     584,     585,     582
      89,     135,     136,     160,     159,     538,     586,     587,     584
      90,     136,     137,     161,     160,     540,     588,     589,     586
      91,     137,     138,     162,     161,     542,     590,     591,     588
      92,     138,     139,     163,     162,     544,     592,     593,     590
      93,     139,     140,     164,     163,     546,     594,     595,     592
      94,     140,     141,     165,     164,     548,     596,     597,     594
      95,     141,     142,     166,     165,     550,     598,     599,     596
      96,     142,     143,     167,     166,     552,     600,     601,     598
      97,     143,     144,     168,     167,     554,     602,     603,     600
      98,     144,     145,     169,     168,     556,     604,     605,     602
      99,     145,     146,     170,     169,     558,     606,     607,     604
     100,     146,      30,      31,     170,     559,     367,     608,     606
     101,      71,     147,     171,      70,     561,     609,     610,     408
     102,     147,     148,     172,     171,     563,     611,     612,     609
     103,     148,     149,     173,     172,     565,     613,     614,     611
     104,     149,     150,     174,     173,     567,     615,     616,     613
     105,     150,     151,     175,     174,     569,     617,     618,     615
     106,     151,     152,     176,     175,     571,     619,     620,     617
     107,     152,     153,     177,     176,     573,     621,     622,     619
     108,     153,     154,     178,     177,     575,     623,     624,     621
     109,     154,     155,     179,     178,     577,     625,     626,     623
     110,     155,     156,     180,     179,     579,     627,     628,     625
     111,     156,     157,     181,     180,     581,     629,     630,     627
     112,     157,     158,     182,     181,     583,     631,     632,     629
     113,     158,     159,     183,     182,     585,     633,     634,     631
     114,     159,     160,     184,     183,     587,     635,     636,     633
     115,     160,     161,     185,     184,     589,     637,     638,     635
     116,     161,     162,     186,     185,     591,     639,     640,     637
     117,     162,     163,     187,     186,     593,     641,     642,     639
     118,     163,     164,     188,     187,     595,     643,     644,     641
     119,     164,     165,     189,     188,     597,     645,     646,     643
     120,     165,     166,     190,     189,     599,     647,     648,     645
     121,     166,     167,     191,     190,     601,     649,     650,     647
     122,     167,     168,     192,     191,     603,     651,     652,     649
     123,     168,     169,     193,     192,     605,     653,     654,     651
     124,     169,     170,     194,     193,     607,     655,     656,     653
     125,     170,      31,      32,     194,     608,     368,     657,     655
     126,      70,     171,     195,      69,     610,     658,     659,     407
     127,     171,     172,     196,     195,     612,     660,     661,     658
     128,     172,     173,     197,     196,     614,     662,     663,     660
     129,     173,     174,     198,     197,     616,     664,     665,     662
     130,     174,     175,     199,     198,     618,     666,     667,     664
     131,     175,     176,     200,     199,     620,     668,     669,     666
     132,     176,     177,     201,     200,     622,     670,     671,     668
     133,     177,     178,     202,     201,     624,     672,     673,     670
     134,     178,     179,     203,     202,     626,     674,     675,     672
     135,     179,     180,     204,     203,     628,     676,     677,     674
     136,     180,     181,     205,     204,     630,     678,     679,     676
     137,     181,     182,     206,     205,     632,     680,     681,     678
     138,     182,     183,     207,     206,     634,     682,     683,     680
     139,     183,     184,     208,     207,     636,     684,     685,     682
     140,     184,     185,     209,     208,     638,     686,     687,     684
     141,     185,     186,     210,     209,     640,     688,     689,     686
     142,     186,     187,     211,     210,     642,     690,     691,     688
     143,     187,     188,     212,     211,     644,     692,     693,     690
     144,     188,     189,     213,     212,     646,     694,     695,     692
     145,     189,     190,     214,     213,     648,     696,     697,     694
     146,     190,     191,     215,     214,     650,     698,     699,     696
     147,     191,     192,     216,     215,     652,     700,     701,     698
     148,     192,     193,     217,     216,     654,     702,     703,     700
     149,     193,     194,     218,     217,     656,     704,     705,     702
     150,     194,      32,      33,     218,     657,     369,     706,     704
     151,      69,     195,     219,      68,     659,     707,     708,     406
     152,     195,     196,     220,     219,     661,     709,     710,     707
     153,     196,     197,     221,     220,     663,     711,     712,     709
     154,     197,     198,     222,     221,     665,     713,     714,     711
     155,     198,     199,     223,     222,     667,     715,     716,     713
     156,     199,     200,     224,     223,     669,     717,     718,     715
     157,     200,     201,     225,     224,     671,     719,     720,     717
     158,     201,     202,     226,     225,     673,     721,     722,     719
     159,     202,     203,     227,     226,     675,     723,     724,     721
     160,     203,     204,     228,     227,     677,     725,     726,     723
     161,     204,     205,     229,     228,     679,     727,     728,     725
     162,     205,     206,     230,     229,     681,     729,     730,     727
     163,     206,     207,     231,     230,     683,     731,     732,     729
     164,     207,     208,     232,     231,     685,     733,     734,     731
     165,     208,     209,     233,     232,     687,     735,     736,     733
     166,     209,     210,     234,     233,     689,     737,     738,     735
     167,     210,     211,     235,     234,     691,     739,     740,     737
     168,     211,     212,     236,     235,     693,     741,     742,     739
     169,     212,     213,     237,     236,     695,     743,     744,     741
     170,     213,     214,     238,     237,     697,     745,     746,     743
     171,     214,     215,     239,     238,     699,     747,     748,     745
     172,     215,     216,     240,     239,     701,     749,     750,     747
     173,     216,     217,     241,     240,     703,     751,     752,     749
     174,     217,     218,     242,     241,     705,     753,     754,     751
     175,     218,      33,      34,     242,     706,     370,     755,     753
     176,      68,     219,     243,      67,     708,     756,     757,     405
     177,     219,     220,     244,     243,     710,     758,     759,     756
     178,     220,     221,     245,     244,     712,     760,     761,     758
     179,     221,     222,     246,     245,     714,     762,     763,     760
     180,     222,     223,     247,     246,     716,     764,     765,     762
     181,     223,     224,     248,     247,     718,     766,     767,     764
     182,     224,     225,     249,     248,     720,     768,     769,     766
     183,     225,     226,     250,     249,     722,     770,     771,     768
     184,     226,     227,     251,     250,     724,     772,     773,     770
     185,     227,     228,     252,     251,     726,     774,     775,     772
     186,     228,     229,     253,     252,     728,     776,     777,     774
     187,     229,     230,     254,     253,     730,     778,     779,     776
     188,     230,     231,     255,     254,     732,     780,     781,     778
     189,     231,     232,     256,     255,     734,     782,     783,     780
     190,     232,     233,     257,     256,     736,     784,     785,     782
     191,     233,     234,     258,     257,     738,     786,     787,     784
     192,     234,     235,     259,     258,     740,     788,     789,     786
     193,     235,     236,     260,     259,     742,     790,     791,     788
     194,     236,     237,     261,     260,     744,     792,     793,     790
     195,     237,     238,     262,     261,     746,     794,     795,     792
     196,     238,     239,     263,     262,     748,     796,     797,     794
     197,     239,     240,     264,     263,     750,     798,     799,     796
     198,     240,     241,     265,     264,     752,     800,     801,     798
     199,     241,     242,     266,     265,     754,     802,     803,     800
     200,     242,      34,      35,     266,     755,     371,     804,     802
     201,      67,     243,     267,      66,     757,     805,     806,     404
     202,     243,     244,     268,     267,     759,     807,     808,     805
     203,     244,     245,     269,     268,     761,     809,     810,     807
     204,     245,     246,     270,     269,     763,     811,     812,     809
     205,     246,     247,     271,     270,     765,     813,     814,     811
     206,     247,     248,     272,     271,     767,     815,     816,     813
     207,     248,     249,     273,     272,     769,     817,     818,     815
     208,     249,     250,     274,     273,     771,     819,     820,     817
     209,     250,     251,     275,     274,     773,     821,     822,     819
     210,     251,     252,     276,     275,     775,     823,     824,     821
     211,     252,     253,     277,     276,     777,     825,     826,     823
     212,     253,     254,     278,     277,     779,     827,     828,     825
     213,     254,     255,     279,     278,     781,     829,     830,     827
     214,     255,     256,     280,     279,     783,     831,     832,     829
     215,     256,     257,     281,     280,     785,     833,     834,     831
     216,     257,     258,     282,     281,     787,     835,     836,     833
     217,     258,     259,     283,     282,     789,     837,     838,     835
     218,     259,     260,     284,     283,     791,     839,     840,     837
     219,     260,     261,     285,     284,     793,     841,     842,     839
     220,     261,     262,     286,     285,     795,     843,     844,     841
     221,     262,     263,     287,     286,     797,     845,     846,     843
     222,     263,     264,     288,     287,     799,     847,     848,     845
     223,     264,     265,     289,     288,     801,     849,     850,     847
     224,     265,     266,     290,     289,     803,     851,     852,     849
     225,     266,      35,      36,     290,     804,     372,     853,     851
     226,      66,     267,     291,      65,     806,     854,     855,     403
     227,     267,     268,     292,     291,     808,     856,     857,     854
     228,     268,     269,     293,     292,     810,     858,     859,     856
     229,     269,     270,     294,     293,     812,     860,     861,     858
     230,     270,     271,     295,     294,     814,     862,     863,     860
     231,     271,     272,     296,     295,     816,     864,     865,     862
     232,     272,     273,     297,     296,     818,     866,     867,     864
     233,     273,     274,     298,     297,     820,     868,     869,     866
     234,     274,     275,     299,     298,     822,     870,     871,     868
     235,     275,     276,     300,     299,     824,     872,     873,     870
     236,     276,     277,     301,     300,     826,     874,     875,     872
     237,     277,     278,     302,     301,     828,     876,     877,     874
     238,     278,     279,     303,     302,     830,     878,     879,     876
     239,     279,     280,     304,     303,     832,     880,     881,     878
     240,     280,     281,     305,     304,     834,     882,     883,     880
     241,     281,     282,     306,     305,     836,     884,     885,     882
     242,     282,     283,     307,     306,     838,     886,     887,     884
     243,     283,     284,     308,     307,     840,     888,     889,     886
     244,     284,     285,     309,     308,     842,     890,     891,     888
     245,     285,     286,     310,     309,     844,     892,     893,     890
     246,     286,     287,     311,     310,     846,     894,     895,     892
     247,     287,     288,     312,     311,     848,     896,     897,     894
     248,     288,     289,     313,     312,     850,     898,     899,     896
     249,     289,     290,     314,     313,     852,     900,     901,     898
     250,     290,      36,      37,     314,     853,     373,     902,     900
     251,      65,     291,     315,      64,     855,     903,     904,     402
     252,     291,     292,     316,     315,     857,     905,     906,     903
     253,     292,     293,     317,     316,     859,     907,     908,     905
     254,     293,     294,     318,     317,     861,     909,     910,     907
     255,     294,     295,     319,     318,     863,     911,     912,     909
     256,     295,     296,     320,     319,     865,     913,     914,     911
     257,     296,     297,     321,     320,     867,     915,     916,     913
     258,     297,     298,     322,     321,     869,     917,     918,     915
     259,     298,     299,     323,     322,     871,     919,     920,     917
     260,     299,     300,     324,     323,     873,     921,     922,     919
     261,     300,     301,     325,     324,     875,     923,     924,     921
     262,     301,     302,     326,     325,     877,     925,     926,     923
     263,     302,     303,     327,     326,     879,     927,     928,     925
     264,     303,     304,     328,     327,     881,     929,     930,     927
     265,     304,     305,     329,     328,     883,     931,     932,     929
     266,     305,     306,     330,     329,     885,     933,     934,     931
     267,     306,     307,     331,     330,     887,     935,     936,     933
     268,     307,     308,     332,     331,     889,     937,     938,     935
     269,     308,     309,     333,     332,     891,     939,     940,     937
     270,     309,     310,     334,     333,     893,     941,     942,     939
     271,     310,     311,     335,     334,     895,     943,     944,     941
     272,     311,     312,     336,     335,     897,     945,     946,     943
     273,     312,     313,     337,     336,     899,     947,     948,     945
     274,     313,     314,     338,     337,     901,     949,     950,     947
     275,     314,      37,      38,     338,     902,     374,     951,     949
     276,      64,     315,      63,      39,     904,     952,     400,     401
     277,     315,     316,      62,      63,     906,     953,     399,     952
     278,     316,     317,      61,      62,     908,     954,     398,     953
     279,     317,     318,      60,      61,     910,     955,     397,     954
     280,     318,     319,      59,      60,     912,     956,     396,     955
     281,     319,     320,      58,      59,     914,     957,     395,     956
     282,     320,     321,      57,      58,     916,     958,     394,     957
     283,     321,     322,      56,      57,     918,     959,     393,     958
     284,     322,     323,      55,      56,     920,     960,     392,     959
     285,     323,     324,      54,      55,     922,     961,     391,     960
     286,     324,     325,      53,      54,     924,     962,     390,     961
     287,     325,     326,      52,      53,     926,     963,     389,     962
     288,     326,     327,      51,      52,     928,     964,     388,     963
     289,     327,     328,      50,      51,     930,     965,     387,     964
     290,     328,     329,      49,      50,     932,     966,     386,     965
     291,     329,     330,      48,      49,     934,     967,     385,     966
     292,     330,     331,      47,      48,     936,     968,     384,     967
     293,     331,     332,      46,      47,     938,     969,     383,     968
     294,     332,     333,      45,      46,     940,     970,     382,     969
     295,     333,     334,      44,      45,     942,     971,     381,     970
     296,     334,     335,      43,      44,     944,     972,     380,     971
     297,     335,     336,      42,      43,     946,     973,     379,     972
     298,     336,     337,      41,      42,     948,     974,     378,     973
     299,     337,     338,      40,      41,     950,     975,     377,     974
     300,     338,      38,      27,      40,     951,     375,     376,     975
********************************** N O D E S E T S **********************************
*NSET, NSET=BC_fix
       2,      27,      28,      29,      30,      31,
      32,      33,      34,      35,      36,      37,
      38,     364,     365,     366,     367,     368,
     369,     370,     371,     372,     373,     374,
     375,
*NSET, NSET=reference_Load
       1,      39,      64,      65,      66,      67,
      68,      69,      70,      71,      72,      73,
      74,     401,     402,     403,     404,     405,
     406,     407,     408,     409,     410,     411,
     412,
********************************** S I D E S E T S **********************************
*ELSET, ELSET=reference_Load_surface_S4
       1,      26,      51,      76,     101,     126,     151,     176,     201,     226,
     251,     276
*SURFACE, NAME=reference_Load_surface
reference_Load_surface_S4, S4
